{
  "author": {
    "name": "chengpeiquan",
    "email": "chengpeiquan@chengpeiquan.com",
    "link": "https://chengpeiquan.com"
  },
  "type": "cookbook",
  "total": 104,
  "page": 1,
  "lastPage": 11,
  "category": "thrift",
  "data": [
    {
      "id": "caishen-zhushou",
      "type": "cookbook",
      "shortDate": "2024-02-15",
      "title": "菜谱：一年一度的仪式感 正月初五的财神猪手（1.5h）",
      "desc": "今天正月初五，接财神，每年今天的仪式感都是做只猪手哈哈哈哈，发财就手～今天是高压锅版，如果没有高压锅也可以用隔水炖或者电饭煲来炖猪手。",
      "keywords": "潮州猪手,潮汕猪手,潮州卤猪手,财神猪手",
      "date": "2024-02-15 06:56:00",
      "cover": "http://cdn.chengpeiquan.com/img/2024/02/202402180015053.jpg?x-oss-process=image/interlace,1",
      "categories": [
        "thrift",
        "staple",
        "teochew",
        "bento"
      ],
      "duration": 90,
      "price": 33,
      "xiaohongshuId": "65ccd49d000000000b00f337"
    },
    {
      "id": "chaoshan-xiyangcai-roupian-tang",
      "type": "cookbook",
      "shortDate": "2023-08-27",
      "title": "菜谱：西洋蔡同奀妹，简单的潮汕促肉汤（5min）",
      "desc": "今天来一个西洋菜焯肉片汤，潮汕人很爱吃的“促肉”汤（焯肉），除去把水煮开的时间，中间真正煮食材的时间也就不到 2 分钟，真的很快哈哈哈哈。至于今天这个名字，《七十二家房客》都看过吧？每次看到西洋菜，我就想到里面的“西洋蔡”，然后西洋蔡又和奀妹在一起，所以这道汤我就起名“西洋蔡同奀妹”啦（奀妹：？？？）",
      "keywords": "西洋蔡同奀妹,潮汕促肉汤,西洋菜焯肉片汤",
      "date": "2023-08-27 23:38:00",
      "cover": "http://cdn.chengpeiquan.com/img/2023/08/20230827164050.jpg?x-oss-process=image/interlace,1",
      "categories": [
        "thrift",
        "teochew",
        "soup"
      ],
      "duration": 5,
      "price": 9,
      "xiaohongshuId": "64eafed6000000001700e4d2"
    },
    {
      "id": "chaozhou-roudong",
      "type": "cookbook",
      "shortDate": "2023-06-19",
      "title": "菜谱：潮汕凉菜之潮州肉冻（1.5h）",
      "desc": "哈哈哈哈哈天气热就想吃凉菜，潮汕地区也有自己的凉菜（虽然在广州和深圳的外卖基本上买不到…），今天的潮州肉冻也是其中之一，我妈妈时不时会买，有时她也会自己做，我这次也是凭着十几岁那会帮她打下手时留下的记忆把潮州肉冻做了出来，竟然没有记错哈哈哈…",
      "keywords": "潮州肉冻,潮州小吃,潮汕凉菜,潮汕小吃",
      "date": "2023-06-19 05:08:00",
      "cover": "http://cdn.chengpeiquan.com/img/2023/06/20230618212009.jpg?x-oss-process=image/interlace,1",
      "categories": [
        "teochew",
        "thrift",
        "beginner"
      ],
      "duration": 90,
      "price": 20.7,
      "xiaohongshuId": "648f01ba0000000013004f8d"
    },
    {
      "id": "nanru-kaorou-juan-shengcai",
      "type": "cookbook",
      "shortDate": "2023-05-01",
      "title": "省钱菜谱：5.4元的南乳烤肉卷生菜（20min）",
      "desc": "今天搞个南乳烤肉，之前几次我叫它腐乳的时候老是被问不是白色才是腐乳吗，这个其实也是啊，有红色也有白色，像我家那边说腐乳汁就是指这种红色的，当然有的地方更习惯叫它南乳，我也用南乳来叫它吧，减少歧义哈哈哈哈~",
      "keywords": "潮汕美食,清汤面",
      "date": "2023-05-01 07:32:00",
      "cover": "http://cdn.chengpeiquan.com/img/2023/05/20230430234407.jpg?x-oss-process=image/interlace,1",
      "categories": [
        "thrift",
        "bento",
        "teochew",
        "beginner"
      ],
      "duration": 20,
      "price": 5.4,
      "xiaohongshuId": "644e8a260000000027012696"
    },
    {
      "id": "qincai-xianggu-xianrou-yuntun",
      "type": "cookbook",
      "shortDate": "2023-04-03",
      "title": "省钱菜谱：3.25元/碗的芹菜香菇鲜肉云吞（20min）",
      "desc": "今天这个菜谱是上周的，上周末包了芹菜香菇云吞，今天才来整理哈哈哈哈哈。",
      "keywords": "芹菜香菇鲜肉云吞,香菇肉云吞,芹菜肉云吞",
      "date": "2023-04-03 03:06:00",
      "cover": "http://cdn.chengpeiquan.com/img/2023/04/20230402223302.jpg?x-oss-process=image/interlace,1",
      "categories": [
        "thrift",
        "staple",
        "teochew"
      ],
      "duration": 20,
      "price": 3.25,
      "xiaohongshuId": "642961a0000000000703afe9"
    },
    {
      "id": "muer-chaorou",
      "type": "cookbook",
      "shortDate": "2023-03-03",
      "title": "菜谱：简易版木耳炒肉（5min）",
      "desc": "今天分享一个木耳炒肉，过年的时候好朋友兼好邻居送了我一袋木耳，好好吃哈哈哈哈！",
      "keywords": "木耳炒肉,黑木耳炒肉片",
      "date": "2023-03-03 08:11:00",
      "cover": "http://cdn.chengpeiquan.com/img/2023/02/20230303145446.jpg?x-oss-process=image/interlace,1",
      "categories": [
        "thrift",
        "beginner"
      ],
      "duration": 5,
      "price": 6,
      "xiaohongshuId": "640195370000000013011c7b"
    },
    {
      "id": "gali-chaofan",
      "type": "cookbook",
      "shortDate": "2023-02-05",
      "title": "菜谱：超简单的咖喱炒饭（5min）",
      "desc": "咖喱炒饭也是我很喜欢吃的一个炒法，过程超简单！就是在普通蛋炒饭的基础上，上色步骤将生抽酱油换成咖喱粉就行！",
      "keywords": "潮汕美食,咖喱炒饭,炒饭",
      "date": "2023-02-05 04:36:00",
      "cover": "http://cdn.chengpeiquan.com/img/2023/02/20230204204833.jpg?x-oss-process=image/interlace,1",
      "categories": [
        "thrift",
        "teochew",
        "staple",
        "beginner"
      ],
      "duration": 5,
      "price": 1.8,
      "xiaohongshuId": "63de514b000000001d012d21"
    },
    {
      "id": "chaoshan-baicai-xianrou-jiaozi",
      "type": "cookbook",
      "shortDate": "2023-01-22",
      "title": "菜谱：口感细腻的白菜鲜肉饺子v2版（1h）",
      "desc": "祝大家新年快乐！新的一年身体健康，事事如意！今天除夕，中午包顿饺子！前段时间研究了馅料的新的加工方式，虽然花的时间比平时的饺子馅要多一点，但做出来的饺子有薄皮小笼包的感觉，口感非常细腻，特别好吃！！！",
      "keywords": "白菜饺,潮式白菜饺子,潮汕饺子",
      "date": "2023-01-22 01:05:00",
      "cover": "http://cdn.chengpeiquan.com/img/2023/01/20230121233847.jpg?x-oss-process=image/interlace,1",
      "categories": [
        "thrift",
        "teochew",
        "staple"
      ],
      "duration": 60,
      "price": 24,
      "xiaohongshuId": "63cbaaec000000001f00fa5f"
    },
    {
      "id": "baitang-zheng-jidan",
      "type": "cookbook",
      "shortDate": "2023-01-13",
      "title": "食疗菜谱：用白糖蒸鸡蛋治疗感冒鼻音（1min）",
      "desc": "我在圣诞节那天弱阳，在元旦节那天阳康，但我的鼻音一直迟迟不好，然后我老妈教了我这招，试了几天真的好了！网上搜了一下确实有这个说法，分享一下有同样困扰的人，可以试试。",
      "keywords": "白糖蒸鸡蛋,雪里藏珠",
      "date": "2023-01-13 06:56:00",
      "cover": "http://cdn.chengpeiquan.com/img/2023/01/20230112231503.jpg?x-oss-process=image/interlace,1",
      "categories": [
        "thrift",
        "beginner",
        "bento",
        "teochew",
        "staple"
      ],
      "duration": 1,
      "price": 0.8,
      "xiaohongshuId": "630a282a000000001902aa22"
    },
    {
      "id": "shacha-roupi-men-fensi",
      "type": "cookbook",
      "shortDate": "2023-01-12",
      "title": "省钱菜谱：7.68元的沙茶肉皮焖粉丝（10min）",
      "desc": "这是前几天的晚餐了，今天才有时间来发哈哈哈哈，我好爱沙茶！变着法子玩一下肉皮的新做法，好吃！但是会有点干，建议搭配个汤一起吃，或者准备点 AD 钙奶啥的饮料嘿嘿。",
      "keywords": "沙茶肉皮焖粉丝,潮汕肉皮,肉皮焖粉丝",
      "date": "2023-01-12 07:14:00",
      "cover": "http://cdn.chengpeiquan.com/img/2023/01/20230111232706.jpg?x-oss-process=image/interlace,1",
      "categories": [
        "thrift",
        "bento",
        "teochew"
      ],
      "duration": 10,
      "price": 7.68,
      "xiaohongshuId": "63bed26f000000001f00c6a3"
    }
  ]
}