{
  "author": {
    "name": "chengpeiquan",
    "email": "chengpeiquan@chengpeiquan.com",
    "link": "https://chengpeiquan.com"
  },
  "type": "cookbook",
  "total": 104,
  "page": 11,
  "lastPage": 11,
  "category": "thrift",
  "data": [
    {
      "id": "roumo-doufu-tang",
      "type": "cookbook",
      "shortDate": "2021-09-02",
      "title": "省钱菜谱：2元的肉末豆腐汤（10min）",
      "desc": "今晚临下班下起了雨，穿着背心裤衩还有点凉飕飕的，想想煮点汤好了，暖一暖~",
      "keywords": "潮汕美食,肉末豆腐汤",
      "date": "2021-09-02 07:42:00",
      "cover": "http://cdn.chengpeiquan.com/img/2022/02/20220215010601.jpg?x-oss-process=image/interlace,1",
      "categories": [
        "thrift",
        "teochew",
        "soup",
        "orthodontic",
        "beginner"
      ],
      "duration": 10,
      "price": 2,
      "xiaohongshuId": "612f9f75000000002103524d",
      "cite": [
        "chaoshan-suantoulao"
      ]
    },
    {
      "id": "chiyou-zhurou",
      "type": "cookbook",
      "shortDate": "2021-09-01",
      "title": "省钱菜谱：3元的豉油猪肉（2min）",
      "desc": "这道菜是我还在家初中高中的时候，我妈经常做给我吃的，那会赶着去上学，时间紧的时候，做这道菜非常快，而且也很好吃很下饭！",
      "keywords": "潮汕美食,豉油猪肉",
      "date": "2021-09-01 07:21:00",
      "cover": "http://cdn.chengpeiquan.com/img/2022/02/20220215012009.jpg?x-oss-process=image/interlace,1",
      "categories": [
        "thrift",
        "teochew",
        "bento",
        "beginner"
      ],
      "duration": 2,
      "price": 3,
      "xiaohongshuId": "612e48e500000000010255d6"
    },
    {
      "id": "xianggu-yumili-chao-roupian",
      "type": "cookbook",
      "shortDate": "2021-08-24",
      "title": "省钱菜谱：5块钱的香菇玉米粒炒肉片（5min）",
      "desc": "周末的时候凑单拿了根玉米，还有包云吞匀了点瘦肉留着炒菜，所以今晚吃的是：香菇玉米粒炒肉片。这道菜我很喜欢，以前有时候带饭去公司也会做它，没有太多汤汤水水，又有荤有素有粗粮，而且做法简单还便宜。",
      "keywords": "香菇玉米粒炒肉片,玉米炒肉",
      "date": "2021-08-24 06:47:00",
      "cover": "http://cdn.chengpeiquan.com/img/2022/02/20220223002231.jpg?x-oss-process=image/interlace,1",
      "categories": [
        "thrift",
        "bento"
      ],
      "duration": 5,
      "price": 5,
      "xiaohongshuId": "6123b4ee0000000001027ed2"
    },
    {
      "id": "chunrou-yuntun",
      "type": "cookbook",
      "shortDate": "2021-08-22",
      "title": "省钱菜谱：2.7元一碗的纯肉云吞（10min）",
      "desc": "云吞虽然都是肉，但因为做法实在太多，所以不太挑剔的话，成本其实可以很低！分享一个省钱的做法，平均一个云吞1毛8，按照15个一碗的话，2块7毛钱解决晚餐。",
      "keywords": "云吞,云吞包法,云吞怎么包",
      "date": "2021-08-22 05:17:00",
      "cover": "http://cdn.chengpeiquan.com/img/2022/01/20220110235534.jpg?x-oss-process=image/interlace,1",
      "categories": [
        "thrift",
        "staple",
        "teochew"
      ],
      "duration": 10,
      "price": 2.7,
      "xiaohongshuId": "6120fcd80000000001028170",
      "cite": [
        "chaoshan-suantoulao"
      ]
    }
  ]
}