{
  "author": {
    "name": "chengpeiquan",
    "email": "chengpeiquan@chengpeiquan.com",
    "link": "https://chengpeiquan.com"
  },
  "type": "cookbook",
  "total": 104,
  "page": 2,
  "lastPage": 11,
  "category": "thrift",
  "data": [
    {
      "id": "shacha-dansi-chao-mifen",
      "type": "cookbook",
      "shortDate": "2023-01-07",
      "title": "省钱菜谱：2.6元的沙茶蛋丝炒米粉（10min）",
      "desc": "中午起来有点晚，冰箱里只有生菜和鸡蛋，家里还有米粉，炒个半斋的米粉吃哈哈哈，因为没有肉，所以今天没加辣椒酱，用的沙茶酱炒。",
      "keywords": "沙茶蛋丝炒米粉,潮汕炒米粉,潮州细米粉",
      "date": "2023-01-07 23:37:00",
      "cover": "http://cdn.chengpeiquan.com/img/2023/01/20230107154722.jpg?x-oss-process=image/interlace,1",
      "categories": [
        "thrift",
        "teochew",
        "staple"
      ],
      "duration": 10,
      "price": 2.6,
      "xiaohongshuId": "63b92144000000001f025b8a"
    },
    {
      "id": "chaoshan-caitou-jiaozi",
      "type": "cookbook",
      "shortDate": "2022-10-24",
      "title": "菜谱：鲜甜可口的潮式菜头饺（60min）",
      "desc": "“菜头”在潮州话里是指萝卜，不带颜色就默认是白色，像胡萝卜就会带上颜色称为“红菜头”，所以来潮州看到说“白菜头”不要以为是白菜的头哈哈哈哈，两者毫无关系~",
      "keywords": "菜头饺,白萝卜饺子,潮汕饺子",
      "date": "2022-10-24 05:16:00",
      "cover": "http://cdn.chengpeiquan.com/img/2022/10/20221023212711.jpg?x-oss-process=image/interlace,1",
      "categories": [
        "thrift",
        "teochew",
        "staple"
      ],
      "duration": 60,
      "price": 24,
      "xiaohongshuId": "63553ebf0000000014034a2a"
    },
    {
      "id": "baocaisi-chao-guotiao",
      "type": "cookbook",
      "shortDate": "2022-08-28",
      "title": "省钱菜谱：3.5元的包菜丝炒粿条（5min）",
      "desc": "下午物业在小区里举办了一个沙井盖美化的活动，好多小朋友画了很可爱的图案，有我喜欢的哆啦A梦和海绵宝宝哈哈哈哈，居然还有滑稽表情，也解决了我住了三个月以来的疑惑，哈哈哈哈我就说怎么看到有一些沙井盖还有图案，是有人偷偷去画的还是咋地，原来是物业组织的，好玩！",
      "keywords": "潮州,潮州卤水,包菜丝炒粿条,炒粿条",
      "date": "2022-08-28 06:20:00",
      "cover": "http://cdn.chengpeiquan.com/img/2022/08/20220827223411.jpg?x-oss-process=image/interlace,1",
      "categories": [
        "thrift",
        "beginner",
        "bento",
        "teochew",
        "staple"
      ],
      "duration": 5,
      "price": 3.5,
      "xiaohongshuId": "630a282a000000001902aa22"
    },
    {
      "id": "shajiang-shousi-jitui",
      "type": "cookbook",
      "shortDate": "2022-07-24",
      "title": "省钱菜谱：11.5元的沙姜手撕鸡腿（35min）",
      "desc": "今晚做个沙姜鸡腿，沙姜的味道和普通的生姜是不一样的，粤菜挺常用的，沙姜鸡、沙姜猪手啥的，因为冰箱里有上周买的冷冻琵琶腿，所以先搞个鸡来吃吃~",
      "keywords": "沙姜手撕鸡腿,沙姜鸡腿,沙姜鸡",
      "date": "2022-07-24 05:25:00",
      "cover": "http://cdn.chengpeiquan.com/img/2022/07/20220723213517.jpg?x-oss-process=image/interlace,1",
      "categories": [
        "thrift",
        "teochew",
        "beginner",
        "bento"
      ],
      "duration": 35,
      "price": 11.5,
      "xiaohongshuId": "62dbf6ce000000001b03cbbf"
    },
    {
      "id": "shachajiang-bian-jiding",
      "type": "cookbook",
      "shortDate": "2022-06-26",
      "title": "省钱菜谱：6.5元的沙茶酱煸鸡丁（6min）",
      "desc": "上周末买的鸡胸肉，今天才有时间做哈哈哈哈… 我现在工作日做不了饭了，虽然新公司还是一如既往的可以 6 点半下班，但从天河回到黄埔，怎么快也要差不多 8 点到家，加上最近赶 App 版本开发，每天也会再加加班，所以现在都是在公司先吃完饭再回来了。",
      "keywords": "潮州美食,沙茶酱煸鸡丁",
      "date": "2022-06-26 00:50:00",
      "cover": "http://cdn.chengpeiquan.com/img/2022/06/20220625180935.jpg?x-oss-process=image/interlace,1",
      "categories": [
        "thrift",
        "bento",
        "teochew"
      ],
      "duration": 6,
      "price": 6.5,
      "xiaohongshuId": "62b6cc6b000000000102feda"
    },
    {
      "id": "tian-qiugualao",
      "type": "cookbook",
      "shortDate": "2022-06-20",
      "title": "省钱菜谱：3块钱的潮州甜款秋瓜烙（10min）",
      "desc": "今天做个秋瓜烙，做法还是之前在潮州跟我妈学的，秋瓜烙有甜口味也有咸口味，今天做个甜的，配杯茶一起吃很赞哈哈哈哈哈哈哈…",
      "keywords": "潮州小吃,潮汕小吃,潮州秋瓜烙,潮汕秋瓜烙",
      "date": "2022-06-20 06:16:00",
      "cover": "http://cdn.chengpeiquan.com/img/2022/06/20220625183437.jpg?x-oss-process=image/interlace,1",
      "categories": [
        "thrift",
        "staple",
        "teochew"
      ],
      "duration": 5,
      "price": 1.8,
      "xiaohongshuId": "62af2fca000000000102bf27"
    },
    {
      "id": "roumo-chao-qiugua",
      "type": "cookbook",
      "shortDate": "2022-05-19",
      "title": "省钱菜谱：4块钱的秋瓜炒肉末（3min）",
      "desc": "我潮州家里是在顶楼，所以楼顶天台也是自家的一部分，我爸妈在楼顶除了种花，还砌了几个瓜斗搭了瓜棚，每年都会种秋瓜，虽然最开始是想着有个瓜棚可以避暑，后面种出来的秋瓜好甜真是意外收获哈哈哈，是我从小吃到大的一种瓜了！",
      "keywords": "秋瓜炒肉末,水瓜炒肉末,丝瓜炒肉末",
      "date": "2022-05-19 07:44:00",
      "cover": "http://cdn.chengpeiquan.com/img/2022/05/20220520232541.jpg?x-oss-process=image/interlace,1",
      "categories": [
        "thrift",
        "teochew"
      ],
      "duration": 10,
      "price": 3,
      "xiaohongshuId": "62851473000000000102610a",
      "cite": [
        "chaoshan-suantoulao"
      ]
    },
    {
      "id": "douchilingyu-chao-youmaicai",
      "type": "cookbook",
      "shortDate": "2022-05-11",
      "title": "省钱菜谱：6.5元的豆豉鲮鱼炒油麦菜（3min）",
      "desc": "前几天逛超市的时候罐头打折 10 块钱一罐，买来做个油麦菜刚好！这是我们之前小组聚餐最喜欢点的一道菜哈哈哈哈哈，但是很可恶的是外面吃的豆豉鲮鱼炒油麦菜，鲮鱼永远都是只有一滴滴… 还是自己做大满足！",
      "keywords": "豆豉鲮鱼炒油麦菜,豆豉鲮鱼,炒油麦菜",
      "date": "2022-05-11 21:48:00",
      "cover": "http://cdn.chengpeiquan.com/img/2022/05/20220514005832.jpg?x-oss-process=image/interlace,1",
      "categories": [
        "thrift",
        "teochew"
      ],
      "duration": 3,
      "price": 6.5,
      "xiaohongshuId": "627b4e2e000000002103b8d0"
    },
    {
      "id": "suzha-heiyupian",
      "type": "cookbook",
      "shortDate": "2022-05-03",
      "title": "菜谱：酥炸黑鱼片（15min）",
      "desc": "做个炸鱼片，今天这个黑鱼片是成品包装，本来是用来做酸菜鱼水煮鱼的，好像是处理过的，所以我没有再另外加工，感觉不腥，如果是菜市场买的鱼，可以用姜葱抓匀腌制一下去掉腥味。",
      "keywords": "酥炸黑鱼片,炸鱼片",
      "date": "2022-05-03 01:14:00",
      "cover": "http://cdn.chengpeiquan.com/img/2022/05/20220502172218.jpg?x-oss-process=image/interlace,1",
      "categories": [
        "thrift",
        "beginner"
      ],
      "duration": 15,
      "price": 9.5,
      "xiaohongshuId": "626fa0fa000000002103cf0d"
    },
    {
      "id": "kaorou-shengcai-shala",
      "type": "cookbook",
      "shortDate": "2022-04-28",
      "title": "省钱菜谱：6块钱的烤肉生菜沙拉（25min）",
      "desc": "写下标题的时候，我点开了温拿乐队的《Sha La La La》哈哈哈哈…今晚吃个沙拉，自己做也不贵，大概 6 块钱…",
      "keywords": "烤肉生菜沙拉,沙拉,生菜沙拉",
      "date": "2022-04-28 06:13:00",
      "cover": "http://cdn.chengpeiquan.com/img/2022/04/20220502151910.jpg?x-oss-process=image/interlace,1",
      "categories": [
        "thrift",
        "bento",
        "beginner"
      ],
      "duration": 25,
      "price": 6,
      "xiaohongshuId": "62694f8c0000000021038c55"
    }
  ]
}