{
  "author": {
    "name": "chengpeiquan",
    "email": "chengpeiquan@chengpeiquan.com",
    "link": "https://chengpeiquan.com"
  },
  "type": "cookbook",
  "total": 104,
  "page": 3,
  "lastPage": 11,
  "category": "thrift",
  "data": [
    {
      "id": "honghuban-cuipi-safen-zhajitui",
      "type": "cookbook",
      "shortDate": "2022-04-26",
      "title": "省钱菜谱：红虎斑脆皮撒粉炸鸡腿（25min）",
      "desc": "中午吃炸鸡腿哈哈哈哈哈，起这个名字纯粹是因为，小朋友很喜欢在我吃饭的时候要我抱抱，他是一只红虎斑缅因猫（图9），刚好发现他的颜色和炸鸡腿的颜色一毛一样，所以用猫的品种名字给鸡腿起名了笑死…",
      "keywords": "红虎斑脆皮撒粉炸鸡腿,脆皮炸鸡,炸鸡腿",
      "date": "2022-04-26 22:46:00",
      "cover": "http://cdn.chengpeiquan.com/img/2022/04/20220426145918.jpg?x-oss-process=image/interlace,1",
      "categories": [
        "thrift",
        "staple"
      ],
      "duration": 25,
      "price": 8,
      "xiaohongshuId": null
    },
    {
      "id": "ganbian-jitui-ding",
      "type": "cookbook",
      "shortDate": "2022-04-25",
      "title": "省钱菜谱：5.1元的干煸鸡腿丁（5min）",
      "desc": "今晚做这个干煸鸡腿丁和我之前发的孜然蒜香鸡胸粒做法有点接近，稍微调整了一下，风味和口感又不一样呢哈哈哈。",
      "keywords": "干煸鸡腿丁,鸡腿",
      "date": "2022-04-25 07:51:00",
      "cover": "http://cdn.chengpeiquan.com/img/2022/04/20220425001034.jpg?x-oss-process=image/interlace,1",
      "categories": [
        "thrift",
        "bento"
      ],
      "duration": 5,
      "price": 5.1,
      "xiaohongshuId": "626571f6000000000102d282"
    },
    {
      "id": "neizhidoufu-jidangeng",
      "type": "cookbook",
      "shortDate": "2022-04-23",
      "title": "省钱菜谱：0.66元的内酯豆腐鸡蛋羹（15min）",
      "desc": "哈哈哈哈今天这一餐纯属白嫖，是拿的美团买菜的免费菜里面的内酯豆腐，最近几次买东西都选了它，配合鸡蛋羹一起，口感真的很不错，好像豆腐花，超级嫩！",
      "keywords": "内酯豆腐鸡蛋羹,鸡蛋羹,内酯豆腐,省钱菜谱",
      "date": "2022-04-23 07:19:00",
      "cover": "http://cdn.chengpeiquan.com/img/2022/04/20220422233257.jpg?x-oss-process=image/interlace,1",
      "categories": [
        "thrift",
        "beginner",
        "orthodontic"
      ],
      "duration": 15,
      "price": 0.66,
      "xiaohongshuId": "6262c770000000002103f4ed"
    },
    {
      "id": "puningdoujiang-liangban-jisi",
      "type": "cookbook",
      "shortDate": "2022-04-14",
      "title": "省钱菜谱：潮汕特色凉菜 2.7元的普宁豆酱凉拌鸡丝（20min）",
      "desc": "最近的菜谱又主打我家乡潮汕的口味了，上次发豆酱炒番薯叶的时候有小姐姐评论说不会用豆酱，所以最近几次就以豆酱为主角，多分享点玩法。",
      "keywords": "潮州小吃,潮汕小吃,普宁豆酱凉拌鸡丝,豆酱拌鸡丝",
      "date": "2022-04-14 07:03:00",
      "cover": "http://cdn.chengpeiquan.com/img/2022/04/20220413234520.jpg?x-oss-process=image/interlace,1",
      "categories": [
        "thrift",
        "bento",
        "teochew"
      ],
      "duration": 20,
      "price": 2.7,
      "xiaohongshuId": "6256e644000000002103dfe2"
    },
    {
      "id": "jinzhengu-roupi-men-doufu",
      "type": "cookbook",
      "shortDate": "2022-04-11",
      "title": "省钱菜谱：6.5元的金针菇肉皮焖豆腐（20min）",
      "desc": "有一段时间没吃肉皮了，今晚搞一搞，我没有砂锅，所以用炒锅焖，有砂锅的话可以直接做成肉皮豆腐煲。然后这次我没有用蚝油，昨天新买的豆酱就炒了个番薯叶，还有一整瓶，今晚继续用豆酱调味也很好吃！",
      "keywords": "金针菇肉皮焖豆腐,金针菇肉皮豆腐煲,省钱菜谱,菜谱,潮汕美食",
      "date": "2022-04-11 05:31:00",
      "cover": "http://cdn.chengpeiquan.com/img/2022/04/20220410214038.jpg?x-oss-process=image/interlace,1",
      "categories": [
        "thrift",
        "teochew"
      ],
      "duration": 20,
      "price": 6.5,
      "xiaohongshuId": "6252dc3e000000000102e6aa"
    },
    {
      "id": "puning-doujiang-chao-fanshuye",
      "type": "cookbook",
      "shortDate": "2022-04-10",
      "title": "省钱菜谱：4块钱的普宁豆酱炒番薯叶（2min）",
      "desc": "我不仅喜欢烤番薯、炸番薯片、糕烧番薯、反沙番薯，对番薯叶也是超爱！今天分享来自我妈的经典做法，哈哈哈哈感觉这 3 个食材搭配特别好吃！",
      "keywords": "普宁豆酱炒番薯叶,普宁豆酱,炒番薯叶,省钱菜谱,菜谱,潮汕美食",
      "date": "2022-04-10 09:28:00",
      "cover": "http://cdn.chengpeiquan.com/img/2022/04/20220410014947.jpg?x-oss-process=image/interlace,1",
      "categories": [
        "thrift",
        "teochew"
      ],
      "duration": 2,
      "price": 4,
      "xiaohongshuId": "6251c258000000002103c432"
    },
    {
      "id": "zhacai-roupian-tangmifen",
      "type": "cookbook",
      "shortDate": "2022-04-06",
      "title": "省钱菜谱：2.5元的榨菜肉片汤米粉（5min）",
      "desc": "今晚煮个米粉吃，简简单单的，大学的时候经常跟舍友去校门口的沙县吃榨菜肉丝粉，不过都是汤河粉，今晚用潮汕特色的细米粉来做也很不错！",
      "keywords": "潮州小吃,潮汕小吃,潮州汤粉,潮汕汤粉,榨菜肉片汤米粉,潮汕汤米粉",
      "date": "2022-04-06 04:22:00",
      "cover": "http://cdn.chengpeiquan.com/img/2022/04/20220405214237.jpg?x-oss-process=image/interlace,1",
      "categories": [
        "thrift",
        "staple",
        "teochew",
        "beginner"
      ],
      "duration": 5,
      "price": 2.5,
      "xiaohongshuId": "624c349c0000000021038b42"
    },
    {
      "id": "xinaoerliang-kaorou-juanbing",
      "type": "cookbook",
      "shortDate": "2022-04-06",
      "title": "菜单分享：新奥尔良烤肉卷饼（20min）",
      "desc": "今天天气好好，中午又搞了一波烤肉卷饼，这次换成了新奥尔良烤鸡腿肉。",
      "keywords": "新奥尔良烤肉卷饼,卷饼,健身卷饼",
      "date": "2022-04-06 00:19:00",
      "cover": "http://cdn.chengpeiquan.com/img/2022/04/20220405215403.jpg?x-oss-process=image/interlace,1",
      "categories": [
        "thrift",
        "staple",
        "beginner"
      ],
      "duration": 20,
      "price": 20,
      "xiaohongshuId": "624bfb9c000000000102fdb0"
    },
    {
      "id": "ziran-suanxiang-jixiongli",
      "type": "cookbook",
      "shortDate": "2022-04-04",
      "title": "省钱菜谱：3块钱的孜然蒜香鸡胸粒（2min）",
      "desc": "这周补多一天班搞得我总觉得今天是单休，然后终于才进入假期模式，本来前几天就想发这个菜谱的，结果一看电影一拖再拖哈哈哈哈哈…",
      "keywords": "孜然蒜香鸡胸粒,鸡胸肉",
      "date": "2022-04-04 06:37:00",
      "cover": "http://cdn.chengpeiquan.com/img/2022/04/20220404011855.jpg?x-oss-process=image/interlace,1",
      "categories": [
        "thrift",
        "bento",
        "beginner"
      ],
      "duration": 2,
      "price": 3,
      "xiaohongshuId": "6249b125000000000102b804"
    },
    {
      "id": "chaoshan-shacha-jielan-chaomian",
      "type": "cookbook",
      "shortDate": "2022-03-28",
      "title": "省钱菜谱：3.4元的潮汕沙茶芥兰炒面（10min）",
      "desc": "中午做了个芥兰炒面，大潮州的口味，面条也是用的潮州特色的 “面薄”，做炒面也特别好吃！",
      "keywords": "潮汕小吃,潮州小吃,潮汕沙茶芥兰炒面,芥兰炒面,沙茶炒面",
      "date": "2022-03-28 00:25:00",
      "cover": "http://cdn.chengpeiquan.com/img/2022/03/20220327163501.jpg?x-oss-process=image/interlace,1",
      "categories": [
        "thrift",
        "teochew",
        "bento",
        "staple"
      ],
      "duration": 10,
      "price": 3.4,
      "xiaohongshuId": "62401f7a0000000001025ec6"
    }
  ]
}