{
  "author": {
    "name": "chengpeiquan",
    "email": "chengpeiquan@chengpeiquan.com",
    "link": "https://chengpeiquan.com"
  },
  "type": "cookbook",
  "total": 104,
  "page": 4,
  "lastPage": 11,
  "category": "thrift",
  "data": [
    {
      "id": "zhuhou-kaorou-pei-qingguasi-juanbing",
      "type": "cookbook",
      "shortDate": "2022-03-21",
      "title": "菜谱：柱侯烤肉配青瓜丝卷饼（15min）",
      "desc": "封村之前逛超市的时候看到有卖卷饼，当时买了两袋想试一下，然后拖到了现在才试哈哈哈，还蛮不错的！这东西还蛮好玩的，应该怎么搭配都好吃，这次是刚好做个烤肉消耗掉家里的柱侯酱，你也可以用奥尔良腌料啊沙茶酱啊之类的去做烤肉。",
      "keywords": "柱侯烤肉配青瓜丝卷饼,卷饼,健身卷饼",
      "date": "2022-03-21 00:02:00",
      "cover": "http://cdn.chengpeiquan.com/img/2022/03/20220320160858.jpg?x-oss-process=image/interlace,1",
      "categories": [
        "thrift",
        "staple",
        "bento",
        "beginner"
      ],
      "duration": 15,
      "price": 20,
      "xiaohongshuId": "6236df9c000000000102b95f"
    },
    {
      "id": "roupian-qingchao-tudousi",
      "type": "cookbook",
      "shortDate": "2022-03-20",
      "title": "省钱菜谱：3块钱的肉片清炒土豆丝（2min）",
      "desc": "玉米的价格看来下不去了，最近看好土豆哈哈哈，来做个潮汕做法的清炒土豆丝，口感清脆又好吃。",
      "keywords": "潮汕美食,肉片清炒土豆丝,炒土豆丝,清炒土豆丝",
      "date": "2022-03-20 06:32:00",
      "cover": "http://cdn.chengpeiquan.com/img/2022/02/20220319224341.jpg?x-oss-process=image/interlace,1",
      "categories": [
        "thrift",
        "teochew",
        "orthodontic",
        "beginner"
      ],
      "duration": 2,
      "price": 3,
      "xiaohongshuId": "6235e97c000000000102c1d8"
    },
    {
      "id": "mijiang-kao-paigu",
      "type": "cookbook",
      "shortDate": "2022-03-19",
      "title": "省钱菜谱：10块钱的蜜酱烤排骨（23min）",
      "desc": "居家办公的第五天，一周结束啦耶耶耶！今天中午和晚上都是吃烤排骨，好好吃哈哈哈哈哈！而且做法超级简单！",
      "keywords": "蜜酱烤排骨,烤排骨,空气炸锅烤排骨",
      "date": "2022-03-19 07:36:00",
      "cover": "http://cdn.chengpeiquan.com/img/2022/02/20220318234526.jpg?x-oss-process=image/interlace,1",
      "categories": [
        "thrift",
        "beginner"
      ],
      "duration": 23,
      "price": 10,
      "xiaohongshuId": "6234a705000000000102f82f"
    },
    {
      "id": "xianggu-tudou-zhurou-jianjiao",
      "type": "cookbook",
      "shortDate": "2022-03-17",
      "title": "省钱菜单：6块钱一大碗的香菇土豆猪肉煎饺（10min）",
      "desc": "哈哈哈哈昨晚的饺子，留了一份21个，中午拿出来煎！好香好吃！",
      "keywords": "潮州小吃,潮汕小吃,潮州饺子,香菇土豆猪肉饺子,香菇土豆猪肉煎饺",
      "date": "2022-03-17 21:30:00",
      "cover": "http://cdn.chengpeiquan.com/img/2022/02/20220317140121.jpg?x-oss-process=image/interlace,1",
      "categories": [
        "thrift",
        "staple",
        "teochew"
      ],
      "duration": 10,
      "price": 6,
      "xiaohongshuId": "6232c760000000002103b82f",
      "cite": [
        "xianggu-tudou-zhurou-jiaozi"
      ]
    },
    {
      "id": "xianggu-tudou-zhurou-jiaozi",
      "type": "cookbook",
      "shortDate": "2022-03-17",
      "title": "省钱菜谱：0.29元/个的香菇土豆猪肉饺子（1h）",
      "desc": "做完卤肉实在没忍住哈哈哈哈哈哈哈哈哈哈哈哈哈哈哈哈哈哈哈，切了一块卤肉，吃个宵夜！！！这个点最好的搭配就是潮汕粿汁了！！！",
      "keywords": "潮州小吃,潮汕小吃,潮州饺子,香菇土豆猪肉饺子",
      "date": "2022-03-17 07:33:00",
      "cover": "http://cdn.chengpeiquan.com/img/2022/02/20220316234044.jpg?x-oss-process=image/interlace,1",
      "categories": [
        "thrift",
        "staple",
        "teochew"
      ],
      "duration": 60,
      "price": 0.29,
      "xiaohongshuId": "623203580000000001028725",
      "cite": [
        "xianggu-tudou-zhurou-jianjiao"
      ]
    },
    {
      "id": "zhuhou-roujiang-laomian",
      "type": "cookbook",
      "shortDate": "2022-03-15",
      "title": "省钱菜谱：2元的柱侯肉酱捞面（10min）",
      "desc": "居家办公的第一天，今天一大早楼下其实都开着店，不过很快就听到了巡逻车在通知关门，只允许饭店和超市开着，否则要贴封条，防疫工作真是不容易！希望过完这周，深圳能恢复原来的样子！中午也没搞太复杂的东西，前几天凑单买了瓶柱侯酱，刚好拿来做个面条！",
      "keywords": "柱侯肉酱捞面,柱侯酱",
      "date": "2022-03-15 05:36:00",
      "cover": "http://cdn.chengpeiquan.com/img/2022/02/20220314214929.jpg?x-oss-process=image/interlace,1",
      "categories": [
        "thrift",
        "staple"
      ],
      "duration": 10,
      "price": 2,
      "xiaohongshuId": "622f44f10000000001029a50"
    },
    {
      "id": "hujiao-chao-suidan",
      "type": "cookbook",
      "shortDate": "2022-03-14",
      "title": "省钱菜谱：1.9元的胡椒炒碎蛋（2min）",
      "desc": "今晚分享一个我很喜欢的番茄鸡蛋汤的做法，甜口，和平时在外面吃的番茄鸡蛋汤不太一样，对比外面常见的咸口的番茄鸡蛋，我更钟爱于酸酸甜甜的口感。",
      "keywords": "潮汕美食,番茄鸡蛋汤",
      "date": "2022-03-14 07:18:00",
      "cover": "http://cdn.chengpeiquan.com/img/2022/02/20220313232532.jpg?x-oss-process=image/interlace,1",
      "categories": [
        "thrift",
        "teochew",
        "orthodontic",
        "beginner"
      ],
      "duration": 2,
      "price": 1.9,
      "xiaohongshuId": "622e0b4d000000000102e6ae"
    },
    {
      "id": "tudou-men-wuhuarou",
      "type": "cookbook",
      "shortDate": "2022-03-09",
      "title": "省钱菜谱：5.5元一餐的土豆焖五花肉（12min）",
      "desc": "这是今晚和明天中午的菜，所以价格按一半算，做之前提前煮一壶热水，兑料汁要用，等会洗碗也可以用。",
      "keywords": "土豆焖五花肉",
      "date": "2022-03-09 07:54:00",
      "cover": "http://cdn.chengpeiquan.com/img/2022/02/20220309002819.jpg?x-oss-process=image/interlace,1",
      "categories": [
        "thrift",
        "bento"
      ],
      "duration": 12,
      "price": 5.5,
      "xiaohongshuId": "62277c31000000000102a8ed"
    },
    {
      "id": "kao-jinzhengu-roujiang-roufu",
      "type": "cookbook",
      "shortDate": "2022-02-26",
      "title": "省钱菜谱：6.2元的烤金针菇肉酱豆腐（20min）",
      "desc": "今晚吃个金针菇烤豆腐，加点肉末，解决晚餐，需要提前煮一电热壶的开水备用，还有锡纸和空气炸锅。",
      "keywords": "烤金针菇肉酱豆腐,烤金针菇,烤豆腐",
      "date": "2022-02-26 06:56:00",
      "cover": "http://cdn.chengpeiquan.com/img/2022/02/20220226234158.jpg?x-oss-process=image/interlace,1",
      "categories": [
        "thrift",
        "orthodontic"
      ],
      "duration": 20,
      "price": 6.2,
      "xiaohongshuId": "6218ee000000000001028920"
    },
    {
      "id": "wandouli-chao-roumo",
      "type": "cookbook",
      "shortDate": "2022-02-24",
      "title": "超级下饭的豌豆粒炒肉末（10min）",
      "desc": "前两天不是做了酸菜炒牛肉用了指天椒嘛，一小份还有好几根，所以昨晚又炒了个可以消灭指天椒的菜，豌豆粒炒肉末，好好吃！",
      "keywords": "豌豆粒炒肉末,豌豆粒,豌豆炒肉",
      "date": "2022-02-24 21:29:00",
      "cover": "http://cdn.chengpeiquan.com/img/2022/02/20220224133710.jpg?x-oss-process=image/interlace,1",
      "categories": [
        "thrift",
        "bento"
      ],
      "duration": 10,
      "price": 8,
      "xiaohongshuId": "621717d6000000002103a179"
    }
  ]
}