{
  "author": {
    "name": "chengpeiquan",
    "email": "chengpeiquan@chengpeiquan.com",
    "link": "https://chengpeiquan.com"
  },
  "type": "cookbook",
  "total": 104,
  "page": 5,
  "lastPage": 11,
  "category": "thrift",
  "data": [
    {
      "id": "chaoshan-shacha-banmian",
      "type": "cookbook",
      "shortDate": "2022-02-15",
      "title": "省钱菜谱：2块钱的潮汕沙茶拌面（10min）",
      "desc": "今天 2 月 14 日，是……一个普普通通的周一哈哈哈哈哈哈哈哈哈哈…………前几天我妈给我寄橄榄的时候问我还想吃啥，我说寄点“面薄”哩，然后我终于在深圳吃到了潮汕的 “面薄”，果然还是家里的面条好吃！！！",
      "keywords": "潮汕美食,沙茶拌面,潮式拌面",
      "date": "2022-02-15 06:14:00",
      "cover": "http://cdn.chengpeiquan.com/img/2022/02/20220214222145.jpg?x-oss-process=image/interlace,1",
      "categories": [
        "thrift",
        "teochew",
        "staple",
        "beginner"
      ],
      "duration": 10,
      "price": 2,
      "xiaohongshuId": "620a63e00000000001027237",
      "cite": [
        "chaoshan-suantoulao"
      ]
    },
    {
      "id": "tudou-kao-cuipi-meitourou",
      "type": "cookbook",
      "shortDate": "2022-02-13",
      "title": "省钱菜谱：8块钱的土豆烤脆皮梅头肉（20min）",
      "desc": "今晚突然想吃脆皮烧肉，但是家里只有一块还没切的梅头肉，所以弄了个简易版本的，除了包锡纸之外，貌似没有相似之处哈哈哈哈哈哈哈哈哈哈哈哈哈哈。",
      "keywords": "梅头肉,脆皮梅头肉,土豆烤脆皮梅头肉",
      "date": "2022-02-13 06:07:00",
      "cover": "http://cdn.chengpeiquan.com/img/2022/02/20220213234248.jpg?x-oss-process=image/interlace,1",
      "categories": [
        "thrift",
        "bento"
      ],
      "duration": 20,
      "price": 8,
      "xiaohongshuId": "6207bf29000000002103ff54",
      "cite": [
        "chaoshan-fanqie-jidan-tang"
      ]
    },
    {
      "id": "furu-zheng-roupian",
      "type": "cookbook",
      "shortDate": "2022-02-09",
      "title": "省钱菜谱：6块钱的腐乳蒸肉片（20min）",
      "desc": "这是跟我妈学的一个做法，我以前读书在家的时候就很喜欢吃了，蒸肉蒸排骨都好吃，偏甜口。",
      "keywords": "腐乳蒸肉片,腐乳",
      "date": "2022-02-09 04:05:00",
      "cover": "http://cdn.chengpeiquan.com/img/2022/02/20220214004426.jpg?x-oss-process=image/interlace,1",
      "categories": [
        "thrift",
        "bento",
        "teochew",
        "beginner"
      ],
      "duration": 20,
      "price": 8,
      "xiaohongshuId": "62025c99000000000102efef",
      "cite": [
        "furu-zheng-paigu"
      ]
    },
    {
      "id": "suanxiang-kao-jituipa",
      "type": "cookbook",
      "shortDate": "2022-02-05",
      "title": "省钱菜谱：3.09元的蒜香烤鸡腿扒（15min）",
      "desc": "是我前天晚餐和昨天的午餐和晚餐，蒸饺和煎饺都好吃哈哈哈哈！想做这个是因为那天买的芋头太大个了，剩下的感觉要吃好久，干脆包成饺子！也是潮汕这边比较常见的小吃用料，这个做法是沿袭了我家那边的芋粿、芋丝球（芋丸）、芋丝糕等小吃的做法，做了一点调整。",
      "keywords": "蒜香烤鸡扒,蒜香鸡扒,烤鸡腿扒",
      "date": "2022-02-05 04:12:00",
      "cover": "http://cdn.chengpeiquan.com/img/2022/02/20220204215537.jpg?x-oss-process=image/interlace,1",
      "categories": [
        "thrift",
        "bento"
      ],
      "duration": 15,
      "price": 3.09,
      "xiaohongshuId": "61fd1ebb0000000001028d75"
    },
    {
      "id": "shacharoupian-kao-tudouli",
      "type": "cookbook",
      "shortDate": "2022-01-27",
      "title": "省钱菜谱：6块钱的沙茶肉片烤土豆（15min）",
      "desc": "这个点突然就醒了…睡不着了，翻到个库存的笔记，发一下，继续睡哈哈哈，还可以再睡一个多小时，笔记当时记录的是上肉大约5块钱，土豆便宜，大约1块钱，分量挺多哈哈哈。",
      "keywords": "沙茶,烤肉,沙茶烤肉",
      "date": "2022-01-27 14:32:00",
      "cover": "http://cdn.chengpeiquan.com/img/2021/11/20220127132011.jpg?x-oss-process=image/interlace,1",
      "categories": [
        "thrift",
        "bento"
      ],
      "duration": 15,
      "price": 6,
      "xiaohongshuId": "61f1cbe400000000210396f2"
    },
    {
      "id": "cuipi-yanjuji-tuipa",
      "type": "cookbook",
      "shortDate": "2022-01-20",
      "title": "省钱菜谱：3.78元的脆皮盐焗鸡腿扒（20min）",
      "desc": "之前发过一次土豆脆皮烤鸡的做法，今晚用类似的方式搞了个脆皮盐焗鸡腿扒，也很好吃！！！",
      "keywords": "鸡腿扒,盐焗鸡,烤鸡,脆皮鸡,空气炸锅",
      "date": "2022-01-20 07:07:00",
      "cover": "http://cdn.chengpeiquan.com/img/2022/01/20220119232320.jpg?x-oss-process=image/interlace,1",
      "categories": [
        "thrift",
        "bento",
        "beginner"
      ],
      "duration": 20,
      "price": 3.78,
      "xiaohongshuId": "61e8292d000000000102ff43"
    },
    {
      "id": "chaozhou-yuguo-yusigao",
      "type": "cookbook",
      "shortDate": "2022-01-18",
      "title": "省钱菜谱：3块钱一餐的芋粿（60min）",
      "desc": "我来了！昨晚的电饭煲做的芋粿，留了一半今晚煎，还是好吃哈哈哈哈！算了一下成本，分了两顿吃完，一顿 3 块钱，大约有 5 两重，性价比还蛮高的！芋粿是潮汕的小吃，我不确定和芋丝糕是不是完全一样哈哈哈，老家的粿是用的粘米粉，所以我也是用这个来做。",
      "keywords": "芋粿,芋丝糕,潮州小吃,潮汕小吃",
      "date": "2022-01-18 07:04:00",
      "cover": "http://cdn.chengpeiquan.com/img/2022/01/20220120003111.jpg?x-oss-process=image/interlace,1",
      "categories": [
        "thrift",
        "staple",
        "teochew"
      ],
      "duration": 60,
      "price": 3,
      "xiaohongshuId": "61e5856b0000000021035146"
    },
    {
      "id": "yurou-yuntun",
      "type": "cookbook",
      "shortDate": "2022-01-16",
      "title": "省钱菜谱：3.15元一碗的鱼肉云吞（25min）",
      "desc": "我的第一篇菜谱笔记就是关于云吞的，当时是包的纯肉，最近巴沙鱼老是有打折，今晚包个鱼肉云吞吃吃。今晚的食材一共 11 块钱，包了 51 个云吞，平均一个云吞 2 毛 1，按照 15 个一碗刚好吃三碗，一碗就差不多 3.15 元。",
      "keywords": "云吞,云吞包法,云吞怎么包,鱼肉云吞,巴沙鱼云吞,龙利鱼云吞",
      "date": "2022-01-16 07:14:00",
      "cover": "http://cdn.chengpeiquan.com/img/2022/01/20220115235323.jpg?x-oss-process=image/interlace,1",
      "categories": [
        "thrift",
        "staple",
        "teochew"
      ],
      "duration": 25,
      "price": 3.15,
      "xiaohongshuId": "61e2e4db000000000102e999",
      "cite": [
        "chaoshan-suantoulao"
      ]
    },
    {
      "id": "chaoshan-tese-qingtangmian",
      "type": "cookbook",
      "shortDate": "2022-01-15",
      "title": "省钱菜谱：0.3元的潮汕特色清汤面（5min）",
      "desc": "今天起床的时候看到8点54分，心里一惊！内心第一反应是完了，长这么大第一次要旷工，然后瞬间想起周六啊！！！被自己笑死！9点左右这个点起床还是凉嗖嗖的，在阳台听到楼下通知测核酸，洗漱完煮个面暖和暖和，等会排队也不太冷！",
      "keywords": "潮汕美食,清汤面",
      "date": "2022-01-15 18:43:00",
      "cover": "http://cdn.chengpeiquan.com/img/2022/01/20220116000116.jpg?x-oss-process=image/interlace,1",
      "categories": [
        "thrift",
        "staple",
        "teochew",
        "beginner"
      ],
      "duration": 5,
      "price": 0.3,
      "xiaohongshuId": "61e234e9000000000102d232",
      "cite": [
        "chaoshan-suantoulao"
      ]
    },
    {
      "id": "shacha-chaorou",
      "type": "cookbook",
      "shortDate": "2022-01-14",
      "title": "省钱菜谱：4块钱的沙茶炒肉（3min）",
      "desc": "这几天深圳又出了几例，还好南山这边还是很稳，不过也是测了好几轮核酸，希望疫情快点过去！！！今晚还是做个潮汕风味的快手菜，沙茶酱是主角哈哈哈！",
      "keywords": "潮汕美食,沙茶炒肉,沙茶酱",
      "date": "2022-01-14 07:07:00",
      "cover": "http://cdn.chengpeiquan.com/img/2022/01/20220113225102.jpg?x-oss-process=image/interlace,1",
      "categories": [
        "thrift",
        "bento",
        "teochew",
        "beginner"
      ],
      "duration": 3,
      "price": 4,
      "xiaohongshuId": "61e03a060000000001028edb"
    }
  ]
}