{
  "author": {
    "name": "chengpeiquan",
    "email": "chengpeiquan@chengpeiquan.com",
    "link": "https://chengpeiquan.com"
  },
  "type": "cookbook",
  "total": 104,
  "page": 6,
  "lastPage": 11,
  "category": "thrift",
  "data": [
    {
      "id": "suanmeijiang-kao-bashayuliu",
      "type": "cookbook",
      "shortDate": "2022-01-08",
      "title": "省钱菜谱：8.7元的酸梅酱烤巴沙鱼柳（18min）",
      "desc": "今天只上了半天班就被赶回来了，因为深圳出了 2 例，被要求大家都在家办公，并且周一上班要提供 3 天内至少 2 次核酸证明才能回公司，虽然南山离那边好远好远，但还是能理解，这个时候真的不要太轻视疫情了！",
      "keywords": "省钱菜谱,巴沙鱼,龙利鱼,鱼柳,烤鱼,巴沙鱼柳,龙利鱼柳,种牙食谱,整牙食谱",
      "date": "2022-01-08 07:54:00",
      "cover": "http://cdn.chengpeiquan.com/img/2022/01/20220107235442.jpg?x-oss-process=image/interlace,1",
      "categories": [
        "thrift",
        "orthodontic"
      ],
      "duration": 18,
      "price": 8.7,
      "xiaohongshuId": "61d85fe200000000010284ad"
    },
    {
      "id": "nenjian-jixiongroupian",
      "type": "cookbook",
      "shortDate": "2021-12-29",
      "title": "省钱菜谱：3.5元的内柔外刚煎鸡胸肉片（5min）",
      "desc": "今晚试了一个鸡胸肉的新做法，平时煎鸡胸肉比较让人纠结的就是口感比较柴，今晚这个做法虽然很小众（不敢说完全没有人这样搞哈哈哈），口感很不一样！外层是焦香的煎鸡肉，内层却超嫩有汁，就是这么神奇！",
      "keywords": "鸡胸肉,煎鸡胸肉,鸡胸肉做法,上班族带饭,空气炸锅食谱",
      "date": "2021-12-29 07:13:00",
      "cover": "http://cdn.chengpeiquan.com/img/2021/12/20211230010054.jpg?x-oss-process=image/interlace,1",
      "categories": [
        "thrift",
        "bento"
      ],
      "duration": 5,
      "price": 3.5,
      "xiaohongshuId": "61cb297d0000000001028272"
    },
    {
      "id": "roupi-chao-jielan",
      "type": "cookbook",
      "shortDate": "2021-12-24",
      "title": "省钱菜单：2.9元的肉皮炒芥兰（3min）",
      "desc": "明天的午餐带饭有昨晚留下的半截肉卷，今晚想着就不买肉了，冰箱里的小半把芥兰，搭配一下家里也有的肉皮一起炒个菜。",
      "keywords": "省钱菜谱,肉皮,芥兰,潮汕美食,潮汕菜,潮州,汕头,上班带饭",
      "date": "2021-12-24 05:48:00",
      "cover": "http://cdn.chengpeiquan.com/img/2021/12/20211225001910.jpg?x-oss-process=image/interlace,1",
      "categories": [
        "thrift",
        "teochew"
      ],
      "duration": 3,
      "price": 2.9,
      "xiaohongshuId": "61c47e24000000000102493a"
    },
    {
      "id": "xiancai-chao-roujuan",
      "type": "cookbook",
      "shortDate": "2021-12-23",
      "title": "省钱菜单：4.7元的咸菜炒肉卷（3min）",
      "desc": "哈哈哈哈上次的韭菜花炒肉卷下面评论好几个小姐姐都推荐了咸菜炒肉卷！我也来啦！！！好吃！！！",
      "keywords": "潮州肉卷,潮州咸菜,咸菜炒肉卷",
      "date": "2021-12-23 07:07:00",
      "cover": "http://cdn.chengpeiquan.com/img/2022/01/20220108010442.jpg?x-oss-process=image/interlace,1",
      "categories": [
        "thrift",
        "bento",
        "teochew",
        "beginner"
      ],
      "duration": 3,
      "price": 4.7,
      "xiaohongshuId": "61c33f36000000000102d2e7"
    },
    {
      "id": "xianggu-zhurou-yumi-jianjiao",
      "type": "cookbook",
      "shortDate": "2021-12-21",
      "title": "省钱菜单：香脆又香甜！香菇猪肉玉米煎饺太好吃了！",
      "desc": "耶耶耶！昨晚的香菇玉米猪肉饺子煎出来太好吃了！！！虽然玉米饺子贵一点，不过这一大碗也就11块钱，自己包饺子划算太多了！",
      "keywords": "香菇猪肉玉米煎饺,玉米饺子,玉米煎饺",
      "date": "2021-12-21 04:41:00",
      "cover": "http://cdn.chengpeiquan.com/img/2022/01/20220108014330.jpg?x-oss-process=image/interlace,1",
      "categories": [
        "thrift",
        "bento",
        "staple",
        "teochew"
      ],
      "duration": 3,
      "price": 4.7,
      "xiaohongshuId": "61c079f70000000001028f90",
      "cite": [
        "xianggu-zhurou-yumi-zhengjiao"
      ]
    },
    {
      "id": "xianggu-zhurou-yumi-zhengjiao",
      "type": "cookbook",
      "shortDate": "2021-12-20",
      "title": "省钱菜谱：0.57元/只香菇猪肉玉米饺子（30min）",
      "desc": "今天是包香菇玉米猪肉饺子，做法也比较有我的个人特色，首先是纯玉米馅，没有混入胡萝卜等别的蔬菜，另外一个是我没有加五香粉之类的香料，只用了潮汕特色的调味品来调馅（鱼露搭配虾皮），简单的调味但是很鲜美，能够保持甜玉米的鲜甜口感！",
      "keywords": "香菇猪肉玉米蒸饺,玉米饺子,玉米蒸饺",
      "date": "2021-12-20 05:06:00",
      "cover": "http://cdn.chengpeiquan.com/img/2022/01/20220108020352.jpg?x-oss-process=image/interlace,1",
      "categories": [
        "thrift",
        "bento",
        "staple",
        "teochew"
      ],
      "duration": 30,
      "price": 0.57,
      "xiaohongshuId": "61bf2e4e000000002103470d",
      "cite": [
        "xianggu-zhurou-yumi-jianjiao"
      ]
    },
    {
      "id": "jiucaihua-chao-roujuan",
      "type": "cookbook",
      "shortDate": "2021-12-17",
      "title": "省钱菜谱：3.7元的韭菜花炒肉卷（3min）",
      "desc": "今晚难得在菜市场看到有肉卷卖，对于下班回家买菜这个时间点，遇到肉卷真不容易啊。肉卷是潮汕一种美食，是猪肉的一种加工品，很好吃！",
      "keywords": "潮汕美食,韭菜花炒肉卷,韭菜花,肉卷",
      "date": "2021-12-17 07:26:00",
      "cover": "http://cdn.chengpeiquan.com/img/2022/01/20220114234142.jpg?x-oss-process=image/interlace,1",
      "categories": [
        "thrift",
        "bento",
        "teochew",
        "beginner"
      ],
      "duration": 3,
      "price": 3.7,
      "xiaohongshuId": "61bb5a88000000000102ded0"
    },
    {
      "id": "kongqizhaguo-jiucai-jianjiao",
      "type": "cookbook",
      "shortDate": "2021-12-14",
      "title": "空气韭菜煎饺！空气炸锅的发明者真是现代爱迪生！",
      "desc": "昨天下午做了卤水，但是为了更入味所以昨晚没有立即吃，继续先卤着，然后昨晚又另外包了韭菜饺子，留了一盒今天晚上回来做煎饺。",
      "keywords": "潮州,潮州韭菜饺子,煎饺",
      "date": "2021-12-14 05:07:00",
      "cover": "http://cdn.chengpeiquan.com/img/2022/01/20220131234851.jpg?x-oss-process=image/interlace,1",
      "categories": [
        "thrift",
        "bento",
        "staple",
        "teochew"
      ],
      "duration": 0,
      "price": 0,
      "xiaohongshuId": "61b7459b000000002103c463"
    },
    {
      "id": "tudou-kao-cuipi-jituipa",
      "type": "cookbook",
      "shortDate": "2021-12-05",
      "title": "省钱菜谱：4.4元的土豆烤脆皮鸡腿扒（20min）",
      "desc": "告诉大家一个好消息，我终于快忙完了！赶开发了一个多月，项目终于要上线，这周末我要休个年假回家几天，然后接下来又可以跟大家一起天天做饭了！（希望不要又来一波赶项目……",
      "keywords": "烤鸡,脆皮鸡,土豆烤鸡,脆皮烤鸡,鸡腿扒",
      "date": "2021-12-05 04:10:00",
      "cover": "http://cdn.chengpeiquan.com/img/2022/01/20220115001907.jpg?x-oss-process=image/interlace,1",
      "categories": [
        "thrift",
        "bento",
        "teochew"
      ],
      "duration": 20,
      "price": 4.4,
      "xiaohongshuId": "61ae2f55000000000102d110"
    },
    {
      "id": "yangsheng-babaozhou",
      "type": "cookbook",
      "shortDate": "2021-12-05",
      "title": "省钱菜单：天冷舒服！0.8元/碗的养生八宝粥（2h）",
      "desc": "因为打算下午爬山的时候挑战一下另外一条比较陡峭的小路，担心回来没精力做饭，刚好家里有糯米，早上出去超市顺便买了点配好的杂粮（有黑米、紫薯干、红扁豆挺多料），再搭配点花生，一起浸泡了有两个小时。",
      "keywords": "潮汕美食,八宝粥",
      "date": "2021-12-05 04:10:00",
      "cover": "http://cdn.chengpeiquan.com/img/2022/01/20220114235441.jpg?x-oss-process=image/interlace,1",
      "categories": [
        "thrift",
        "teochew",
        "orthodontic",
        "beginner"
      ],
      "duration": 120,
      "price": 0.8,
      "xiaohongshuId": "61ab5ad000000000010296c8"
    }
  ]
}