{
  "author": {
    "name": "chengpeiquan",
    "email": "chengpeiquan@chengpeiquan.com",
    "link": "https://chengpeiquan.com"
  },
  "type": "cookbook",
  "total": 104,
  "page": 7,
  "lastPage": 11,
  "category": "thrift",
  "data": [
    {
      "id": "heijiao-kao-tudouli",
      "type": "cookbook",
      "shortDate": "2021-12-03",
      "title": "省钱菜谱：0.86元的黑椒烤土豆粒（15min）",
      "desc": "啊哈哈哈周末在猫超捡的漏，加上省钱卡啥的最后这斤土豆是 1.73 元，有 4 个，这一盘用了两个所以 0.86 元。",
      "keywords": "土豆,烤土豆,黑椒土豆",
      "date": "2021-12-03 21:13:00",
      "cover": "http://cdn.chengpeiquan.com/img/2022/01/20220201221842.jpg?x-oss-process=image/interlace,1",
      "categories": [
        "thrift",
        "bento",
        "beginner"
      ],
      "duration": 15,
      "price": 0.86,
      "xiaohongshuId": "61a9a76f000000000102d9ed"
    },
    {
      "id": "chaoshan-guozhi",
      "type": "cookbook",
      "shortDate": "2021-11-28",
      "title": "省钱菜单：丰俭由人的潮汕粿汁（5min）",
      "desc": "做完卤肉实在没忍住哈哈哈哈哈哈哈哈哈哈哈哈哈哈哈哈哈哈哈，切了一块卤肉，吃个宵夜！！！这个点最好的搭配就是潮汕粿汁了！！！",
      "keywords": "潮州小吃,潮汕小吃,潮州粿汁,潮汕粿汁",
      "date": "2021-11-28 08:11:00",
      "cover": "http://cdn.chengpeiquan.com/img/2022/01/20220201225040.jpg?x-oss-process=image/interlace,1",
      "categories": [
        "thrift",
        "staple",
        "teochew"
      ],
      "duration": 5,
      "price": 1.8,
      "xiaohongshuId": "61a258a200000000210380a9",
      "cite": [
        "chaoshan-congzhulao"
      ]
    },
    {
      "id": "ziran-roupian-ban-qingguasi",
      "type": "cookbook",
      "shortDate": "2021-11-26",
      "title": "省钱菜谱：3.8元的孜然肉片拌青瓜丝（3min）",
      "desc": "买了根青瓜好几天没想好怎么吃（原本打算炒面的，但这几天回家都比较晚，不想动…），昨晚试了一下这个做法，还不错，算半个凉菜吧！",
      "keywords": "青瓜丝,孜然肉片,孜然肉片拌青瓜丝",
      "date": "2021-11-26 20:40:00",
      "cover": "http://cdn.chengpeiquan.com/img/2022/02/20220202152015.jpg?x-oss-process=image/interlace,1",
      "categories": [
        "thrift"
      ],
      "duration": 3,
      "price": 3.8,
      "xiaohongshuId": "61a065310000000001029d76"
    },
    {
      "id": "suchengban-lurou-lurougan",
      "type": "cookbook",
      "shortDate": "2021-11-24",
      "title": "省钱菜谱：4.5元的速成版卤肉卤豆干（5min）",
      "desc": "原本以为买的粿汁皮要好几天才送到，结果…嗯？隔天（此处是Max问号表情包）……然后就等不到周末了哈哈哈哈哈哈，刚好今晚加班回来又比较晚，不想吃饭了，买了点炸豆干，切了点小上肉，用个便捷的方法搞点卤肉搭配一下。",
      "keywords": "卤肉,卤豆干",
      "date": "2021-11-24 08:09:00",
      "cover": "http://cdn.chengpeiquan.com/img/2022/02/20220202153101.jpg?x-oss-process=image/interlace,1",
      "categories": [
        "thrift",
        "teochew",
        "bento"
      ],
      "duration": 5,
      "price": 4.5,
      "xiaohongshuId": "619d122c000000000102c820"
    },
    {
      "id": "chaozhou-zhafanshu",
      "type": "cookbook",
      "shortDate": "2021-11-22",
      "title": "省钱菜谱：2个银的潮州浮分割（嗯！炸番薯）",
      "desc": "今天在家有点馋，搞个潮汕小吃“浮分割”做个下午茶，搭配功夫茶真不错！其实就是“炸番薯”哈哈哈哈，在我家那边都叫它“浮分割”，潮州市区把番薯叫“分割”（读音上，当年数学课教到黄金分割的时候全班都笑炸了哈哈哈哈哈哈哈哈哈哈哈哈哈），当然别的地方不一定这么叫哈哈哈哈，标题的2个银就是两块钱",
      "keywords": "潮州小吃,潮汕小吃,扎番薯,炸地瓜",
      "date": "2021-11-22 01:00:00",
      "cover": "http://cdn.chengpeiquan.com/img/2022/02/20220202154605.jpg?x-oss-process=image/interlace,1",
      "categories": [
        "thrift",
        "teochew",
        "staple"
      ],
      "duration": 15,
      "price": 2,
      "xiaohongshuId": "619a0aa50000000001028c11"
    },
    {
      "id": "fuzhu-chao-roupian",
      "type": "cookbook",
      "shortDate": "2021-11-17",
      "title": "省钱菜谱：5块钱的炸腐竹炒肉片（5min）",
      "desc": "今晚回来在超市的豆制品档口看到摆着几盘炸腐竹，嗯哼，也是我的最爱啊！偶尔外出要在外面吃快餐的时候，选择困难症的我经常会点腐竹牛腩或者腐竹炒肉，好久没吃了呢！今晚自己做！",
      "keywords": "炸腐竹,腐竹炒肉",
      "date": "2021-11-17 08:58:00",
      "cover": "http://cdn.chengpeiquan.com/img/2022/02/20220202181323.jpg?x-oss-process=image/interlace,1",
      "categories": [
        "thrift",
        "beginner"
      ],
      "duration": 5,
      "price": 5,
      "xiaohongshuId": "619a0aa50000000001028c11"
    },
    {
      "id": "jiaofen-roumo-jiandan",
      "type": "cookbook",
      "shortDate": "2021-11-16",
      "title": "省钱菜谱：1.7元的椒粉肉末煎蛋（2min）",
      "desc": "今天的晚餐是平平无奇的煎蛋哈哈哈哈哈哈哈哈，双十一买了好多蛋，变着花样玩一下！",
      "keywords": "煎蛋",
      "date": "2021-11-16 06:25:00",
      "cover": "http://cdn.chengpeiquan.com/img/2022/02/20220202220049.jpg?x-oss-process=image/interlace,1",
      "categories": [
        "thrift",
        "bento"
      ],
      "duration": 2,
      "price": 1.7,
      "xiaohongshuId": "61926dd4000000000102664b"
    },
    {
      "id": "tusi-jia-jiandan",
      "type": "cookbook",
      "shortDate": "2021-11-13",
      "title": "省钱菜单：2.5元的吐司夹煎蛋早餐（2min）",
      "desc": "今天的早餐，虽然没有三明治那么多料，也没有加酱料，就是单纯煎了两个鸡蛋夹进去，但相比单纯的吐司感觉不一样很多！",
      "keywords": "煎蛋,吐司",
      "date": "2021-11-13 18:43:00",
      "cover": "http://cdn.chengpeiquan.com/img/2022/02/20220202222137.jpg?x-oss-process=image/interlace,1",
      "categories": [
        "thrift",
        "bento",
        "beginner"
      ],
      "duration": 2,
      "price": 2.5,
      "xiaohongshuId": "618f26660000000001029030"
    },
    {
      "id": "cuipi-jujitui",
      "type": "cookbook",
      "shortDate": "2021-11-13",
      "title": "省钱菜谱：4.93元的脆皮焗鸡腿（20min）",
      "desc": "啊哈哈哈哈还记得我10月23号发的那个焗鸡腿配蚝油炒面的笔记吗？（你们八成不记得了…）那天我说我对电饭煲做的焗鸡腿不满意嘛，耗时太久，然后今晚还是出动我熟悉的空气炸锅，真的棒！",
      "keywords": "鸡腿,焗鸡腿,焗鸡",
      "date": "2021-11-13 07:36:00",
      "cover": "http://cdn.chengpeiquan.com/img/2022/02/20220202223006.jpg?x-oss-process=image/interlace,1",
      "categories": [
        "thrift",
        "bento",
        "beginner"
      ],
      "duration": 20,
      "price": 4.93,
      "xiaohongshuId": "618e8a0300000000210373e9"
    },
    {
      "id": "chaozhou-xiancai-chao-rousi",
      "type": "cookbook",
      "shortDate": "2021-11-11",
      "title": "省钱菜谱：3元的潮州咸菜炒肉丝（1min）",
      "desc": "今晚回来晚，依然没什么东西买，不过居然看到了“潮州咸菜”……我的家乡小菜啊啊啊！熟悉的感觉！！！六七年前我刚学下厨的时候就经常做这个，因为真的特别简单，又极具家乡风味（虽然我不知道今晚这颗潮州咸菜为什么跑去汕头生产哈哈哈哈哈哈…不过都是胶己人！！！",
      "keywords": "潮州,潮州咸菜,咸菜炒肉丝",
      "date": "2021-11-11 07:23:00",
      "cover": "http://cdn.chengpeiquan.com/img/2022/02/20220203164003.jpg?x-oss-process=image/interlace,1",
      "categories": [
        "thrift",
        "bento",
        "teochew",
        "beginner"
      ],
      "duration": 1,
      "price": 3,
      "xiaohongshuId": "618be40f000000002103d97b"
    }
  ]
}