{
  "author": {
    "name": "chengpeiquan",
    "email": "chengpeiquan@chengpeiquan.com",
    "link": "https://chengpeiquan.com"
  },
  "type": "article",
  "total": 77,
  "page": 2,
  "lastPage": 8,
  "category": "default",
  "data": [
    {
      "id": "pinia",
      "type": "article",
      "shortDate": "2022-04-05",
      "title": "Pinia怎么用？Vue3全局状态的管理工具Pinia教程",
      "desc": "Vue 官方推出的全局状态管理工具目前有 Vuex 和 Pinia ，两者的作用和用法都比较相似，但 Pinia 的设计更贴近 Vue 3 组合式 API 的用法。Pinia 目前还没有被广泛的默认集成在各种脚手架里，官网也只有英文版，整理了教程便于提前学习。",
      "keywords": "vue 3.0,vue 3.x,vue 3.0 教程,学习 vue 3.0,vue 3.0 案例,vue 3.0 教学,vue 3.0 好用吗,pinia 怎么用,pinia教程",
      "date": "2022-04-05 07:44:00",
      "cover": "http://cdn.chengpeiquan.com/img/2022/04/20220405011839.jpg?x-oss-process=image/interlace,1",
      "categories": [
        "tech"
      ],
      "isHot": true,
      "repo": "https://github.com/chengpeiquan/learning-vue3"
    },
    {
      "id": "cooking-cookbook",
      "type": "article",
      "shortDate": "2022-02-21",
      "title": "每天吃什么？上班带什么饭？程序员教你做菜啦！",
      "desc": "从 2021 年底陆续开始维护这个菜谱栏目，终于有一些像模像样的作品沉淀了，你可以在这里了解一些关于如何下厨烹饪的菜谱和教程，这是来自一名从小就学做饭的程序员的原创经验。",
      "keywords": "小程序,菜谱小程序",
      "date": "2022-02-21 21:01:14",
      "cover": "http://cdn.chengpeiquan.com/img/2022/02/20220221130454.jpg?x-oss-process=image/interlace,1",
      "categories": [
        "prose"
      ]
    },
    {
      "id": "cookbook-donate",
      "type": "article",
      "shortDate": "2022-02-19",
      "title": "赞赏计划与赞赏记录",
      "desc": "我的所有菜谱都是基于日常做饭记录的原创作品，如果你觉得有帮助，欢迎捐赠一个猫罐头给我家三只猫猫，在每篇菜谱的底部都有一个 “喜欢” 按钮，点开后可长按保存再扫描我的赞赏码，十分感谢！",
      "keywords": "小程序,菜谱小程序",
      "date": "2022-02-19 21:39:14",
      "cover": "http://cdn.chengpeiquan.com/img/2022/01/20220215133323.jpg?x-oss-process=image/interlace,1",
      "categories": [
        "prose"
      ],
      "isDraft": true,
      "simplify": true
    },
    {
      "id": "cookbook-faq",
      "type": "article",
      "shortDate": "2022-02-19",
      "title": "小程序使用帮助",
      "desc": "菜谱小程序的使用帮助",
      "keywords": "小程序,菜谱小程序",
      "date": "2022-02-19 21:39:14",
      "cover": "http://cdn.chengpeiquan.com/img/2022/01/20220215133323.jpg?x-oss-process=image/interlace,1",
      "categories": [
        "prose"
      ],
      "isDraft": true,
      "simplify": true
    },
    {
      "id": "about-didi",
      "type": "article",
      "shortDate": "2022-02-15",
      "title": "关于底迪",
      "desc": "因为当时在注册账号的时候要取名和设置头像，刚好手机里最新的照片是我家猫「 底迪 」的照片，所以就用这张照片做了头像，名字也就顺其自然的用了我家底迪的名，一直用到了现在。",
      "keywords": "底迪",
      "date": "2022-02-15 06:02:14",
      "cover": "http://cdn.chengpeiquan.com/img/2022/01/20220215133323.jpg?x-oss-process=image/interlace,1",
      "categories": [
        "prose"
      ],
      "isDraft": true,
      "simplify": true
    },
    {
      "id": "cookbook-changelog",
      "type": "article",
      "shortDate": "2022-02-15",
      "title": "小程序版本更新记录",
      "desc": "这里记录菜谱小程序的版本迭代记录，如果你在体验的过程中有功能建议、体验优化建议，或者发现了什么 BUG ，欢迎在小程序的 “反馈” 功能里给我留言（打开小程序右上角的 “···” 就能看到），我会评估需求的优先级和可实现成本，在后续的版本迭代中优化。",
      "keywords": "小程序,菜谱小程序",
      "date": "2022-02-15 06:02:14",
      "cover": "http://cdn.chengpeiquan.com/img/2022/01/20220215133323.jpg?x-oss-process=image/interlace,1",
      "categories": [
        "prose"
      ],
      "isDraft": true,
      "simplify": true
    },
    {
      "id": "cookbook-guide",
      "type": "article",
      "shortDate": "2022-02-15",
      "title": "新手下厨指导",
      "desc": "所谓万事开头难，只要开了个头，后面就很顺利了，所以这篇文章的本意也是如此，希望能通过我的一些经验，帮助新人朋友适应厨房，喜欢厨房。",
      "keywords": "小程序,菜谱小程序,新人怎么做饭,新手下厨指南",
      "date": "2022-02-15 06:02:14",
      "cover": "http://cdn.chengpeiquan.com/img/2022/01/20220215133323.jpg?x-oss-process=image/interlace,1",
      "categories": [
        "prose"
      ],
      "isDraft": true,
      "simplify": true
    },
    {
      "id": "cookbook-safe",
      "type": "article",
      "shortDate": "2022-02-15",
      "title": "厨房安全科普",
      "desc": "科普一些常见的安全问题，对厨房比较陌生的朋友可以了解一下！",
      "keywords": "小程序,菜谱小程序,厨房安全,厨房注意事项",
      "date": "2022-02-15 06:02:14",
      "cover": "http://cdn.chengpeiquan.com/img/2022/01/20220215133323.jpg?x-oss-process=image/interlace,1",
      "categories": [
        "prose"
      ],
      "isDraft": true,
      "simplify": true
    },
    {
      "id": "flutter",
      "type": "article",
      "shortDate": "2022-01-28",
      "title": "从前端开发者身份入门Flutter和Dart的学习笔记",
      "desc": "有很多相似，又有很多不同，慢慢适应一下",
      "keywords": "flutter,dart",
      "date": "2022-01-28 00:02:00",
      "cover": "http://cdn.chengpeiquan.com/img/2021/11/20220127161927.jpg?x-oss-process=image/interlace,1",
      "categories": [
        "tech"
      ],
      "isDraft": true
    },
    {
      "id": "yidi-guonian",
      "type": "article",
      "shortDate": "2022-01-24",
      "title": "异地过年指南",
      "desc": "最近刷到好多小伙伴在说今年要留深圳/广州回不去，外卖到时又很贵，很纠结过年怎么办。我原本想着要不今年回去吧，我去年没回，结果前几天疫情每天都在+1，我妈倒是挺直接的叫我别回了，哈哈哈哈（正合我意呢），所以今年又在外面自己过年。",
      "keywords": "过年,一个人过年,过年怎么准备",
      "date": "2022-01-24 02:40:00",
      "cover": "http://cdn.chengpeiquan.com/img/2022/01/20220123233134.jpg?x-oss-process=image/interlace,1",
      "categories": [
        "prose"
      ],
      "xiaohongshuId": "61ed309f000000000102b14f",
      "simplify": true
    }
  ]
}