{
  "author": {
    "name": "chengpeiquan",
    "email": "chengpeiquan@chengpeiquan.com",
    "link": "https://chengpeiquan.com"
  },
  "type": "article",
  "total": 77,
  "page": 3,
  "lastPage": 8,
  "category": "default",
  "data": [
    {
      "id": "a-week-time-of-a-markdown-engineer",
      "type": "article",
      "shortDate": "2022-01-22",
      "title": "Markdown工程师的一周",
      "desc": "马上就快过年了，最近才比较有时间把之前很多想搞一直没时间搞的东西弄一下，比如说最近一周在干的事情就是，补各种文档。我是没想到我一周能敲差不多 25 个小时的 Markdown … 几乎一天有 5 个小时在码字，天了噜…",
      "keywords": "markdown,markdown engineer,markdown ppt,engineer ppt",
      "date": "2022-01-22 07:23:00",
      "cover": "http://cdn.chengpeiquan.com/img/2022/01/20220121232301.jpg?x-oss-process=image/interlace,1",
      "categories": [
        "tech",
        "prose"
      ]
    },
    {
      "id": "tsc-compiles-dts",
      "type": "article",
      "shortDate": "2022-01-21",
      "title": "TSC编译时指定生成d.ts的目录 并解决无法导入package.json和alias别名的问题",
      "desc": "虽然之前在构建 JS Library 的时候，也是有生成 `d.ts` 文件在输出目录，但总归比较凌乱，意思就是构建出来的 JS Library 和 DTS 文件都在同一级文件夹里。不是说不能用吧，总归看起来有点 low ，如果是单个 DTS 文件还好，但有时候构建出来会有好几个 DTS 这种情况下都放在一起总觉得有点别扭，所以今天想看一下能不能更优雅一点，存档在 types 文件夹里。",
      "keywords": "javascript type,js type,javascript with typescript",
      "date": "2022-01-21 20:22:00",
      "cover": "http://cdn.chengpeiquan.com/img/2021/11/20220121141631.jpg?x-oss-process=image/interlace,1",
      "categories": [
        "tech"
      ]
    },
    {
      "id": "javascript-with-typescript-type-checking",
      "type": "article",
      "shortDate": "2022-01-19",
      "title": "让你在编写 JavaScript 的时候也能享受 TypeScript 的类型检查",
      "desc": "现在前端没有几个不写 TypeScript 了吧，但是有时候还是不得不写 JS ，比如我最近写脚手架的时候，代码是直接跑在 Node Runtime 里，没有编译环节，所以用的依然还是 JavaScript 。然而，发现离开了类型限制之后，感觉要写很多注释才能保证一个项目的完整性，就很烦…",
      "keywords": "javascript type,js type,javascript with typescript",
      "date": "2022-01-19 22:42:00",
      "cover": "http://cdn.chengpeiquan.com/img/2021/11/20220119155350.jpg?x-oss-process=image/interlace,1",
      "categories": [
        "tech"
      ]
    },
    {
      "id": "git-commit-analytics",
      "type": "article",
      "shortDate": "2022-01-03",
      "title": "git-commit-analytics 分析Git Commit记录生成工作日报",
      "desc": "一个可以分析你的 Git 仓库 commit 记录的工具。它可以帮你生成一份工作日报 / 周报，或者你需要的更长时间范围的工作报告。",
      "keywords": "git log,git commit analytics,git report,git commit report,git log report",
      "date": "2022-01-03 00:00:00",
      "cover": "http://cdn.chengpeiquan.com/img/2022/01/20220103234230.jpg?x-oss-process=image/interlace,1",
      "categories": [
        "tech"
      ]
    },
    {
      "id": "github-ci-cd",
      "type": "article",
      "shortDate": "2022-01-02",
      "title": "2022 年的第一天，把开源工作交给了 CI / CD（待完善）",
      "desc": "新年的第一天，我把 GitHub 的全自动流水线搭起来了。",
      "keywords": "github ci cd,github workflows",
      "date": "2022-01-02 07:49:00",
      "cover": "http://cdn.chengpeiquan.com/img/2022/01/20220103233657.jpg?x-oss-process=image/interlace,1",
      "categories": [
        "tech"
      ]
    },
    {
      "id": "2021-year-end-summary",
      "type": "article",
      "shortDate": "2021-12-31",
      "title": "年终总结：2021年的一些回顾和2022年的一些小规划",
      "desc": "可真快啊又是一年年底了，虽然这一年博客没发几篇文章，不过整体的活跃情况其实是提升了，个人的变化也还是蛮大的，今年记忆比较深刻的事情有几件，让我梳理回顾一下。",
      "keywords": "2021 year end summary",
      "date": "2021-12-31 23:45:00",
      "cover": "http://cdn.chengpeiquan.com/img/2022/01/20220103234636.jpg?x-oss-process=image/interlace,1",
      "categories": [
        "prose"
      ],
      "cite": [
        "2022-year-end-summary"
      ]
    },
    {
      "id": "truffle",
      "type": "article",
      "shortDate": "2021-10-12",
      "title": "Truffle初探和踩坑笔记",
      "desc": "能找到的教程都好老，记录一版踩坑笔记，后面遇到类似的问题可以快速处理。",
      "keywords": "truffle,trufflesuite,智能合约,DAPP",
      "date": "2021-10-12 06:32:20",
      "cover": "http://cdn.chengpeiquan.com/img/2021/10/20211012094643.jpg?x-oss-process=image/interlace,1",
      "categories": [
        "tech"
      ]
    },
    {
      "id": "vue3-script-setup-finalization",
      "type": "article",
      "shortDate": "2021-07-05",
      "title": "Vue3.0最新动态：script-setup定稿 部分实验性API将弃用",
      "desc": "从尤大的Twitter上获取到了最新的开发进展，期待已久的script-setup组件模式终于定稿，不再是实验性功能了，当然对比之前的实验性阶段也有一些新的变化，包括一些API被弃用，同时也有新的API补充进来代替原有的功能。",
      "keywords": "script setup,vue 3.0 script setup,vue3 script setup,script setup prop,script setup emit,defineProps,vue 3.0 defineProps,vue defineProps,vue3 defineProps,prop defineProps,setup defineProps,defineEmits,vue 3.0 defineEmits,vue defineEmits,vue3 defineEmits,emit defineEmits,setup defineEmits,useAttrs,vue 3.0 useAttrs,vue useAttrs,vue3 useAttrs,setup useAttrs,useSlots,vue 3.0 useSlots,vue useSlots,vue3 useSlots,setup useSlots",
      "date": "2021-07-05 21:15:13",
      "cover": "http://cdn.jsdelivr.net/gh/chengpeiquan/assets-storage//img/2021/07/20210705181949.jpg?x-oss-process=image/interlace,1",
      "categories": [
        "tech"
      ],
      "repo": "https://github.com/chengpeiquan/learning-vue3"
    },
    {
      "id": "requirement-design",
      "type": "article",
      "shortDate": "2021-05-05",
      "title": "简单的六个步骤 让你写出技术爱看的需求文档",
      "desc": "提需求”应该是每个同学在工作中最不可避免的三个字，有句很流行的话叫“人人都是产品经理”（源自一本产品书籍的书名），为什么这句话会流行起来？因为只要我们把这句话换个方式表达，本质上就是“人人都是需求方”，是不是瞬间感觉“对对对”！",
      "keywords": "需求设计,需求文档,需求规范",
      "date": "2021-05-05 08:01:00",
      "cover": "http://cdn.chengpeiquan.com/img/2023/01/20230107234550.jpg?x-oss-process=image/interlace,1",
      "categories": [
        "design"
      ],
      "isHot": true
    },
    {
      "id": "search-children-in-404-page",
      "type": "article",
      "shortDate": "2021-04-11",
      "title": "Node爬取宝贝回家最新走失儿童信息 生成接口API在404页面调用",
      "desc": "很久没采购成箱的东西了，大部分情况下都是零零散散的京东散件或者天猫半日达，一个购物袋就给我装了送过来，周末刚好在天猫超市买了箱东西，开箱一看，发现箱子里面印刷上了走失儿童的信息，感动！突然想起很久没有关注到这方面的信息。",
      "keywords": "node爬虫,宝贝回家404,宝贝回家API",
      "date": "2021-04-11 23:40:00",
      "cover": "http://cdn.chengpeiquan.com/img/2021/04/20210411154503.jpg?x-oss-process=image/interlace,1",
      "categories": [
        "tech"
      ],
      "repo": "https://github.com/chengpeiquan/search-children-api-example"
    }
  ]
}