{
  "author": {
    "name": "chengpeiquan",
    "email": "chengpeiquan@chengpeiquan.com",
    "link": "https://chengpeiquan.com"
  },
  "type": "article",
  "total": 77,
  "page": 4,
  "lastPage": 8,
  "category": "default",
  "data": [
    {
      "id": "reclassify-articles",
      "type": "article",
      "shortDate": "2021-03-16",
      "title": "对文章又重新做了一次分类",
      "desc": "时隔两年，改版的时候去掉了分类，想了想，还是加回来吧，又把所有内容重新分了个类。",
      "keywords": "原生JS回到顶部,原生JS带动画回到顶部",
      "date": "2021-03-16 09:17:00",
      "cover": "http://cdn.chengpeiquan.com/img/2021/03/20210316221139.jpg?x-oss-process=image/interlace,1",
      "categories": [
        "prose"
      ]
    },
    {
      "id": "vue3-script-setup",
      "type": "article",
      "shortDate": "2021-03-05",
      "title": "聊一聊Vue3.0的script-setup 以及全新的props/emits专属API",
      "desc": "今天想聊一聊 Vue 3.0 的 script-setup，以及目前三个很少被提及到的 API —— defineProps 、 defineEmit 和 useContext。截止到我撰写本文，它们在 Vue 3.0 的官网都还没有相关的用法说明，因为目前还属于实验性的新特性，什么时候会并入正式轨道，时间上还不清楚，但事实上在项目里已经可以使用起来了，自己体验了一段时间，真的爽！！！",
      "keywords": "script setup,vue 3.0 script setup,vue3 script setup,script setup prop,script setup emit,defineProps,vue 3.0 defineProps,vue defineProps,vue3 defineProps,prop defineProps,setup defineProps,defineEmit,vue 3.0 defineEmit,vue defineEmit,vue3 defineEmit,emit defineEmit,setup defineEmit,useContext,vue 3.0 useContext,vue useContext,vue3 useContext,setup useContext",
      "date": "2021-03-05 08:48:13",
      "cover": "http://cdn.chengpeiquan.com/img/2021/02/20210305211036.jpg?x-oss-process=image/interlace,1",
      "categories": [
        "tech"
      ],
      "repo": "https://github.com/chengpeiquan/learning-vue3"
    },
    {
      "id": "vite-plugin-banner",
      "type": "article",
      "shortDate": "2021-02-24",
      "title": "vite-plugin-banner：让Vite在打包的时候添加版权注释",
      "desc": "基于Vite，实现一个和webpack banner plugin一样功能的版权注释插件，可以为每个 chunk 文件头部添加 banner 注释。",
      "keywords": "vite-plugin-banner,vite plugin,vite banner,vite注释,vite版权",
      "date": "2021-02-24 07:10:00",
      "cover": "http://cdn.chengpeiquan.com/img/2021/01/20210224102526.jpg?x-oss-process=image/interlace,1",
      "categories": [
        "tech"
      ],
      "repo": "https://github.com/chengpeiquan/vite-plugin-banner"
    },
    {
      "id": "rewrite-in-vite",
      "type": "article",
      "shortDate": "2021-02-19",
      "title": "重构于Vite",
      "desc": "从 2021 年元旦 Vite 发布 2.0 Beta 版就一直在关注 Vite 的动态，借着春节放假有时间，而且 Vue 3.0 和 Vite 2.0 都才大版本更新上线不久，预感后面会火，先开荒尝试一波，也当给以后工作上的业务先提前踩踩坑，对博客做了第三次重构，这一次把客户端和服务端都重新写了，由 PHP 的 LNMP 全家桶全部换成了前端侧的技术栈。",
      "keywords": "vite,vite ssr,vite ssg,vite blog",
      "date": "2021-02-19 07:54:00",
      "cover": "http://cdn.chengpeiquan.com/img/2021/02/20210219234631.jpg?x-oss-process=image/interlace,1",
      "categories": [
        "tech"
      ],
      "isHot": true,
      "repo": "https://github.com/chengpeiquan/chengpeiquan.com"
    },
    {
      "id": "refresh-token",
      "type": "article",
      "shortDate": "2021-01-30",
      "title": "基于OAuth2.0的refreshToken前端刷新方案与演示demo",
      "desc": "如今在涉及到用户登录的系统设计里面，基本上都是通过 OAuth 2.0 来设计授权，当你在调用登录接口的时候，可以看到在返回来的数据里面会有 2 个 Token：一个 accessToken 和一个 refreshToken 。为什么会有两个 Token，之间有什么区别？这其实是 OAuth 2.0 的四种方式 之一的 “凭证式”，一个是平时请求接口时的用户凭证，一个是用来刷新用户凭证的刷新凭证。",
      "keywords": "refresh token,refreshtoken,oauth 2.0 refreshtoken,前端刷新token,oauth 刷新token",
      "date": "2021-01-30 22:56:00",
      "cover": "http://cdn.chengpeiquan.com/img/2021/01/1.jpg?x-oss-process=image/interlace,1",
      "categories": [
        "tech"
      ],
      "isHot": true,
      "repo": "https://github.com/chengpeiquan/refresh-token"
    },
    {
      "id": "vue-cnzz-analytics",
      "type": "article",
      "shortDate": "2021-01-09",
      "title": "vue-cnzz-analytics 基于Vue SPA项目的友盟CNZZ统计插件（支持Vue 3.0）",
      "desc": "一个专为SPA项目开发的友盟统计插件，支持Vue 3.0以及2.0版本同时使用，也可用于VuePress项目，支持在路由切换时，自动上报流量数据等功能。",
      "keywords": "cnzz,vue cnzz,vue umeng,vue analytics,spa analytics,cnzz统计,umeng统计,友盟统计,vuepress统计,vuepress cnzz统计",
      "date": "2021-01-09 06:37:00",
      "cover": "http://cdn.chengpeiquan.com/img/2020/08/1-3.jpg?x-oss-process=image/interlace,1",
      "categories": [
        "tech"
      ],
      "repo": "https://github.com/analyticsjs/vue-cnzz-analytics"
    },
    {
      "id": "vue-baidu-analytics",
      "type": "article",
      "shortDate": "2021-01-08",
      "title": "vue-baidu-analytics 基于Vue SPA项目的百度统计插件（支持Vue 3.0）",
      "desc": "一个专为SPA项目开发的百度统计插件，支持Vue 3.0以及2.0版本同时使用，也可用于VuePress项目，支持在路由切换时，自动上报流量数据等功能。",
      "keywords": "vue-baidu-analytics,vue百度统计,vue流量上报,spa流量,spa百度统计,vue统计代码,spa统计代码,vuepress统计,vuepress百度统计",
      "date": "2021-01-08 07:21:00",
      "cover": "http://cdn.chengpeiquan.com/img/2019/12/1.jpg?x-oss-process=image/interlace,1",
      "categories": [
        "tech"
      ],
      "repo": "https://github.com/analyticsjs/vue-baidu-analytics"
    },
    {
      "id": "baidu-map-api-destroy",
      "type": "article",
      "shortDate": "2020-12-25",
      "title": "百度地图API实例销毁方案 可用于Vue单页面项目",
      "desc": "最近项目用到了百度地图的API，用倒是没啥毛病，就是发现用完之后留下来的垃圾太多 = = 项目是基于Vue做的，当时发现在需要百度地图的那个路由用完之后，切去其他页面，积累了很多DOM，并且再次进入会再次创建，在项目里体验越久，DOM树越累赘，并且由百度地图创建的定时器越攒越多。",
      "keywords": "百度地图销毁,百度地图API销毁",
      "date": "2020-12-25 00:00:00",
      "cover": "http://cdn.chengpeiquan.com/img/2020/12/baidu-map.jpg?x-oss-process=image/interlace,1",
      "categories": [
        "tech"
      ]
    },
    {
      "id": "group-buy-calculator",
      "type": "article",
      "shortDate": "2020-11-22",
      "title": "外卖拼单计算器：自动帮你计算合伙点外卖应该支付多少钱",
      "desc": "目前除了美团之外，其他的外卖app（像饿了么啊、瑞幸啊、麦当劳肯德基啊）都没提供自动计算账单的功能，自己每次拉excel算的蛋疼，所以写了这个，无需纠结红包、抵扣券等乱七八糟的减免，会自动计算折扣比例来得到最终账单。",
      "keywords": "外卖计算器,拼单计算器",
      "date": "2020-11-22 23:46:00",
      "cover": "http://cdn.chengpeiquan.com/img/2020/12/2-1.jpg?x-oss-process=image/interlace,1",
      "categories": [
        "tech"
      ],
      "repo": "https://github.com/chengpeiquan/group-buy-calculator"
    },
    {
      "id": "vue-picture-cropper",
      "type": "article",
      "shortDate": "2020-11-16",
      "title": "Vue 3.0图片裁切插件：vue-picture-cropper",
      "desc": "开始玩Vue 3.0之后发现生态上要啥没啥，所以自己弄了一个，基于cropper.js，支持Vue 3.0的图片裁切工具组件，支持在Vue组件里按需引入，模板和实例也仅限在组件内使用，根据Vue 3.x的设计思想，官方也不推荐全局导入各类插件。",
      "keywords": "vue picture cropper,vue 3.0 cropper,vue 3.0 图片裁切",
      "date": "2020-11-16 08:12:00",
      "cover": "http://cdn.chengpeiquan.com/img/2020/12/1.jpg?x-oss-process=image/interlace,1",
      "categories": [
        "tech"
      ],
      "repo": "https://github.com/chengpeiquan/vue-picture-cropper"
    }
  ]
}