{
  "author": {
    "name": "chengpeiquan",
    "email": "chengpeiquan@chengpeiquan.com",
    "link": "https://chengpeiquan.com"
  },
  "type": "cookbook",
  "total": 14,
  "page": 2,
  "lastPage": 2,
  "category": "orthodontic",
  "data": [
    {
      "id": "hongtang-jidan-mian",
      "type": "cookbook",
      "shortDate": "2021-10-01",
      "title": "省钱菜单：0.6元的红糖鸡蛋面（8min）",
      "desc": "我昨晚熬夜了，今天早上一觉睡到了快12点，我有个习惯，就是不管熬夜多晚，都会定个11点半的闹钟，午餐还是要起来吃的！不过刚起床也没有太多精力搞别的，想起今天祖国的生日，煮个甜面条吧！刚好这个月开启新生活，吃点甜甜的重新开始！",
      "keywords": "潮州小吃,潮汕小吃,红糖鸡蛋面",
      "date": "2021-10-01 20:43:00",
      "cover": "http://cdn.chengpeiquan.com/img/2022/02/20220307001224.jpg?x-oss-process=image/interlace,1",
      "categories": [
        "thrift",
        "staple",
        "teochew",
        "orthodontic"
      ],
      "duration": 8,
      "price": 0.6,
      "xiaohongshuId": "615691f5000000000102e7c5"
    },
    {
      "id": "chaoshan-fanqie-jidan-tang",
      "type": "cookbook",
      "shortDate": "2021-09-14",
      "title": "省钱菜谱：4.5元酸酸甜甜的潮式番茄鸡蛋汤（7min）",
      "desc": "今晚分享一个我很喜欢的番茄鸡蛋汤的做法，甜口，和平时在外面吃的番茄鸡蛋汤不太一样，对比外面常见的咸口的番茄鸡蛋，我更钟爱于酸酸甜甜的口感。",
      "keywords": "潮汕美食,番茄鸡蛋汤",
      "date": "2021-09-14 05:59:00",
      "cover": "http://cdn.chengpeiquan.com/img/2022/02/20220222132411.jpg?x-oss-process=image/interlace,1",
      "categories": [
        "thrift",
        "teochew",
        "orthodontic",
        "soup",
        "beginner"
      ],
      "duration": 7,
      "price": 4.5,
      "xiaohongshuId": "613f59520000000001027482"
    },
    {
      "id": "niunai-hebaodan",
      "type": "cookbook",
      "shortDate": "2021-09-11",
      "title": "省钱菜谱：2.8元的牛奶荷包蛋当早餐（5min）",
      "desc": "分享一个早餐，以前我还在老家的时候，在路边的早餐档口很常见，就是那种大叔大妈推个小推车在卖豆浆油条白粥的，一般也会提供这道早点，后面出来工作就基本没见到了，偶尔回家几天又一定是安排肠粉，我也不知道现在还有没有在卖这个早餐了。",
      "keywords": "潮州小吃,潮汕小吃,牛奶荷包蛋",
      "date": "2021-09-11 18:52:00",
      "cover": "http://cdn.chengpeiquan.com/img/2022/03/20220301132640.jpg?x-oss-process=image/interlace,1",
      "categories": [
        "thrift",
        "orthodontic",
        "teochew"
      ],
      "duration": 5,
      "price": 2.8,
      "xiaohongshuId": "613c1a060000000001029fbb"
    },
    {
      "id": "roumo-doufu-tang",
      "type": "cookbook",
      "shortDate": "2021-09-02",
      "title": "省钱菜谱：2元的肉末豆腐汤（10min）",
      "desc": "今晚临下班下起了雨，穿着背心裤衩还有点凉飕飕的，想想煮点汤好了，暖一暖~",
      "keywords": "潮汕美食,肉末豆腐汤",
      "date": "2021-09-02 07:42:00",
      "cover": "http://cdn.chengpeiquan.com/img/2022/02/20220215010601.jpg?x-oss-process=image/interlace,1",
      "categories": [
        "thrift",
        "teochew",
        "soup",
        "orthodontic",
        "beginner"
      ],
      "duration": 10,
      "price": 2,
      "xiaohongshuId": "612f9f75000000002103524d",
      "cite": [
        "chaoshan-suantoulao"
      ]
    }
  ]
}