{
  "author": {
    "name": "chengpeiquan",
    "email": "chengpeiquan@chengpeiquan.com",
    "link": "https://chengpeiquan.com"
  },
  "type": "cookbook",
  "total": 46,
  "page": 2,
  "lastPage": 5,
  "category": "beginner",
  "data": [
    {
      "id": "donggua-paigu-tang",
      "type": "cookbook",
      "shortDate": "2022-08-08",
      "title": "天热消暑！煲个冬瓜排骨汤（1h）",
      "desc": "-0- 今天感觉有点上火，可惜附近没有凉茶店（也不是完全没有，配送费 7 块钱实在太贵…），不然一瓶癍痧凉茶就很爽了！所以今晚煲个冬瓜汤来吃吃！",
      "keywords": "冬瓜排骨汤,冬瓜汤,排骨汤",
      "date": "2022-08-08 04:47:00",
      "cover": "http://cdn.chengpeiquan.com/img/2022/08/20220807205511.jpg?x-oss-process=image/interlace,1",
      "categories": [
        "soup",
        "beginner",
        "teochew"
      ],
      "duration": 60,
      "price": 25,
      "xiaohongshuId": "62efb47100000000150097cb"
    },
    {
      "id": "jinzhengu-feiniu-fanqie-tang",
      "type": "cookbook",
      "shortDate": "2022-08-01",
      "title": "金针菇肥牛番茄汤（10min）",
      "desc": "这个周末热到开着空调也要打赤膊了…然后因为长发贴着后背，才发现我的头发已经过腰了！！！虽然只有最中间的那一撮…",
      "keywords": "金针菇肥牛番茄汤,番茄肥牛,肥牛",
      "date": "2022-08-01 05:19:00",
      "cover": "http://cdn.chengpeiquan.com/img/2022/07/20220731213919.jpg?x-oss-process=image/interlace,1",
      "categories": [
        "soup",
        "beginner"
      ],
      "duration": 10,
      "price": 20,
      "xiaohongshuId": "62e68177000000000e029521"
    },
    {
      "id": "shajiang-shousi-jitui",
      "type": "cookbook",
      "shortDate": "2022-07-24",
      "title": "省钱菜谱：11.5元的沙姜手撕鸡腿（35min）",
      "desc": "今晚做个沙姜鸡腿，沙姜的味道和普通的生姜是不一样的，粤菜挺常用的，沙姜鸡、沙姜猪手啥的，因为冰箱里有上周买的冷冻琵琶腿，所以先搞个鸡来吃吃~",
      "keywords": "沙姜手撕鸡腿,沙姜鸡腿,沙姜鸡",
      "date": "2022-07-24 05:25:00",
      "cover": "http://cdn.chengpeiquan.com/img/2022/07/20220723213517.jpg?x-oss-process=image/interlace,1",
      "categories": [
        "thrift",
        "teochew",
        "beginner",
        "bento"
      ],
      "duration": 35,
      "price": 11.5,
      "xiaohongshuId": "62dbf6ce000000001b03cbbf"
    },
    {
      "id": "yangcongsi-chao-feiniu",
      "type": "cookbook",
      "shortDate": "2022-07-17",
      "title": "黑椒蚝油洋葱丝炒肥牛（15min）",
      "desc": "话说我现在住的这层楼和楼上楼下的邻居，我感觉素质都是相当的好，回广州这一个多月非常非常非常的安静，住的非常的清心！虽然我知道有好几个家庭还有小孩子（有一天上班在电梯里还被邻居小妹妹碰了碰我的文身然后问我，叔叔你手上是一只猫猫吗，我说是，我养了三只大猫猫），但真的很安静。",
      "keywords": "洋葱丝,肥牛",
      "date": "2022-07-17 23:17:00",
      "cover": "http://cdn.chengpeiquan.com/img/2022/07/20220717214257.jpg?x-oss-process=image/interlace,1",
      "categories": [
        "beginner"
      ],
      "duration": 15,
      "price": 18,
      "xiaohongshuId": "62d3b788000000000e032516"
    },
    {
      "id": "liangban-shacha-feiniu",
      "type": "cookbook",
      "shortDate": "2022-07-17",
      "title": "凉拌沙茶肥牛（5min）",
      "desc": "今晚还是吃肥牛！不过换了一个做法，做成了凉拌！",
      "keywords": "沙茶肥牛,凉拌肥牛,肥牛",
      "date": "2022-07-17 10:44:00",
      "cover": "http://cdn.chengpeiquan.com/img/2022/07/20220717214204.jpg?x-oss-process=image/interlace,1",
      "categories": [
        "bento",
        "teochew",
        "beginner"
      ],
      "duration": 5,
      "price": 15,
      "xiaohongshuId": "62d306fd000000002103f7fe"
    },
    {
      "id": "jinzhengu-fanqie-feiniu-mian",
      "type": "cookbook",
      "shortDate": "2022-07-17",
      "title": "金针菇番茄肥牛面（15min）",
      "desc": "在“失踪”了三周之后，我终于又有点时间做饭了… 忙飞了最近，上周末本来想做饭的，结果又回公司加了一天班，所以又没做哈哈哈哈 -0-",
      "keywords": "金针菇番茄肥牛面,番茄肥牛面,肥牛",
      "date": "2022-07-17 10:30:00",
      "cover": "http://cdn.chengpeiquan.com/img/2022/07/20220717215801.jpg?x-oss-process=image/interlace,1",
      "categories": [
        "bento",
        "beginner"
      ],
      "duration": 15,
      "price": 20,
      "xiaohongshuId": "62d303be0000000011011bb1"
    },
    {
      "id": "heiyu-qiugua-tang",
      "type": "cookbook",
      "shortDate": "2022-05-24",
      "title": "菜谱：黑鱼秋瓜汤（8min）",
      "desc": "上个周末回了趟广州，一下高铁就感觉回到了家一样，毕竟是我的第二故乡，这次回去是去看了下房子，然后准备回广州工作和生活啦！所以接下来这一个多星期会比较忙，笔记估计不太有时间整理（忙着工作和收拾东西hhh），不过评论和私信我都会回的哈哈哈…",
      "keywords": "潮州美食,潮汕美食,黑鱼秋瓜汤",
      "date": "2022-05-24 07:13:00",
      "cover": "http://cdn.chengpeiquan.com/img/2022/05/20220523233152.jpg?x-oss-process=image/interlace,1",
      "categories": [
        "beginner",
        "teochew",
        "soup",
        "orthodontic"
      ],
      "duration": 8,
      "price": 14,
      "xiaohongshuId": "628ba486000000002103d8a9",
      "cite": [
        "chaoshan-suantoulao"
      ]
    },
    {
      "id": "qingzheng-sanhuangji",
      "type": "cookbook",
      "shortDate": "2022-05-14",
      "title": "菜谱：清蒸三黄鸡（30min）",
      "desc": "今晚做了个清蒸三黄鸡，搭配白切鸡的姜葱酱也很好吃，不过今晚搭配的酱料用了另外的做法，平时可以交叉换口味试试！",
      "keywords": "清蒸三黄鸡,三黄鸡",
      "date": "2022-05-14 08:23:00",
      "cover": "http://cdn.chengpeiquan.com/img/2022/05/20220514003235.jpg?x-oss-process=image/interlace,1",
      "categories": [
        "bento",
        "teochew",
        "beginner"
      ],
      "duration": 30,
      "price": 16,
      "xiaohongshuId": "627e85e9000000000102b689",
      "cite": [
        "chiyou-jiangcong-zhanliao"
      ]
    },
    {
      "id": "huaishan-hongzao-paigu-tang",
      "type": "cookbook",
      "shortDate": "2022-05-09",
      "title": "淮山红枣排骨汤（2h）",
      "desc": "五一因为打了疫苗，安慰自己要休息，然后就没有运动哈哈哈哈，所以今天才出去爬山，下山的时候还下雨了，累死！还好出门前先处理好了食材，定时煲汤，回到家洗个热水澡舒舒服服的喝汤，好爽啊！",
      "keywords": "淮山红枣排骨汤,排骨汤",
      "date": "2022-05-09 06:48:00",
      "cover": "http://cdn.chengpeiquan.com/img/2022/05/20220514010919.jpg?x-oss-process=image/interlace,1",
      "categories": [
        "soup",
        "teochew",
        "beginner"
      ],
      "duration": 120,
      "price": 18,
      "xiaohongshuId": "6277d83d00000000210351f5"
    },
    {
      "id": "suzha-heiyupian",
      "type": "cookbook",
      "shortDate": "2022-05-03",
      "title": "菜谱：酥炸黑鱼片（15min）",
      "desc": "做个炸鱼片，今天这个黑鱼片是成品包装，本来是用来做酸菜鱼水煮鱼的，好像是处理过的，所以我没有再另外加工，感觉不腥，如果是菜市场买的鱼，可以用姜葱抓匀腌制一下去掉腥味。",
      "keywords": "酥炸黑鱼片,炸鱼片",
      "date": "2022-05-03 01:14:00",
      "cover": "http://cdn.chengpeiquan.com/img/2022/05/20220502172218.jpg?x-oss-process=image/interlace,1",
      "categories": [
        "thrift",
        "beginner"
      ],
      "duration": 15,
      "price": 9.5,
      "xiaohongshuId": "626fa0fa000000002103cf0d"
    }
  ]
}