{
  "author": {
    "name": "chengpeiquan",
    "email": "chengpeiquan@chengpeiquan.com",
    "link": "https://chengpeiquan.com"
  },
  "type": "cookbook",
  "total": 46,
  "page": 3,
  "lastPage": 5,
  "category": "beginner",
  "data": [
    {
      "id": "kaorou-shengcai-shala",
      "type": "cookbook",
      "shortDate": "2022-04-28",
      "title": "省钱菜谱：6块钱的烤肉生菜沙拉（25min）",
      "desc": "写下标题的时候，我点开了温拿乐队的《Sha La La La》哈哈哈哈…今晚吃个沙拉，自己做也不贵，大概 6 块钱…",
      "keywords": "烤肉生菜沙拉,沙拉,生菜沙拉",
      "date": "2022-04-28 06:13:00",
      "cover": "http://cdn.chengpeiquan.com/img/2022/04/20220502151910.jpg?x-oss-process=image/interlace,1",
      "categories": [
        "thrift",
        "bento",
        "beginner"
      ],
      "duration": 25,
      "price": 6,
      "xiaohongshuId": "62694f8c0000000021038c55"
    },
    {
      "id": "neizhidoufu-jidangeng",
      "type": "cookbook",
      "shortDate": "2022-04-23",
      "title": "省钱菜谱：0.66元的内酯豆腐鸡蛋羹（15min）",
      "desc": "哈哈哈哈今天这一餐纯属白嫖，是拿的美团买菜的免费菜里面的内酯豆腐，最近几次买东西都选了它，配合鸡蛋羹一起，口感真的很不错，好像豆腐花，超级嫩！",
      "keywords": "内酯豆腐鸡蛋羹,鸡蛋羹,内酯豆腐,省钱菜谱",
      "date": "2022-04-23 07:19:00",
      "cover": "http://cdn.chengpeiquan.com/img/2022/04/20220422233257.jpg?x-oss-process=image/interlace,1",
      "categories": [
        "thrift",
        "beginner",
        "orthodontic"
      ],
      "duration": 15,
      "price": 0.66,
      "xiaohongshuId": "6262c770000000002103f4ed"
    },
    {
      "id": "zhacai-roupian-tangmifen",
      "type": "cookbook",
      "shortDate": "2022-04-06",
      "title": "省钱菜谱：2.5元的榨菜肉片汤米粉（5min）",
      "desc": "今晚煮个米粉吃，简简单单的，大学的时候经常跟舍友去校门口的沙县吃榨菜肉丝粉，不过都是汤河粉，今晚用潮汕特色的细米粉来做也很不错！",
      "keywords": "潮州小吃,潮汕小吃,潮州汤粉,潮汕汤粉,榨菜肉片汤米粉,潮汕汤米粉",
      "date": "2022-04-06 04:22:00",
      "cover": "http://cdn.chengpeiquan.com/img/2022/04/20220405214237.jpg?x-oss-process=image/interlace,1",
      "categories": [
        "thrift",
        "staple",
        "teochew",
        "beginner"
      ],
      "duration": 5,
      "price": 2.5,
      "xiaohongshuId": "624c349c0000000021038b42"
    },
    {
      "id": "xinaoerliang-kaorou-juanbing",
      "type": "cookbook",
      "shortDate": "2022-04-06",
      "title": "菜单分享：新奥尔良烤肉卷饼（20min）",
      "desc": "今天天气好好，中午又搞了一波烤肉卷饼，这次换成了新奥尔良烤鸡腿肉。",
      "keywords": "新奥尔良烤肉卷饼,卷饼,健身卷饼",
      "date": "2022-04-06 00:19:00",
      "cover": "http://cdn.chengpeiquan.com/img/2022/04/20220405215403.jpg?x-oss-process=image/interlace,1",
      "categories": [
        "thrift",
        "staple",
        "beginner"
      ],
      "duration": 20,
      "price": 20,
      "xiaohongshuId": "624bfb9c000000000102fdb0"
    },
    {
      "id": "ziran-suanxiang-jixiongli",
      "type": "cookbook",
      "shortDate": "2022-04-04",
      "title": "省钱菜谱：3块钱的孜然蒜香鸡胸粒（2min）",
      "desc": "这周补多一天班搞得我总觉得今天是单休，然后终于才进入假期模式，本来前几天就想发这个菜谱的，结果一看电影一拖再拖哈哈哈哈哈…",
      "keywords": "孜然蒜香鸡胸粒,鸡胸肉",
      "date": "2022-04-04 06:37:00",
      "cover": "http://cdn.chengpeiquan.com/img/2022/04/20220404011855.jpg?x-oss-process=image/interlace,1",
      "categories": [
        "thrift",
        "bento",
        "beginner"
      ],
      "duration": 2,
      "price": 3,
      "xiaohongshuId": "6249b125000000000102b804"
    },
    {
      "id": "zhuhou-kaorou-pei-qingguasi-juanbing",
      "type": "cookbook",
      "shortDate": "2022-03-21",
      "title": "菜谱：柱侯烤肉配青瓜丝卷饼（15min）",
      "desc": "封村之前逛超市的时候看到有卖卷饼，当时买了两袋想试一下，然后拖到了现在才试哈哈哈，还蛮不错的！这东西还蛮好玩的，应该怎么搭配都好吃，这次是刚好做个烤肉消耗掉家里的柱侯酱，你也可以用奥尔良腌料啊沙茶酱啊之类的去做烤肉。",
      "keywords": "柱侯烤肉配青瓜丝卷饼,卷饼,健身卷饼",
      "date": "2022-03-21 00:02:00",
      "cover": "http://cdn.chengpeiquan.com/img/2022/03/20220320160858.jpg?x-oss-process=image/interlace,1",
      "categories": [
        "thrift",
        "staple",
        "bento",
        "beginner"
      ],
      "duration": 15,
      "price": 20,
      "xiaohongshuId": "6236df9c000000000102b95f"
    },
    {
      "id": "roupian-qingchao-tudousi",
      "type": "cookbook",
      "shortDate": "2022-03-20",
      "title": "省钱菜谱：3块钱的肉片清炒土豆丝（2min）",
      "desc": "玉米的价格看来下不去了，最近看好土豆哈哈哈，来做个潮汕做法的清炒土豆丝，口感清脆又好吃。",
      "keywords": "潮汕美食,肉片清炒土豆丝,炒土豆丝,清炒土豆丝",
      "date": "2022-03-20 06:32:00",
      "cover": "http://cdn.chengpeiquan.com/img/2022/02/20220319224341.jpg?x-oss-process=image/interlace,1",
      "categories": [
        "thrift",
        "teochew",
        "orthodontic",
        "beginner"
      ],
      "duration": 2,
      "price": 3,
      "xiaohongshuId": "6235e97c000000000102c1d8"
    },
    {
      "id": "mijiang-kao-paigu",
      "type": "cookbook",
      "shortDate": "2022-03-19",
      "title": "省钱菜谱：10块钱的蜜酱烤排骨（23min）",
      "desc": "居家办公的第五天，一周结束啦耶耶耶！今天中午和晚上都是吃烤排骨，好好吃哈哈哈哈哈！而且做法超级简单！",
      "keywords": "蜜酱烤排骨,烤排骨,空气炸锅烤排骨",
      "date": "2022-03-19 07:36:00",
      "cover": "http://cdn.chengpeiquan.com/img/2022/02/20220318234526.jpg?x-oss-process=image/interlace,1",
      "categories": [
        "thrift",
        "beginner"
      ],
      "duration": 23,
      "price": 10,
      "xiaohongshuId": "6234a705000000000102f82f"
    },
    {
      "id": "hujiao-chao-suidan",
      "type": "cookbook",
      "shortDate": "2022-03-14",
      "title": "省钱菜谱：1.9元的胡椒炒碎蛋（2min）",
      "desc": "今晚分享一个我很喜欢的番茄鸡蛋汤的做法，甜口，和平时在外面吃的番茄鸡蛋汤不太一样，对比外面常见的咸口的番茄鸡蛋，我更钟爱于酸酸甜甜的口感。",
      "keywords": "潮汕美食,番茄鸡蛋汤",
      "date": "2022-03-14 07:18:00",
      "cover": "http://cdn.chengpeiquan.com/img/2022/02/20220313232532.jpg?x-oss-process=image/interlace,1",
      "categories": [
        "thrift",
        "teochew",
        "orthodontic",
        "beginner"
      ],
      "duration": 2,
      "price": 1.9,
      "xiaohongshuId": "622e0b4d000000000102e6ae"
    },
    {
      "id": "furu-zheng-paigu",
      "type": "cookbook",
      "shortDate": "2022-03-06",
      "title": "蒜香腐乳蒸排骨（30min）",
      "desc": "继上次的那个 “腐乳蒸肉片”，当时说还可以蒸排骨，所以今天来做下排骨版本。",
      "keywords": "腐乳蒸排骨,腐乳",
      "date": "2022-03-06 03:34:00",
      "cover": "http://cdn.chengpeiquan.com/img/2022/02/20220306012707.jpg?x-oss-process=image/interlace,1",
      "categories": [
        "bento",
        "teochew",
        "beginner"
      ],
      "duration": 30,
      "price": 24,
      "xiaohongshuId": "62234aad000000000102c18e",
      "cite": [
        "furu-zheng-roupian"
      ]
    }
  ]
}