{
  "author": {
    "name": "chengpeiquan",
    "email": "chengpeiquan@chengpeiquan.com",
    "link": "https://chengpeiquan.com"
  },
  "type": "cookbook",
  "total": 46,
  "page": 4,
  "lastPage": 5,
  "category": "beginner",
  "data": [
    {
      "id": "chaoshan-shacha-banmian",
      "type": "cookbook",
      "shortDate": "2022-02-15",
      "title": "省钱菜谱：2块钱的潮汕沙茶拌面（10min）",
      "desc": "今天 2 月 14 日，是……一个普普通通的周一哈哈哈哈哈哈哈哈哈哈…………前几天我妈给我寄橄榄的时候问我还想吃啥，我说寄点“面薄”哩，然后我终于在深圳吃到了潮汕的 “面薄”，果然还是家里的面条好吃！！！",
      "keywords": "潮汕美食,沙茶拌面,潮式拌面",
      "date": "2022-02-15 06:14:00",
      "cover": "http://cdn.chengpeiquan.com/img/2022/02/20220214222145.jpg?x-oss-process=image/interlace,1",
      "categories": [
        "thrift",
        "teochew",
        "staple",
        "beginner"
      ],
      "duration": 10,
      "price": 2,
      "xiaohongshuId": "620a63e00000000001027237",
      "cite": [
        "chaoshan-suantoulao"
      ]
    },
    {
      "id": "furu-zheng-roupian",
      "type": "cookbook",
      "shortDate": "2022-02-09",
      "title": "省钱菜谱：6块钱的腐乳蒸肉片（20min）",
      "desc": "这是跟我妈学的一个做法，我以前读书在家的时候就很喜欢吃了，蒸肉蒸排骨都好吃，偏甜口。",
      "keywords": "腐乳蒸肉片,腐乳",
      "date": "2022-02-09 04:05:00",
      "cover": "http://cdn.chengpeiquan.com/img/2022/02/20220214004426.jpg?x-oss-process=image/interlace,1",
      "categories": [
        "thrift",
        "bento",
        "teochew",
        "beginner"
      ],
      "duration": 20,
      "price": 8,
      "xiaohongshuId": "62025c99000000000102efef",
      "cite": [
        "furu-zheng-paigu"
      ]
    },
    {
      "id": "cuipi-yanjuji-tuipa",
      "type": "cookbook",
      "shortDate": "2022-01-20",
      "title": "省钱菜谱：3.78元的脆皮盐焗鸡腿扒（20min）",
      "desc": "之前发过一次土豆脆皮烤鸡的做法，今晚用类似的方式搞了个脆皮盐焗鸡腿扒，也很好吃！！！",
      "keywords": "鸡腿扒,盐焗鸡,烤鸡,脆皮鸡,空气炸锅",
      "date": "2022-01-20 07:07:00",
      "cover": "http://cdn.chengpeiquan.com/img/2022/01/20220119232320.jpg?x-oss-process=image/interlace,1",
      "categories": [
        "thrift",
        "bento",
        "beginner"
      ],
      "duration": 20,
      "price": 3.78,
      "xiaohongshuId": "61e8292d000000000102ff43"
    },
    {
      "id": "chaoshan-tese-qingtangmian",
      "type": "cookbook",
      "shortDate": "2022-01-15",
      "title": "省钱菜谱：0.3元的潮汕特色清汤面（5min）",
      "desc": "今天起床的时候看到8点54分，心里一惊！内心第一反应是完了，长这么大第一次要旷工，然后瞬间想起周六啊！！！被自己笑死！9点左右这个点起床还是凉嗖嗖的，在阳台听到楼下通知测核酸，洗漱完煮个面暖和暖和，等会排队也不太冷！",
      "keywords": "潮汕美食,清汤面",
      "date": "2022-01-15 18:43:00",
      "cover": "http://cdn.chengpeiquan.com/img/2022/01/20220116000116.jpg?x-oss-process=image/interlace,1",
      "categories": [
        "thrift",
        "staple",
        "teochew",
        "beginner"
      ],
      "duration": 5,
      "price": 0.3,
      "xiaohongshuId": "61e234e9000000000102d232",
      "cite": [
        "chaoshan-suantoulao"
      ]
    },
    {
      "id": "shacha-chaorou",
      "type": "cookbook",
      "shortDate": "2022-01-14",
      "title": "省钱菜谱：4块钱的沙茶炒肉（3min）",
      "desc": "这几天深圳又出了几例，还好南山这边还是很稳，不过也是测了好几轮核酸，希望疫情快点过去！！！今晚还是做个潮汕风味的快手菜，沙茶酱是主角哈哈哈！",
      "keywords": "潮汕美食,沙茶炒肉,沙茶酱",
      "date": "2022-01-14 07:07:00",
      "cover": "http://cdn.chengpeiquan.com/img/2022/01/20220113225102.jpg?x-oss-process=image/interlace,1",
      "categories": [
        "thrift",
        "bento",
        "teochew",
        "beginner"
      ],
      "duration": 3,
      "price": 4,
      "xiaohongshuId": "61e03a060000000001028edb"
    },
    {
      "id": "xiancai-chao-roujuan",
      "type": "cookbook",
      "shortDate": "2021-12-23",
      "title": "省钱菜单：4.7元的咸菜炒肉卷（3min）",
      "desc": "哈哈哈哈上次的韭菜花炒肉卷下面评论好几个小姐姐都推荐了咸菜炒肉卷！我也来啦！！！好吃！！！",
      "keywords": "潮州肉卷,潮州咸菜,咸菜炒肉卷",
      "date": "2021-12-23 07:07:00",
      "cover": "http://cdn.chengpeiquan.com/img/2022/01/20220108010442.jpg?x-oss-process=image/interlace,1",
      "categories": [
        "thrift",
        "bento",
        "teochew",
        "beginner"
      ],
      "duration": 3,
      "price": 4.7,
      "xiaohongshuId": "61c33f36000000000102d2e7"
    },
    {
      "id": "jiucaihua-chao-roujuan",
      "type": "cookbook",
      "shortDate": "2021-12-17",
      "title": "省钱菜谱：3.7元的韭菜花炒肉卷（3min）",
      "desc": "今晚难得在菜市场看到有肉卷卖，对于下班回家买菜这个时间点，遇到肉卷真不容易啊。肉卷是潮汕一种美食，是猪肉的一种加工品，很好吃！",
      "keywords": "潮汕美食,韭菜花炒肉卷,韭菜花,肉卷",
      "date": "2021-12-17 07:26:00",
      "cover": "http://cdn.chengpeiquan.com/img/2022/01/20220114234142.jpg?x-oss-process=image/interlace,1",
      "categories": [
        "thrift",
        "bento",
        "teochew",
        "beginner"
      ],
      "duration": 3,
      "price": 3.7,
      "xiaohongshuId": "61bb5a88000000000102ded0"
    },
    {
      "id": "yangsheng-babaozhou",
      "type": "cookbook",
      "shortDate": "2021-12-05",
      "title": "省钱菜单：天冷舒服！0.8元/碗的养生八宝粥（2h）",
      "desc": "因为打算下午爬山的时候挑战一下另外一条比较陡峭的小路，担心回来没精力做饭，刚好家里有糯米，早上出去超市顺便买了点配好的杂粮（有黑米、紫薯干、红扁豆挺多料），再搭配点花生，一起浸泡了有两个小时。",
      "keywords": "潮汕美食,八宝粥",
      "date": "2021-12-05 04:10:00",
      "cover": "http://cdn.chengpeiquan.com/img/2022/01/20220114235441.jpg?x-oss-process=image/interlace,1",
      "categories": [
        "thrift",
        "teochew",
        "orthodontic",
        "beginner"
      ],
      "duration": 120,
      "price": 0.8,
      "xiaohongshuId": "61ab5ad000000000010296c8"
    },
    {
      "id": "heijiao-kao-tudouli",
      "type": "cookbook",
      "shortDate": "2021-12-03",
      "title": "省钱菜谱：0.86元的黑椒烤土豆粒（15min）",
      "desc": "啊哈哈哈周末在猫超捡的漏，加上省钱卡啥的最后这斤土豆是 1.73 元，有 4 个，这一盘用了两个所以 0.86 元。",
      "keywords": "土豆,烤土豆,黑椒土豆",
      "date": "2021-12-03 21:13:00",
      "cover": "http://cdn.chengpeiquan.com/img/2022/01/20220201221842.jpg?x-oss-process=image/interlace,1",
      "categories": [
        "thrift",
        "bento",
        "beginner"
      ],
      "duration": 15,
      "price": 0.86,
      "xiaohongshuId": "61a9a76f000000000102d9ed"
    },
    {
      "id": "fuzhu-chao-roupian",
      "type": "cookbook",
      "shortDate": "2021-11-17",
      "title": "省钱菜谱：5块钱的炸腐竹炒肉片（5min）",
      "desc": "今晚回来在超市的豆制品档口看到摆着几盘炸腐竹，嗯哼，也是我的最爱啊！偶尔外出要在外面吃快餐的时候，选择困难症的我经常会点腐竹牛腩或者腐竹炒肉，好久没吃了呢！今晚自己做！",
      "keywords": "炸腐竹,腐竹炒肉",
      "date": "2021-11-17 08:58:00",
      "cover": "http://cdn.chengpeiquan.com/img/2022/02/20220202181323.jpg?x-oss-process=image/interlace,1",
      "categories": [
        "thrift",
        "beginner"
      ],
      "duration": 5,
      "price": 5,
      "xiaohongshuId": "619a0aa50000000001028c11"
    }
  ]
}