{
  "author": {
    "name": "chengpeiquan",
    "email": "chengpeiquan@chengpeiquan.com",
    "link": "https://chengpeiquan.com"
  },
  "type": "cookbook",
  "total": 46,
  "page": 5,
  "lastPage": 5,
  "category": "beginner",
  "data": [
    {
      "id": "tusi-jia-jiandan",
      "type": "cookbook",
      "shortDate": "2021-11-13",
      "title": "省钱菜单：2.5元的吐司夹煎蛋早餐（2min）",
      "desc": "今天的早餐，虽然没有三明治那么多料，也没有加酱料，就是单纯煎了两个鸡蛋夹进去，但相比单纯的吐司感觉不一样很多！",
      "keywords": "煎蛋,吐司",
      "date": "2021-11-13 18:43:00",
      "cover": "http://cdn.chengpeiquan.com/img/2022/02/20220202222137.jpg?x-oss-process=image/interlace,1",
      "categories": [
        "thrift",
        "bento",
        "beginner"
      ],
      "duration": 2,
      "price": 2.5,
      "xiaohongshuId": "618f26660000000001029030"
    },
    {
      "id": "cuipi-jujitui",
      "type": "cookbook",
      "shortDate": "2021-11-13",
      "title": "省钱菜谱：4.93元的脆皮焗鸡腿（20min）",
      "desc": "啊哈哈哈哈还记得我10月23号发的那个焗鸡腿配蚝油炒面的笔记吗？（你们八成不记得了…）那天我说我对电饭煲做的焗鸡腿不满意嘛，耗时太久，然后今晚还是出动我熟悉的空气炸锅，真的棒！",
      "keywords": "鸡腿,焗鸡腿,焗鸡",
      "date": "2021-11-13 07:36:00",
      "cover": "http://cdn.chengpeiquan.com/img/2022/02/20220202223006.jpg?x-oss-process=image/interlace,1",
      "categories": [
        "thrift",
        "bento",
        "beginner"
      ],
      "duration": 20,
      "price": 4.93,
      "xiaohongshuId": "618e8a0300000000210373e9"
    },
    {
      "id": "chaozhou-xiancai-chao-rousi",
      "type": "cookbook",
      "shortDate": "2021-11-11",
      "title": "省钱菜谱：3元的潮州咸菜炒肉丝（1min）",
      "desc": "今晚回来晚，依然没什么东西买，不过居然看到了“潮州咸菜”……我的家乡小菜啊啊啊！熟悉的感觉！！！六七年前我刚学下厨的时候就经常做这个，因为真的特别简单，又极具家乡风味（虽然我不知道今晚这颗潮州咸菜为什么跑去汕头生产哈哈哈哈哈哈…不过都是胶己人！！！",
      "keywords": "潮州,潮州咸菜,咸菜炒肉丝",
      "date": "2021-11-11 07:23:00",
      "cover": "http://cdn.chengpeiquan.com/img/2022/02/20220203164003.jpg?x-oss-process=image/interlace,1",
      "categories": [
        "thrift",
        "bento",
        "teochew",
        "beginner"
      ],
      "duration": 1,
      "price": 3,
      "xiaohongshuId": "618be40f000000002103d97b"
    },
    {
      "id": "chaoshan-fanqie-jidan-tang",
      "type": "cookbook",
      "shortDate": "2021-09-14",
      "title": "省钱菜谱：4.5元酸酸甜甜的潮式番茄鸡蛋汤（7min）",
      "desc": "今晚分享一个我很喜欢的番茄鸡蛋汤的做法，甜口，和平时在外面吃的番茄鸡蛋汤不太一样，对比外面常见的咸口的番茄鸡蛋，我更钟爱于酸酸甜甜的口感。",
      "keywords": "潮汕美食,番茄鸡蛋汤",
      "date": "2021-09-14 05:59:00",
      "cover": "http://cdn.chengpeiquan.com/img/2022/02/20220222132411.jpg?x-oss-process=image/interlace,1",
      "categories": [
        "thrift",
        "teochew",
        "orthodontic",
        "soup",
        "beginner"
      ],
      "duration": 7,
      "price": 4.5,
      "xiaohongshuId": "613f59520000000001027482"
    },
    {
      "id": "roumo-doufu-tang",
      "type": "cookbook",
      "shortDate": "2021-09-02",
      "title": "省钱菜谱：2元的肉末豆腐汤（10min）",
      "desc": "今晚临下班下起了雨，穿着背心裤衩还有点凉飕飕的，想想煮点汤好了，暖一暖~",
      "keywords": "潮汕美食,肉末豆腐汤",
      "date": "2021-09-02 07:42:00",
      "cover": "http://cdn.chengpeiquan.com/img/2022/02/20220215010601.jpg?x-oss-process=image/interlace,1",
      "categories": [
        "thrift",
        "teochew",
        "soup",
        "orthodontic",
        "beginner"
      ],
      "duration": 10,
      "price": 2,
      "xiaohongshuId": "612f9f75000000002103524d",
      "cite": [
        "chaoshan-suantoulao"
      ]
    },
    {
      "id": "chiyou-zhurou",
      "type": "cookbook",
      "shortDate": "2021-09-01",
      "title": "省钱菜谱：3元的豉油猪肉（2min）",
      "desc": "这道菜是我还在家初中高中的时候，我妈经常做给我吃的，那会赶着去上学，时间紧的时候，做这道菜非常快，而且也很好吃很下饭！",
      "keywords": "潮汕美食,豉油猪肉",
      "date": "2021-09-01 07:21:00",
      "cover": "http://cdn.chengpeiquan.com/img/2022/02/20220215012009.jpg?x-oss-process=image/interlace,1",
      "categories": [
        "thrift",
        "teochew",
        "bento",
        "beginner"
      ],
      "duration": 2,
      "price": 3,
      "xiaohongshuId": "612e48e500000000010255d6"
    }
  ]
}