{
  "author": {
    "name": "chengpeiquan",
    "email": "chengpeiquan@chengpeiquan.com",
    "link": "https://chengpeiquan.com"
  },
  "type": "article",
  "total": 58,
  "page": 2,
  "lastPage": 6,
  "category": "tech",
  "data": [
    {
      "id": "javascript-with-typescript-type-checking",
      "type": "article",
      "shortDate": "2022-01-19",
      "title": "让你在编写 JavaScript 的时候也能享受 TypeScript 的类型检查",
      "desc": "现在前端没有几个不写 TypeScript 了吧，但是有时候还是不得不写 JS ，比如我最近写脚手架的时候，代码是直接跑在 Node Runtime 里，没有编译环节，所以用的依然还是 JavaScript 。然而，发现离开了类型限制之后，感觉要写很多注释才能保证一个项目的完整性，就很烦…",
      "keywords": "javascript type,js type,javascript with typescript",
      "date": "2022-01-19 22:42:00",
      "cover": "http://cdn.chengpeiquan.com/img/2021/11/20220119155350.jpg?x-oss-process=image/interlace,1",
      "categories": [
        "tech"
      ]
    },
    {
      "id": "git-commit-analytics",
      "type": "article",
      "shortDate": "2022-01-03",
      "title": "git-commit-analytics 分析Git Commit记录生成工作日报",
      "desc": "一个可以分析你的 Git 仓库 commit 记录的工具。它可以帮你生成一份工作日报 / 周报，或者你需要的更长时间范围的工作报告。",
      "keywords": "git log,git commit analytics,git report,git commit report,git log report",
      "date": "2022-01-03 00:00:00",
      "cover": "http://cdn.chengpeiquan.com/img/2022/01/20220103234230.jpg?x-oss-process=image/interlace,1",
      "categories": [
        "tech"
      ]
    },
    {
      "id": "github-ci-cd",
      "type": "article",
      "shortDate": "2022-01-02",
      "title": "2022 年的第一天，把开源工作交给了 CI / CD（待完善）",
      "desc": "新年的第一天，我把 GitHub 的全自动流水线搭起来了。",
      "keywords": "github ci cd,github workflows",
      "date": "2022-01-02 07:49:00",
      "cover": "http://cdn.chengpeiquan.com/img/2022/01/20220103233657.jpg?x-oss-process=image/interlace,1",
      "categories": [
        "tech"
      ]
    },
    {
      "id": "truffle",
      "type": "article",
      "shortDate": "2021-10-12",
      "title": "Truffle初探和踩坑笔记",
      "desc": "能找到的教程都好老，记录一版踩坑笔记，后面遇到类似的问题可以快速处理。",
      "keywords": "truffle,trufflesuite,智能合约,DAPP",
      "date": "2021-10-12 06:32:20",
      "cover": "http://cdn.chengpeiquan.com/img/2021/10/20211012094643.jpg?x-oss-process=image/interlace,1",
      "categories": [
        "tech"
      ]
    },
    {
      "id": "vue3-script-setup-finalization",
      "type": "article",
      "shortDate": "2021-07-05",
      "title": "Vue3.0最新动态：script-setup定稿 部分实验性API将弃用",
      "desc": "从尤大的Twitter上获取到了最新的开发进展，期待已久的script-setup组件模式终于定稿，不再是实验性功能了，当然对比之前的实验性阶段也有一些新的变化，包括一些API被弃用，同时也有新的API补充进来代替原有的功能。",
      "keywords": "script setup,vue 3.0 script setup,vue3 script setup,script setup prop,script setup emit,defineProps,vue 3.0 defineProps,vue defineProps,vue3 defineProps,prop defineProps,setup defineProps,defineEmits,vue 3.0 defineEmits,vue defineEmits,vue3 defineEmits,emit defineEmits,setup defineEmits,useAttrs,vue 3.0 useAttrs,vue useAttrs,vue3 useAttrs,setup useAttrs,useSlots,vue 3.0 useSlots,vue useSlots,vue3 useSlots,setup useSlots",
      "date": "2021-07-05 21:15:13",
      "cover": "http://cdn.jsdelivr.net/gh/chengpeiquan/assets-storage//img/2021/07/20210705181949.jpg?x-oss-process=image/interlace,1",
      "categories": [
        "tech"
      ],
      "repo": "https://github.com/chengpeiquan/learning-vue3"
    },
    {
      "id": "search-children-in-404-page",
      "type": "article",
      "shortDate": "2021-04-11",
      "title": "Node爬取宝贝回家最新走失儿童信息 生成接口API在404页面调用",
      "desc": "很久没采购成箱的东西了，大部分情况下都是零零散散的京东散件或者天猫半日达，一个购物袋就给我装了送过来，周末刚好在天猫超市买了箱东西，开箱一看，发现箱子里面印刷上了走失儿童的信息，感动！突然想起很久没有关注到这方面的信息。",
      "keywords": "node爬虫,宝贝回家404,宝贝回家API",
      "date": "2021-04-11 23:40:00",
      "cover": "http://cdn.chengpeiquan.com/img/2021/04/20210411154503.jpg?x-oss-process=image/interlace,1",
      "categories": [
        "tech"
      ],
      "repo": "https://github.com/chengpeiquan/search-children-api-example"
    },
    {
      "id": "vue3-script-setup",
      "type": "article",
      "shortDate": "2021-03-05",
      "title": "聊一聊Vue3.0的script-setup 以及全新的props/emits专属API",
      "desc": "今天想聊一聊 Vue 3.0 的 script-setup，以及目前三个很少被提及到的 API —— defineProps 、 defineEmit 和 useContext。截止到我撰写本文，它们在 Vue 3.0 的官网都还没有相关的用法说明，因为目前还属于实验性的新特性，什么时候会并入正式轨道，时间上还不清楚，但事实上在项目里已经可以使用起来了，自己体验了一段时间，真的爽！！！",
      "keywords": "script setup,vue 3.0 script setup,vue3 script setup,script setup prop,script setup emit,defineProps,vue 3.0 defineProps,vue defineProps,vue3 defineProps,prop defineProps,setup defineProps,defineEmit,vue 3.0 defineEmit,vue defineEmit,vue3 defineEmit,emit defineEmit,setup defineEmit,useContext,vue 3.0 useContext,vue useContext,vue3 useContext,setup useContext",
      "date": "2021-03-05 08:48:13",
      "cover": "http://cdn.chengpeiquan.com/img/2021/02/20210305211036.jpg?x-oss-process=image/interlace,1",
      "categories": [
        "tech"
      ],
      "repo": "https://github.com/chengpeiquan/learning-vue3"
    },
    {
      "id": "vite-plugin-banner",
      "type": "article",
      "shortDate": "2021-02-24",
      "title": "vite-plugin-banner：让Vite在打包的时候添加版权注释",
      "desc": "基于Vite，实现一个和webpack banner plugin一样功能的版权注释插件，可以为每个 chunk 文件头部添加 banner 注释。",
      "keywords": "vite-plugin-banner,vite plugin,vite banner,vite注释,vite版权",
      "date": "2021-02-24 07:10:00",
      "cover": "http://cdn.chengpeiquan.com/img/2021/01/20210224102526.jpg?x-oss-process=image/interlace,1",
      "categories": [
        "tech"
      ],
      "repo": "https://github.com/chengpeiquan/vite-plugin-banner"
    },
    {
      "id": "rewrite-in-vite",
      "type": "article",
      "shortDate": "2021-02-19",
      "title": "重构于Vite",
      "desc": "从 2021 年元旦 Vite 发布 2.0 Beta 版就一直在关注 Vite 的动态，借着春节放假有时间，而且 Vue 3.0 和 Vite 2.0 都才大版本更新上线不久，预感后面会火，先开荒尝试一波，也当给以后工作上的业务先提前踩踩坑，对博客做了第三次重构，这一次把客户端和服务端都重新写了，由 PHP 的 LNMP 全家桶全部换成了前端侧的技术栈。",
      "keywords": "vite,vite ssr,vite ssg,vite blog",
      "date": "2021-02-19 07:54:00",
      "cover": "http://cdn.chengpeiquan.com/img/2021/02/20210219234631.jpg?x-oss-process=image/interlace,1",
      "categories": [
        "tech"
      ],
      "isHot": true,
      "repo": "https://github.com/chengpeiquan/chengpeiquan.com"
    },
    {
      "id": "refresh-token",
      "type": "article",
      "shortDate": "2021-01-30",
      "title": "基于OAuth2.0的refreshToken前端刷新方案与演示demo",
      "desc": "如今在涉及到用户登录的系统设计里面，基本上都是通过 OAuth 2.0 来设计授权，当你在调用登录接口的时候，可以看到在返回来的数据里面会有 2 个 Token：一个 accessToken 和一个 refreshToken 。为什么会有两个 Token，之间有什么区别？这其实是 OAuth 2.0 的四种方式 之一的 “凭证式”，一个是平时请求接口时的用户凭证，一个是用来刷新用户凭证的刷新凭证。",
      "keywords": "refresh token,refreshtoken,oauth 2.0 refreshtoken,前端刷新token,oauth 刷新token",
      "date": "2021-01-30 22:56:00",
      "cover": "http://cdn.chengpeiquan.com/img/2021/01/1.jpg?x-oss-process=image/interlace,1",
      "categories": [
        "tech"
      ],
      "isHot": true,
      "repo": "https://github.com/chengpeiquan/refresh-token"
    }
  ]
}