{
  "author": {
    "name": "chengpeiquan",
    "email": "chengpeiquan@chengpeiquan.com",
    "link": "https://chengpeiquan.com"
  },
  "type": "article",
  "total": 58,
  "page": 4,
  "lastPage": 6,
  "category": "tech",
  "data": [
    {
      "id": "vue-cli-config-alias-error",
      "type": "article",
      "shortDate": "2020-05-23",
      "title": "记录vue.config设置alias无法生效的一次问题排查",
      "desc": "昨晚把Node和Vue-CLI等工具都升级到了最新版，create了一个新项目，因为之前干活的时候为了方便都是拷贝之前的配置文件下来，很多东西都是基于旧版的解构，所以想针对新版本也处理一份配置，于是只拿了vue.config.js来到新项目这边。",
      "keywords": "vue cli alias,vue alias,webpack alias",
      "date": "2020-05-23 00:58:00",
      "cover": "http://cdn.chengpeiquan.com/img/2020/05/4.jpg?x-oss-process=image/interlace,1",
      "categories": [
        "tech"
      ]
    },
    {
      "id": "canvas-movie-jitter-effect",
      "type": "article",
      "shortDate": "2020-04-21",
      "title": "电影故障抖动视觉效果实现：对大话手游愚人节专题的探究",
      "desc": "前几天愚人节的时候，大话手游官网上了一个专题，里面很多图片位置都使用了一个类似电影那种画面抖动的效果（目前只剩下一个slogan了，其他都下线了），很好奇是怎么实现的，于是扒了一下页面的源码，了解了一些实现思路，整理一下以后可能会用到。",
      "keywords": "抖屏效果",
      "date": "2020-04-21 07:47:00",
      "cover": "http://cdn.chengpeiquan.com/img/2020/04/1.jpg?x-oss-process=image/interlace,1",
      "categories": [
        "tech"
      ],
      "repo": "https://github.com/chengpeiquan/canvas-movie-jitter-effect"
    },
    {
      "id": "aliyun-ecs-server-migration",
      "type": "article",
      "shortDate": "2020-02-29",
      "title": "阿里云ECS从香港迁移至国内节点实战教程",
      "desc": "之前因为贪图管理上的方便，一直把这个博客的服务器假设在香港那边，其实速度体验和稳定性啥的都挺好，不过最近打算给博客上线一个小程序版本，受于腾讯的政策要求，必须备案和接入https，考虑了一下，看了一下国内地区的ECS价格，刚好有优惠，所以决定做一个迁移。",
      "keywords": "阿里云ESC迁移,阿里云迁移,阿里云服务器迁移",
      "date": "2020-02-29 02:10:00",
      "cover": "http://cdn.chengpeiquan.com/img/2020/02/1-1.jpg?x-oss-process=image/interlace,1",
      "categories": [
        "tech"
      ]
    },
    {
      "id": "api-design",
      "type": "article",
      "shortDate": "2020-02-17",
      "title": "接口设计：从前端开发的角度谈一谈接口规范",
      "desc": "从前端的角度，以一个接口消费者的身份来谈一谈如何设计一套比较合理的接口，本文主要分为两部分：“接口的基本数据格式”和“接口的业务数据格式”。本文的目的是想减少前后端对接过程中产生的沟通问题，还有优化一些可以避免的错误，甚至于你可以不提供接口文档，前端也能快速上手你的接口。",
      "keywords": "接口设计,接口格式,接口规范",
      "date": "2020-02-17 09:01:00",
      "cover": "http://cdn.chengpeiquan.com/img/2020/02/1.jpg?x-oss-process=image/interlace,1",
      "categories": [
        "tech",
        "design"
      ],
      "isHot": true
    },
    {
      "id": "node-to-exe-by-pkg",
      "type": "article",
      "shortDate": "2019-10-02",
      "title": "把node脚本打包成exe文件 在无node环境的机器上运行",
      "desc": "有时候做的一些活动页面，会涉及到数据存储，虽然有一套公共业务接口，具备对应的数据导出，但是活动这种东西，一向没有那么中规中矩，总会有那么几次无法用公共接口来满足，遇到一些需要定制的情况，在赶工期的时候就只能是先满足数据录入需要部分，保证顺利上线，至于数据的导出，那往往是不在考虑范围的。",
      "keywords": "node打包exe,js打包exe,pkg如何使用",
      "date": "2019-10-02 18:48:00",
      "cover": "http://cdn.chengpeiquan.com/img/2019/10/1.jpg?x-oss-process=image/interlace,1",
      "categories": [
        "tech"
      ]
    },
    {
      "id": "vue-photo-preview",
      "type": "article",
      "shortDate": "2019-09-15",
      "title": "Vue插件安利：看大图插件vue-photo-preview",
      "desc": "最近一段时间，涉及到看大图功能的需求，用的比较多的一款看大图插件，PC和移动端适配良好，之前也用过一些别的插件，但还是这个方便，也比较轻量级。",
      "keywords": "vue看大图,vue photo preview,vue图片放大",
      "date": "2019-09-15 19:10:00",
      "cover": "http://cdn.chengpeiquan.com/img/2019/09/1-1.jpg?x-oss-process=image/interlace,1",
      "categories": [
        "tech"
      ]
    },
    {
      "id": "ios-time-nan",
      "type": "article",
      "shortDate": "2019-09-15",
      "title": "iOS设备显示时间为NaN的原因及处理方法",
      "desc": "其实是个存在很久的问题啦，之前在IE的年代应该也是有遇到过的，只不过后来日常涉及到时间的需求都是用时间戳比较多，加上现在各种屏蔽IE访问（我们公司的项目都是引导使用chrome/firefox），所以给忘记了！",
      "keywords": "iOS时间NaN,iOS时间显示异常",
      "date": "2019-09-15 10:04:00",
      "cover": "http://cdn.chengpeiquan.com/img/2019/09/1-2.jpg?x-oss-process=image/interlace,1",
      "categories": [
        "tech"
      ]
    },
    {
      "id": "sublime-text-install-package",
      "type": "article",
      "shortDate": "2019-07-25",
      "title": "解决Sublime Text 3无法安装package的问题",
      "desc": "今天无聊更新了一下Sublime Text 3的最新版，结果坑爹了，无法使用Ctrl+Shift+P选择install安装各种插件，会报错 Package Control There are no packages available for installation Please see https://packagecontrol.io/docs/troubleshooting for help",
      "keywords": "sublime text 3 packages",
      "date": "2019-07-25 07:39:00",
      "cover": "http://cdn.chengpeiquan.com/img/2019/07/1-3.jpg?x-oss-process=image/interlace,1",
      "categories": [
        "tech"
      ]
    },
    {
      "id": "node-web-crawler",
      "type": "article",
      "shortDate": "2019-07-23",
      "title": "网站改版迁移经验记录：基于node的爬虫编写",
      "desc": "以往的网站迁移服务器，数据方面的东西都是由服务端直接处理，不过这一次的需求比较特殊，就比如门户首页本来抓的是门户的资讯，但改版后是抓微博的动态，原来的资讯基本舍弃，只保留一部分专题和文章页，类似酱紫的一个改版迁移emmm，所以经过商讨，需要由前端来将需要保存的旧页面从客户端保存，再发布上传到新服务器上。",
      "keywords": "node爬虫,node crawler",
      "date": "2019-07-23 01:28:00",
      "cover": "http://cdn.chengpeiquan.com/img/2019/07/1.jpg?x-oss-process=image/interlace,1",
      "categories": [
        "tech"
      ]
    },
    {
      "id": "vue-cli-webpack-banner-plugin",
      "type": "article",
      "shortDate": "2019-04-22",
      "title": "基于Vue-CLI 3.0 让WebPack在打包的时候添加版权注释",
      "desc": "其实以前就知道说有这么个东西可以在打包后添加一个版权注释，但是一直没有去用。不过最近觉得最好还是配置一下，版权不版权倒是其次，毕竟打包后都是混淆的东西，要抄也不好抄啊不是，主要还是给一些有需要的人知道说这个东西是谁写的，有什么问题可以咨询谁，或者说以后有什么类似的需求，是不是可以再次找谁做。",
      "keywords": "WebPack 打包注释,WebPack banner,WebPack 版权",
      "date": "2019-04-22 07:03:00",
      "cover": "http://cdn.chengpeiquan.com/img/2019/04/1-1.jpg?x-oss-process=image/interlace,1",
      "categories": [
        "tech"
      ]
    }
  ]
}