{
  "author": {
    "name": "chengpeiquan",
    "email": "chengpeiquan@chengpeiquan.com",
    "link": "https://chengpeiquan.com"
  },
  "type": "cookbook",
  "total": 47,
  "page": 2,
  "lastPage": 5,
  "category": "staple",
  "data": [
    {
      "id": "chaozhou-sunjiao",
      "type": "cookbook",
      "shortDate": "2022-06-12",
      "title": "在广州新家做的第一顿晚餐：潮州笋饺",
      "desc": "回广州刚好半个月了，回来的第二天就被抓去新公司上班，所以收拾新家收拾了一周，上周端午假期也是一直在收拾，这个周末才开始正式在新家做饭了！！！",
      "keywords": "潮州小吃,潮汕小吃,潮州饺子,潮汕饺子,潮州笋饺,潮汕笋饺",
      "date": "2022-06-12 09:39:00",
      "cover": "http://cdn.chengpeiquan.com/img/2022/06/20220612015709.jpg?x-oss-process=image/interlace,1",
      "categories": [
        "bento",
        "staple",
        "teochew"
      ],
      "duration": 60,
      "price": 50,
      "xiaohongshuId": "62a4d35f00000000210378fa"
    },
    {
      "id": "honghuban-cuipi-safen-zhajitui",
      "type": "cookbook",
      "shortDate": "2022-04-26",
      "title": "省钱菜谱：红虎斑脆皮撒粉炸鸡腿（25min）",
      "desc": "中午吃炸鸡腿哈哈哈哈哈，起这个名字纯粹是因为，小朋友很喜欢在我吃饭的时候要我抱抱，他是一只红虎斑缅因猫（图9），刚好发现他的颜色和炸鸡腿的颜色一毛一样，所以用猫的品种名字给鸡腿起名了笑死…",
      "keywords": "红虎斑脆皮撒粉炸鸡腿,脆皮炸鸡,炸鸡腿",
      "date": "2022-04-26 22:46:00",
      "cover": "http://cdn.chengpeiquan.com/img/2022/04/20220426145918.jpg?x-oss-process=image/interlace,1",
      "categories": [
        "thrift",
        "staple"
      ],
      "duration": 25,
      "price": 8,
      "xiaohongshuId": null
    },
    {
      "id": "wujitangmian",
      "type": "cookbook",
      "shortDate": "2022-04-17",
      "title": "乌鸡汤面（1.5h）",
      "desc": "想着明天再出去爬山，今晚继续放纵一下哈哈哈哈，煲个乌鸡汤来吃吃！我记得过年的时候我朋友问我，为什么我的鸡汤那么清澈，当时也简单跟她分享过，今晚再煲汤我就在这里记录下过程。",
      "keywords": "红枣薏米乌鸡汤,鸡汤,乌鸡汤,薏米鸡汤,鸡汤面",
      "date": "2022-04-17 07:40:00",
      "cover": "http://cdn.chengpeiquan.com/img/2022/04/20220416235525.jpg?x-oss-process=image/interlace,1",
      "categories": [
        "staple"
      ],
      "duration": 90,
      "price": 0,
      "xiaohongshuId": "625ae38700000000210368c7",
      "cite": [
        "chashugu-hongzao-wujitang",
        "hongzao-yimi-wujitang"
      ]
    },
    {
      "id": "zhacai-roupian-tangmifen",
      "type": "cookbook",
      "shortDate": "2022-04-06",
      "title": "省钱菜谱：2.5元的榨菜肉片汤米粉（5min）",
      "desc": "今晚煮个米粉吃，简简单单的，大学的时候经常跟舍友去校门口的沙县吃榨菜肉丝粉，不过都是汤河粉，今晚用潮汕特色的细米粉来做也很不错！",
      "keywords": "潮州小吃,潮汕小吃,潮州汤粉,潮汕汤粉,榨菜肉片汤米粉,潮汕汤米粉",
      "date": "2022-04-06 04:22:00",
      "cover": "http://cdn.chengpeiquan.com/img/2022/04/20220405214237.jpg?x-oss-process=image/interlace,1",
      "categories": [
        "thrift",
        "staple",
        "teochew",
        "beginner"
      ],
      "duration": 5,
      "price": 2.5,
      "xiaohongshuId": "624c349c0000000021038b42"
    },
    {
      "id": "xinaoerliang-kaorou-juanbing",
      "type": "cookbook",
      "shortDate": "2022-04-06",
      "title": "菜单分享：新奥尔良烤肉卷饼（20min）",
      "desc": "今天天气好好，中午又搞了一波烤肉卷饼，这次换成了新奥尔良烤鸡腿肉。",
      "keywords": "新奥尔良烤肉卷饼,卷饼,健身卷饼",
      "date": "2022-04-06 00:19:00",
      "cover": "http://cdn.chengpeiquan.com/img/2022/04/20220405215403.jpg?x-oss-process=image/interlace,1",
      "categories": [
        "thrift",
        "staple",
        "beginner"
      ],
      "duration": 20,
      "price": 20,
      "xiaohongshuId": "624bfb9c000000000102fdb0"
    },
    {
      "id": "chaoshan-shacha-jielan-chaomian",
      "type": "cookbook",
      "shortDate": "2022-03-28",
      "title": "省钱菜谱：3.4元的潮汕沙茶芥兰炒面（10min）",
      "desc": "中午做了个芥兰炒面，大潮州的口味，面条也是用的潮州特色的 “面薄”，做炒面也特别好吃！",
      "keywords": "潮汕小吃,潮州小吃,潮汕沙茶芥兰炒面,芥兰炒面,沙茶炒面",
      "date": "2022-03-28 00:25:00",
      "cover": "http://cdn.chengpeiquan.com/img/2022/03/20220327163501.jpg?x-oss-process=image/interlace,1",
      "categories": [
        "thrift",
        "teochew",
        "bento",
        "staple"
      ],
      "duration": 10,
      "price": 3.4,
      "xiaohongshuId": "62401f7a0000000001025ec6"
    },
    {
      "id": "zhuhou-kaorou-pei-qingguasi-juanbing",
      "type": "cookbook",
      "shortDate": "2022-03-21",
      "title": "菜谱：柱侯烤肉配青瓜丝卷饼（15min）",
      "desc": "封村之前逛超市的时候看到有卖卷饼，当时买了两袋想试一下，然后拖到了现在才试哈哈哈，还蛮不错的！这东西还蛮好玩的，应该怎么搭配都好吃，这次是刚好做个烤肉消耗掉家里的柱侯酱，你也可以用奥尔良腌料啊沙茶酱啊之类的去做烤肉。",
      "keywords": "柱侯烤肉配青瓜丝卷饼,卷饼,健身卷饼",
      "date": "2022-03-21 00:02:00",
      "cover": "http://cdn.chengpeiquan.com/img/2022/03/20220320160858.jpg?x-oss-process=image/interlace,1",
      "categories": [
        "thrift",
        "staple",
        "bento",
        "beginner"
      ],
      "duration": 15,
      "price": 20,
      "xiaohongshuId": "6236df9c000000000102b95f"
    },
    {
      "id": "xianggu-tudou-zhurou-jianjiao",
      "type": "cookbook",
      "shortDate": "2022-03-17",
      "title": "省钱菜单：6块钱一大碗的香菇土豆猪肉煎饺（10min）",
      "desc": "哈哈哈哈昨晚的饺子，留了一份21个，中午拿出来煎！好香好吃！",
      "keywords": "潮州小吃,潮汕小吃,潮州饺子,香菇土豆猪肉饺子,香菇土豆猪肉煎饺",
      "date": "2022-03-17 21:30:00",
      "cover": "http://cdn.chengpeiquan.com/img/2022/02/20220317140121.jpg?x-oss-process=image/interlace,1",
      "categories": [
        "thrift",
        "staple",
        "teochew"
      ],
      "duration": 10,
      "price": 6,
      "xiaohongshuId": "6232c760000000002103b82f",
      "cite": [
        "xianggu-tudou-zhurou-jiaozi"
      ]
    },
    {
      "id": "xianggu-tudou-zhurou-jiaozi",
      "type": "cookbook",
      "shortDate": "2022-03-17",
      "title": "省钱菜谱：0.29元/个的香菇土豆猪肉饺子（1h）",
      "desc": "做完卤肉实在没忍住哈哈哈哈哈哈哈哈哈哈哈哈哈哈哈哈哈哈哈，切了一块卤肉，吃个宵夜！！！这个点最好的搭配就是潮汕粿汁了！！！",
      "keywords": "潮州小吃,潮汕小吃,潮州饺子,香菇土豆猪肉饺子",
      "date": "2022-03-17 07:33:00",
      "cover": "http://cdn.chengpeiquan.com/img/2022/02/20220316234044.jpg?x-oss-process=image/interlace,1",
      "categories": [
        "thrift",
        "staple",
        "teochew"
      ],
      "duration": 60,
      "price": 0.29,
      "xiaohongshuId": "623203580000000001028725",
      "cite": [
        "xianggu-tudou-zhurou-jianjiao"
      ]
    },
    {
      "id": "zhuhou-roujiang-laomian",
      "type": "cookbook",
      "shortDate": "2022-03-15",
      "title": "省钱菜谱：2元的柱侯肉酱捞面（10min）",
      "desc": "居家办公的第一天，今天一大早楼下其实都开着店，不过很快就听到了巡逻车在通知关门，只允许饭店和超市开着，否则要贴封条，防疫工作真是不容易！希望过完这周，深圳能恢复原来的样子！中午也没搞太复杂的东西，前几天凑单买了瓶柱侯酱，刚好拿来做个面条！",
      "keywords": "柱侯肉酱捞面,柱侯酱",
      "date": "2022-03-15 05:36:00",
      "cover": "http://cdn.chengpeiquan.com/img/2022/02/20220314214929.jpg?x-oss-process=image/interlace,1",
      "categories": [
        "thrift",
        "staple"
      ],
      "duration": 10,
      "price": 2,
      "xiaohongshuId": "622f44f10000000001029a50"
    }
  ]
}