{
  "author": {
    "name": "chengpeiquan",
    "email": "chengpeiquan@chengpeiquan.com",
    "link": "https://chengpeiquan.com"
  },
  "type": "cookbook",
  "total": 47,
  "page": 3,
  "lastPage": 5,
  "category": "staple",
  "data": [
    {
      "id": "chaoshan-suancai-chao-niurou",
      "type": "cookbook",
      "shortDate": "2022-02-22",
      "title": "潮汕经典家常菜之酸菜炒牛肉（2min）",
      "desc": "这是昨天中午的午餐哈哈哈，忙了一天多现在才有时间来整理（昨晚做蛋糕去了…），酸菜炒牛肉是潮汕的一道经典菜，潮汕特色的酸菜，搭配潮汕特色的调味料，很好吃！！！",
      "keywords": "潮州美食,潮汕美食,酸菜炒牛肉",
      "date": "2022-02-22 07:59:00",
      "cover": "http://cdn.chengpeiquan.com/img/2022/02/20220222002124.jpg?x-oss-process=image/interlace,1",
      "categories": [
        "staple",
        "teochew"
      ],
      "duration": 2,
      "price": 20,
      "xiaohongshuId": "6213b6c800000000010255f3"
    },
    {
      "id": "chaoshan-shacha-banmian",
      "type": "cookbook",
      "shortDate": "2022-02-15",
      "title": "省钱菜谱：2块钱的潮汕沙茶拌面（10min）",
      "desc": "今天 2 月 14 日，是……一个普普通通的周一哈哈哈哈哈哈哈哈哈哈…………前几天我妈给我寄橄榄的时候问我还想吃啥，我说寄点“面薄”哩，然后我终于在深圳吃到了潮汕的 “面薄”，果然还是家里的面条好吃！！！",
      "keywords": "潮汕美食,沙茶拌面,潮式拌面",
      "date": "2022-02-15 06:14:00",
      "cover": "http://cdn.chengpeiquan.com/img/2022/02/20220214222145.jpg?x-oss-process=image/interlace,1",
      "categories": [
        "thrift",
        "teochew",
        "staple",
        "beginner"
      ],
      "duration": 10,
      "price": 2,
      "xiaohongshuId": "620a63e00000000001027237",
      "cite": [
        "chaoshan-suantoulao"
      ]
    },
    {
      "id": "chaozhou-niurouwan-pin-niujinwan-guotiaotang",
      "type": "cookbook",
      "shortDate": "2022-02-07",
      "title": "菜单分享：潮州牛肉丸拼牛筋丸粿条汤",
      "desc": "啊哈哈哈分享个菜单，牛肉丸和牛筋丸是年前买的，过年过节哪怕没回家，牛肉丸一煮，家乡的感觉就出来了！！！",
      "keywords": "牛筋丸,牛肉丸,粿条汤,潮汕汤粉",
      "date": "2022-02-07 13:20:00",
      "cover": "http://cdn.chengpeiquan.com/img/2022/02/20220214005726.jpg?x-oss-process=image/interlace,1",
      "categories": [
        "staple",
        "teochew"
      ],
      "duration": 10,
      "price": 24,
      "xiaohongshuId": "62003b92000000000102a6b2",
      "cite": [
        "chaoshan-suantoulao"
      ]
    },
    {
      "id": "chaozhou-yuguo-yusigao",
      "type": "cookbook",
      "shortDate": "2022-01-18",
      "title": "省钱菜谱：3块钱一餐的芋粿（60min）",
      "desc": "我来了！昨晚的电饭煲做的芋粿，留了一半今晚煎，还是好吃哈哈哈哈！算了一下成本，分了两顿吃完，一顿 3 块钱，大约有 5 两重，性价比还蛮高的！芋粿是潮汕的小吃，我不确定和芋丝糕是不是完全一样哈哈哈，老家的粿是用的粘米粉，所以我也是用这个来做。",
      "keywords": "芋粿,芋丝糕,潮州小吃,潮汕小吃",
      "date": "2022-01-18 07:04:00",
      "cover": "http://cdn.chengpeiquan.com/img/2022/01/20220120003111.jpg?x-oss-process=image/interlace,1",
      "categories": [
        "thrift",
        "staple",
        "teochew"
      ],
      "duration": 60,
      "price": 3,
      "xiaohongshuId": "61e5856b0000000021035146"
    },
    {
      "id": "yurou-yuntun",
      "type": "cookbook",
      "shortDate": "2022-01-16",
      "title": "省钱菜谱：3.15元一碗的鱼肉云吞（25min）",
      "desc": "我的第一篇菜谱笔记就是关于云吞的，当时是包的纯肉，最近巴沙鱼老是有打折，今晚包个鱼肉云吞吃吃。今晚的食材一共 11 块钱，包了 51 个云吞，平均一个云吞 2 毛 1，按照 15 个一碗刚好吃三碗，一碗就差不多 3.15 元。",
      "keywords": "云吞,云吞包法,云吞怎么包,鱼肉云吞,巴沙鱼云吞,龙利鱼云吞",
      "date": "2022-01-16 07:14:00",
      "cover": "http://cdn.chengpeiquan.com/img/2022/01/20220115235323.jpg?x-oss-process=image/interlace,1",
      "categories": [
        "thrift",
        "staple",
        "teochew"
      ],
      "duration": 25,
      "price": 3.15,
      "xiaohongshuId": "61e2e4db000000000102e999",
      "cite": [
        "chaoshan-suantoulao"
      ]
    },
    {
      "id": "chaoshan-tese-qingtangmian",
      "type": "cookbook",
      "shortDate": "2022-01-15",
      "title": "省钱菜谱：0.3元的潮汕特色清汤面（5min）",
      "desc": "今天起床的时候看到8点54分，心里一惊！内心第一反应是完了，长这么大第一次要旷工，然后瞬间想起周六啊！！！被自己笑死！9点左右这个点起床还是凉嗖嗖的，在阳台听到楼下通知测核酸，洗漱完煮个面暖和暖和，等会排队也不太冷！",
      "keywords": "潮汕美食,清汤面",
      "date": "2022-01-15 18:43:00",
      "cover": "http://cdn.chengpeiquan.com/img/2022/01/20220116000116.jpg?x-oss-process=image/interlace,1",
      "categories": [
        "thrift",
        "staple",
        "teochew",
        "beginner"
      ],
      "duration": 5,
      "price": 0.3,
      "xiaohongshuId": "61e234e9000000000102d232",
      "cite": [
        "chaoshan-suantoulao"
      ]
    },
    {
      "id": "xianggu-zhurou-yumi-jianjiao",
      "type": "cookbook",
      "shortDate": "2021-12-21",
      "title": "省钱菜单：香脆又香甜！香菇猪肉玉米煎饺太好吃了！",
      "desc": "耶耶耶！昨晚的香菇玉米猪肉饺子煎出来太好吃了！！！虽然玉米饺子贵一点，不过这一大碗也就11块钱，自己包饺子划算太多了！",
      "keywords": "香菇猪肉玉米煎饺,玉米饺子,玉米煎饺",
      "date": "2021-12-21 04:41:00",
      "cover": "http://cdn.chengpeiquan.com/img/2022/01/20220108014330.jpg?x-oss-process=image/interlace,1",
      "categories": [
        "thrift",
        "bento",
        "staple",
        "teochew"
      ],
      "duration": 3,
      "price": 4.7,
      "xiaohongshuId": "61c079f70000000001028f90",
      "cite": [
        "xianggu-zhurou-yumi-zhengjiao"
      ]
    },
    {
      "id": "xianggu-zhurou-yumi-zhengjiao",
      "type": "cookbook",
      "shortDate": "2021-12-20",
      "title": "省钱菜谱：0.57元/只香菇猪肉玉米饺子（30min）",
      "desc": "今天是包香菇玉米猪肉饺子，做法也比较有我的个人特色，首先是纯玉米馅，没有混入胡萝卜等别的蔬菜，另外一个是我没有加五香粉之类的香料，只用了潮汕特色的调味品来调馅（鱼露搭配虾皮），简单的调味但是很鲜美，能够保持甜玉米的鲜甜口感！",
      "keywords": "香菇猪肉玉米蒸饺,玉米饺子,玉米蒸饺",
      "date": "2021-12-20 05:06:00",
      "cover": "http://cdn.chengpeiquan.com/img/2022/01/20220108020352.jpg?x-oss-process=image/interlace,1",
      "categories": [
        "thrift",
        "bento",
        "staple",
        "teochew"
      ],
      "duration": 30,
      "price": 0.57,
      "xiaohongshuId": "61bf2e4e000000002103470d",
      "cite": [
        "xianggu-zhurou-yumi-jianjiao"
      ]
    },
    {
      "id": "kongqizhaguo-jiucai-jianjiao",
      "type": "cookbook",
      "shortDate": "2021-12-14",
      "title": "空气韭菜煎饺！空气炸锅的发明者真是现代爱迪生！",
      "desc": "昨天下午做了卤水，但是为了更入味所以昨晚没有立即吃，继续先卤着，然后昨晚又另外包了韭菜饺子，留了一盒今天晚上回来做煎饺。",
      "keywords": "潮州,潮州韭菜饺子,煎饺",
      "date": "2021-12-14 05:07:00",
      "cover": "http://cdn.chengpeiquan.com/img/2022/01/20220131234851.jpg?x-oss-process=image/interlace,1",
      "categories": [
        "thrift",
        "bento",
        "staple",
        "teochew"
      ],
      "duration": 0,
      "price": 0,
      "xiaohongshuId": "61b7459b000000002103c463"
    },
    {
      "id": "shuizhudan",
      "type": "cookbook",
      "shortDate": "2021-12-13",
      "title": "卤蛋前置教程：剥一个光滑漂亮的水煮蛋",
      "desc": "上次发了个潮汕卤水的做法，里面有包含了卤蛋，然后就有小姐姐问我怎么煮蛋，说煮出来的蛋不好剥，坑坑洼洼的，没法跟我的蛋一样光滑，所以这个笔记来说一下我是怎么煮蛋的。",
      "keywords": "水煮蛋,鸡蛋,白煮蛋,卤蛋",
      "date": "2021-12-13 01:32:00",
      "cover": "http://cdn.chengpeiquan.com/img/2022/01/20220201002259.jpg?x-oss-process=image/interlace,1",
      "categories": [
        "staple",
        "teochew"
      ],
      "duration": 0,
      "price": 0,
      "xiaohongshuId": "61b5c1cb00000000210399e6",
      "cite": [
        "chaoshan-lushui-wuhuarou"
      ]
    }
  ]
}