{
  "author": {
    "name": "chengpeiquan",
    "email": "chengpeiquan@chengpeiquan.com",
    "link": "https://chengpeiquan.com"
  },
  "type": "cookbook",
  "total": 47,
  "page": 4,
  "lastPage": 5,
  "category": "staple",
  "data": [
    {
      "id": "chaoshan-guozhi",
      "type": "cookbook",
      "shortDate": "2021-11-28",
      "title": "省钱菜单：丰俭由人的潮汕粿汁（5min）",
      "desc": "做完卤肉实在没忍住哈哈哈哈哈哈哈哈哈哈哈哈哈哈哈哈哈哈哈，切了一块卤肉，吃个宵夜！！！这个点最好的搭配就是潮汕粿汁了！！！",
      "keywords": "潮州小吃,潮汕小吃,潮州粿汁,潮汕粿汁",
      "date": "2021-11-28 08:11:00",
      "cover": "http://cdn.chengpeiquan.com/img/2022/01/20220201225040.jpg?x-oss-process=image/interlace,1",
      "categories": [
        "thrift",
        "staple",
        "teochew"
      ],
      "duration": 5,
      "price": 1.8,
      "xiaohongshuId": "61a258a200000000210380a9",
      "cite": [
        "chaoshan-congzhulao"
      ]
    },
    {
      "id": "chaozhou-zhafanshu",
      "type": "cookbook",
      "shortDate": "2021-11-22",
      "title": "省钱菜谱：2个银的潮州浮分割（嗯！炸番薯）",
      "desc": "今天在家有点馋，搞个潮汕小吃“浮分割”做个下午茶，搭配功夫茶真不错！其实就是“炸番薯”哈哈哈哈，在我家那边都叫它“浮分割”，潮州市区把番薯叫“分割”（读音上，当年数学课教到黄金分割的时候全班都笑炸了哈哈哈哈哈哈哈哈哈哈哈哈哈），当然别的地方不一定这么叫哈哈哈哈，标题的2个银就是两块钱",
      "keywords": "潮州小吃,潮汕小吃,扎番薯,炸地瓜",
      "date": "2021-11-22 01:00:00",
      "cover": "http://cdn.chengpeiquan.com/img/2022/02/20220202154605.jpg?x-oss-process=image/interlace,1",
      "categories": [
        "thrift",
        "teochew",
        "staple"
      ],
      "duration": 15,
      "price": 2,
      "xiaohongshuId": "619a0aa50000000001028c11"
    },
    {
      "id": "heijiaoroumo-zhuchangfen",
      "type": "cookbook",
      "shortDate": "2021-11-11",
      "title": "省钱菜谱：3.7元的黑椒肉末猪肠粉（5min）",
      "desc": "昨晚加班回去的比较晚，买不到什么菜了，看到还有猪肠粉就买了点，换个料汁来做感觉也不错！",
      "keywords": "猪肠粉,黑椒肉末猪肠粉",
      "date": "2021-11-11 07:23:00",
      "cover": "http://cdn.chengpeiquan.com/img/2022/02/20220203165751.jpg?x-oss-process=image/interlace,1",
      "categories": [
        "thrift",
        "bento",
        "staple"
      ],
      "duration": 5,
      "price": 3.7,
      "xiaohongshuId": "618b528a0000000021038407"
    },
    {
      "id": "qingguasi-huotui-chaomian",
      "type": "cookbook",
      "shortDate": "2021-11-06",
      "title": "省钱菜单：4.7元的青瓜丝火腿炒面（10min）",
      "desc": "爽脆可口的青瓜丝，搭配煎过的火腿丝，真好吃！！！",
      "keywords": "青瓜丝火腿炒面,炒面,火腿炒面",
      "date": "2021-11-06 13:44:00",
      "cover": "http://cdn.chengpeiquan.com/img/2022/02/20220203174848.jpg?x-oss-process=image/interlace,1",
      "categories": [
        "thrift",
        "bento",
        "staple"
      ],
      "duration": 10,
      "price": 4.7,
      "xiaohongshuId": "6185a5c2000000002103744b"
    },
    {
      "id": "chaozhou-chao-doufan",
      "type": "cookbook",
      "shortDate": "2021-11-02",
      "title": "省钱菜谱：3.4元的潮州炒豆饭（10min）",
      "desc": "炒豆饭，也是我家比较常做的炒饭之一，也是以前还在潮州家里的时候我妈经常做给我吃的炒饭品类的其中一种。",
      "keywords": "潮州炒饭,豆角炒饭,潮州炒豆饭",
      "date": "2021-11-02 05:40:00",
      "cover": "http://cdn.chengpeiquan.com/img/2022/02/20220203180355.jpg?x-oss-process=image/interlace,1",
      "categories": [
        "thrift",
        "bento",
        "staple",
        "teochew"
      ],
      "duration": 10,
      "price": 3.4,
      "xiaohongshuId": "617fee5b0000000021038882"
    },
    {
      "id": "baicaisi-haoyou-chaomian",
      "type": "cookbook",
      "shortDate": "2021-10-29",
      "title": "省钱菜谱：3.6元的包菜丝蚝油炒面（10min）",
      "desc": "我最近菜谱发的比较少是因为工作忙了，项目工期最近有点紧，天天加班，11月估计大部分时间也是这样，老板给的工期是11月底要出版本，所以，最近没有太多时间好好做饭，我这几天都是做一些豉油猪肉、榨菜炒肉这样的超快速出餐的菜品…哈哈哈哈不过答应过要发的不会忘！前几天说要炒面，今天来了！",
      "keywords": "包菜丝蚝油炒面,包菜炒面",
      "date": "2021-10-29 08:22:00",
      "cover": "http://cdn.chengpeiquan.com/img/2022/02/20220203223718.jpg?x-oss-process=image/interlace,1",
      "categories": [
        "thrift",
        "teochew",
        "bento",
        "staple"
      ],
      "duration": 10,
      "price": 3.6,
      "xiaohongshuId": "617ace5c000000002103e46e"
    },
    {
      "id": "chashao-tangmifen",
      "type": "cookbook",
      "shortDate": "2021-10-25",
      "title": "省钱菜谱：4.5元的叉烧汤米粉（15min）",
      "desc": "昨晚买回来的瘦肉特别的呈圆柱体……我感觉如果不拿来干点啥，直接切肉片似乎有点对不起它，想想好久没吃叉烧了，哈哈哈哈所以我用叉烧酱把它腌制了！！！",
      "keywords": "包菜丝蚝油炒面,包菜炒面",
      "date": "2021-10-25 03:04:00",
      "cover": "http://cdn.chengpeiquan.com/img/2022/02/20220203230110.jpg?x-oss-process=image/interlace,1",
      "categories": [
        "thrift",
        "teochew",
        "staple"
      ],
      "duration": 15,
      "price": 4.5,
      "xiaohongshuId": "61753da9000000000102d6ea",
      "cite": [
        "chaoshan-suantoulao"
      ]
    },
    {
      "id": "jujitui-pei-haoyou-chaomian",
      "type": "cookbook",
      "shortDate": "2021-10-24",
      "title": "省钱菜单：6.3元的焗鸡腿配蚝油炒面（40min）",
      "desc": "因为鸡腿是电饭煲焗的，开的柴火饭模式本来20min不到就完事，结果效果不好看，又焗了第二次才出来这效果，[doge][doge][doge]慢死了！不想玩！等我重新琢磨一下做法。",
      "keywords": "焗鸡腿配蚝油炒面,蚝油炒面,焗鸡腿",
      "date": "2021-10-24 07:56:00",
      "cover": "http://cdn.chengpeiquan.com/img/2022/02/20220203231409.jpg?x-oss-process=image/interlace,1",
      "categories": [
        "thrift",
        "bento",
        "staple"
      ],
      "duration": 40,
      "price": 6.3,
      "xiaohongshuId": "617430aa0000000001026a23",
      "cite": [
        "cuipi-jujitui",
        "baicaisi-haoyou-chaomian"
      ]
    },
    {
      "id": "chaozhou-yutou-chaoxiangfan",
      "type": "cookbook",
      "shortDate": "2021-10-17",
      "title": "省钱菜谱：3元的潮州芋头炒香饭（10min）",
      "desc": "中午炒了个潮州香饭，我家那边的炒饭也很好吃！之前还在家的时候，我妈时不时会问我“阿弟，日逗食攀饭啊迈？”（就问我中午吃不吃香饭哈哈哈哈…香饭其实没有唯一的做法，你可以用“芋头、土豆、豆粒、菜脯、虾仁、鱿鱼”等等，反正只要能拿来炒饭的食材，都可以，我今天用的是我家比较常用的一个做法，用的芋头。",
      "keywords": "潮州香饭,潮州芋饭,潮州芋头炒香饭,潮汕炒饭,潮州炒饭",
      "date": "2021-10-17 01:04:00",
      "cover": "http://cdn.chengpeiquan.com/img/2022/02/20220204010243.jpg?x-oss-process=image/interlace,1",
      "categories": [
        "thrift",
        "bento",
        "teochew",
        "staple"
      ],
      "duration": 10,
      "price": 3,
      "xiaohongshuId": "616a959b000000000102ee5d"
    },
    {
      "id": "xianmei-roujiang-zhuchangfen",
      "type": "cookbook",
      "shortDate": "2021-10-14",
      "title": "省钱菜谱：3.3元的鲜美肉酱猪肠粉（5min）",
      "desc": "今晚看到档口还有最后一份猪肠粉，又馋小吃了，哈哈哈买了做了个肉酱猪肠粉当晚餐！7点多就吃完晚餐了，因为朋友准备领养两只小奶猫，在给她分享一些养猫的事情，所以耽搁到现在才来发哈哈哈哈！你们都睡了吧，我也准备发完就睡觉！",
      "keywords": "鲜美肉酱猪肠粉,猪肠粉,肉酱猪肠粉",
      "date": "2021-10-14 08:11:00",
      "cover": "http://cdn.chengpeiquan.com/img/2022/02/20220204170111.jpg?x-oss-process=image/interlace,1",
      "categories": [
        "thrift",
        "bento",
        "staple",
        "orthodontic"
      ],
      "duration": 5,
      "price": 3.3,
      "xiaohongshuId": "616466ae000000000102915f",
      "cite": [
        "roujiang-shuidoufu"
      ]
    }
  ]
}