{
  "author": {
    "name": "chengpeiquan",
    "email": "chengpeiquan@chengpeiquan.com",
    "link": "https://chengpeiquan.com"
  },
  "type": "cookbook",
  "total": 47,
  "page": 5,
  "lastPage": 5,
  "category": "staple",
  "data": [
    {
      "id": "roumo-yusi-jiaozi",
      "type": "cookbook",
      "shortDate": "2021-10-09",
      "title": "省钱菜谱：0.3元/只的肉末芋丝饺子（60min）",
      "desc": "是我前天晚餐和昨天的午餐和晚餐，蒸饺和煎饺都好吃哈哈哈哈！想做这个是因为那天买的芋头太大个了，剩下的感觉要吃好久，干脆包成饺子！也是潮汕这边比较常见的小吃用料，这个做法是沿袭了我家那边的芋粿、芋丝球（芋丸）、芋丝糕等小吃的做法，做了一点调整。",
      "keywords": "肉末芋丝饺,芋头饺子,芋头煎饺,芋头蒸饺",
      "date": "2021-10-09 21:32:00",
      "cover": "http://cdn.chengpeiquan.com/img/2022/02/20220204181115.jpg?x-oss-process=image/interlace,1",
      "categories": [
        "thrift",
        "teochew",
        "bento",
        "staple"
      ],
      "duration": 60,
      "price": 0.3,
      "xiaohongshuId": "61612968000000002103cd83"
    },
    {
      "id": "chaozhou-guotiaojuan",
      "type": "cookbook",
      "shortDate": "2021-10-06",
      "title": "省钱菜谱：尚！3元一盘的潮州粿条卷（15min）",
      "desc": "哈哈哈前几天做菜脯炒粿条的时候说改天弄一下粿条卷，好久没吃了！也是潮州街头很常见的小吃！不过老家都是用整张的粿条来做（平时买的都是切好的），但是在菜市场问了，我这边买不到，所以今天是用猪肠粉来代替了，你也可以用陈村粉来代替，只要是像这种整张的皮就可以，出门在外，没办法，有些食材确实得这样取巧代替一下。",
      "keywords": "潮州小吃,潮州粿条卷,潮汕小吃",
      "date": "2021-10-06 23:42:00",
      "cover": "http://cdn.chengpeiquan.com/img/2022/02/20220204221005.jpg?x-oss-process=image/interlace,1",
      "categories": [
        "thrift",
        "teochew",
        "bento",
        "staple"
      ],
      "duration": 15,
      "price": 3,
      "xiaohongshuId": "615d5350000000002103db4d",
      "cite": [
        "chaoshan-congzhulao",
        "chaoshan-suantoulao"
      ]
    },
    {
      "id": "congzhulao-zhushou-lumian",
      "type": "cookbook",
      "shortDate": "2021-10-04",
      "title": "省钱菜谱：10元的潮汕葱珠朥猪手卤面（10min）",
      "desc": "昨晚说今天中午要吃卤面，哈哈哈搭配我老家那边的另外一种特色调味品 —— 葱珠油，我们那也叫葱珠朥，可好吃了！",
      "keywords": "葱珠油,葱珠朥,猪手面,卤面",
      "date": "2021-10-04 22:28:00",
      "cover": "http://cdn.chengpeiquan.com/img/2022/02/20220225132323.jpg?x-oss-process=image/interlace,1",
      "categories": [
        "thrift",
        "teochew",
        "bento",
        "staple"
      ],
      "duration": 10,
      "price": 10,
      "xiaohongshuId": "615a9f26000000000102b3e4",
      "cite": [
        "chaoshan-congzhulao",
        "chaoshan-luzhushou"
      ]
    },
    {
      "id": "caifu-chao-guotiao",
      "type": "cookbook",
      "shortDate": "2021-10-04",
      "title": "省钱菜谱：3元的菜脯炒粿条（10min）",
      "desc": "前段时间忘记在哪篇笔记的评论下面在说菜脯，然后我一忙就忘记了，最近又有人评论到菜脯，所以，菜脯，我来啦哈哈哈哈哈哈哈！",
      "keywords": "潮州小吃,潮汕小吃,潮州菜脯炒粿条,潮汕菜脯炒粿条",
      "date": "2021-10-04 00:13:00",
      "cover": "http://cdn.chengpeiquan.com/img/2022/03/20220302132947.jpg?x-oss-process=image/interlace,1",
      "categories": [
        "thrift",
        "staple",
        "teochew",
        "bento"
      ],
      "duration": 10,
      "price": 3,
      "xiaohongshuId": "61596645000000000102f89a"
    },
    {
      "id": "hongtang-jidan-mian",
      "type": "cookbook",
      "shortDate": "2021-10-01",
      "title": "省钱菜单：0.6元的红糖鸡蛋面（8min）",
      "desc": "我昨晚熬夜了，今天早上一觉睡到了快12点，我有个习惯，就是不管熬夜多晚，都会定个11点半的闹钟，午餐还是要起来吃的！不过刚起床也没有太多精力搞别的，想起今天祖国的生日，煮个甜面条吧！刚好这个月开启新生活，吃点甜甜的重新开始！",
      "keywords": "潮州小吃,潮汕小吃,红糖鸡蛋面",
      "date": "2021-10-01 20:43:00",
      "cover": "http://cdn.chengpeiquan.com/img/2022/02/20220307001224.jpg?x-oss-process=image/interlace,1",
      "categories": [
        "thrift",
        "staple",
        "teochew",
        "orthodontic"
      ],
      "duration": 8,
      "price": 0.6,
      "xiaohongshuId": "615691f5000000000102e7c5"
    },
    {
      "id": "shengcai-jiandan-mian",
      "type": "cookbook",
      "shortDate": "2021-10-01",
      "title": "省钱菜单：1.1元的生菜煎蛋面（5min）",
      "desc": "今晚解决了上次买的那袋糖心蜜薯的最后一个（上次看着如果一起吃掉有点太多，就留下来了），然后就简简单单再煮个面搭配一下晚餐。",
      "keywords": "潮州小吃,潮汕小吃,生菜煎蛋面",
      "date": "2021-10-01 06:54:00",
      "cover": "http://cdn.chengpeiquan.com/img/2022/02/20220307002220.jpg?x-oss-process=image/interlace,1",
      "categories": [
        "thrift",
        "staple",
        "teochew"
      ],
      "duration": 5,
      "price": 1.1,
      "xiaohongshuId": "6155cf9a000000002103e6de"
    },
    {
      "id": "chunrou-yuntun",
      "type": "cookbook",
      "shortDate": "2021-08-22",
      "title": "省钱菜谱：2.7元一碗的纯肉云吞（10min）",
      "desc": "云吞虽然都是肉，但因为做法实在太多，所以不太挑剔的话，成本其实可以很低！分享一个省钱的做法，平均一个云吞1毛8，按照15个一碗的话，2块7毛钱解决晚餐。",
      "keywords": "云吞,云吞包法,云吞怎么包",
      "date": "2021-08-22 05:17:00",
      "cover": "http://cdn.chengpeiquan.com/img/2022/01/20220110235534.jpg?x-oss-process=image/interlace,1",
      "categories": [
        "thrift",
        "staple",
        "teochew"
      ],
      "duration": 10,
      "price": 2.7,
      "xiaohongshuId": "6120fcd80000000001028170",
      "cite": [
        "chaoshan-suantoulao"
      ]
    }
  ]
}