{
  "author": {
    "name": "chengpeiquan",
    "email": "chengpeiquan@chengpeiquan.com",
    "link": "https://chengpeiquan.com"
  },
  "type": "cookbook",
  "total": 84,
  "page": 3,
  "lastPage": 9,
  "category": "teochew",
  "data": [
    {
      "id": "tian-qiugualao",
      "type": "cookbook",
      "shortDate": "2022-06-20",
      "title": "省钱菜谱：3块钱的潮州甜款秋瓜烙（10min）",
      "desc": "今天做个秋瓜烙，做法还是之前在潮州跟我妈学的，秋瓜烙有甜口味也有咸口味，今天做个甜的，配杯茶一起吃很赞哈哈哈哈哈哈哈…",
      "keywords": "潮州小吃,潮汕小吃,潮州秋瓜烙,潮汕秋瓜烙",
      "date": "2022-06-20 06:16:00",
      "cover": "http://cdn.chengpeiquan.com/img/2022/06/20220625183437.jpg?x-oss-process=image/interlace,1",
      "categories": [
        "thrift",
        "staple",
        "teochew"
      ],
      "duration": 5,
      "price": 1.8,
      "xiaohongshuId": "62af2fca000000000102bf27"
    },
    {
      "id": "chaozhou-sunjiao",
      "type": "cookbook",
      "shortDate": "2022-06-12",
      "title": "在广州新家做的第一顿晚餐：潮州笋饺",
      "desc": "回广州刚好半个月了，回来的第二天就被抓去新公司上班，所以收拾新家收拾了一周，上周端午假期也是一直在收拾，这个周末才开始正式在新家做饭了！！！",
      "keywords": "潮州小吃,潮汕小吃,潮州饺子,潮汕饺子,潮州笋饺,潮汕笋饺",
      "date": "2022-06-12 09:39:00",
      "cover": "http://cdn.chengpeiquan.com/img/2022/06/20220612015709.jpg?x-oss-process=image/interlace,1",
      "categories": [
        "bento",
        "staple",
        "teochew"
      ],
      "duration": 60,
      "price": 50,
      "xiaohongshuId": "62a4d35f00000000210378fa"
    },
    {
      "id": "heiyu-qiugua-tang",
      "type": "cookbook",
      "shortDate": "2022-05-24",
      "title": "菜谱：黑鱼秋瓜汤（8min）",
      "desc": "上个周末回了趟广州，一下高铁就感觉回到了家一样，毕竟是我的第二故乡，这次回去是去看了下房子，然后准备回广州工作和生活啦！所以接下来这一个多星期会比较忙，笔记估计不太有时间整理（忙着工作和收拾东西hhh），不过评论和私信我都会回的哈哈哈…",
      "keywords": "潮州美食,潮汕美食,黑鱼秋瓜汤",
      "date": "2022-05-24 07:13:00",
      "cover": "http://cdn.chengpeiquan.com/img/2022/05/20220523233152.jpg?x-oss-process=image/interlace,1",
      "categories": [
        "beginner",
        "teochew",
        "soup",
        "orthodontic"
      ],
      "duration": 8,
      "price": 14,
      "xiaohongshuId": "628ba486000000002103d8a9",
      "cite": [
        "chaoshan-suantoulao"
      ]
    },
    {
      "id": "roumo-chao-qiugua",
      "type": "cookbook",
      "shortDate": "2022-05-19",
      "title": "省钱菜谱：4块钱的秋瓜炒肉末（3min）",
      "desc": "我潮州家里是在顶楼，所以楼顶天台也是自家的一部分，我爸妈在楼顶除了种花，还砌了几个瓜斗搭了瓜棚，每年都会种秋瓜，虽然最开始是想着有个瓜棚可以避暑，后面种出来的秋瓜好甜真是意外收获哈哈哈，是我从小吃到大的一种瓜了！",
      "keywords": "秋瓜炒肉末,水瓜炒肉末,丝瓜炒肉末",
      "date": "2022-05-19 07:44:00",
      "cover": "http://cdn.chengpeiquan.com/img/2022/05/20220520232541.jpg?x-oss-process=image/interlace,1",
      "categories": [
        "thrift",
        "teochew"
      ],
      "duration": 10,
      "price": 3,
      "xiaohongshuId": "62851473000000000102610a",
      "cite": [
        "chaoshan-suantoulao"
      ]
    },
    {
      "id": "qingzheng-sanhuangji",
      "type": "cookbook",
      "shortDate": "2022-05-14",
      "title": "菜谱：清蒸三黄鸡（30min）",
      "desc": "今晚做了个清蒸三黄鸡，搭配白切鸡的姜葱酱也很好吃，不过今晚搭配的酱料用了另外的做法，平时可以交叉换口味试试！",
      "keywords": "清蒸三黄鸡,三黄鸡",
      "date": "2022-05-14 08:23:00",
      "cover": "http://cdn.chengpeiquan.com/img/2022/05/20220514003235.jpg?x-oss-process=image/interlace,1",
      "categories": [
        "bento",
        "teochew",
        "beginner"
      ],
      "duration": 30,
      "price": 16,
      "xiaohongshuId": "627e85e9000000000102b689",
      "cite": [
        "chiyou-jiangcong-zhanliao"
      ]
    },
    {
      "id": "douchilingyu-chao-youmaicai",
      "type": "cookbook",
      "shortDate": "2022-05-11",
      "title": "省钱菜谱：6.5元的豆豉鲮鱼炒油麦菜（3min）",
      "desc": "前几天逛超市的时候罐头打折 10 块钱一罐，买来做个油麦菜刚好！这是我们之前小组聚餐最喜欢点的一道菜哈哈哈哈哈，但是很可恶的是外面吃的豆豉鲮鱼炒油麦菜，鲮鱼永远都是只有一滴滴… 还是自己做大满足！",
      "keywords": "豆豉鲮鱼炒油麦菜,豆豉鲮鱼,炒油麦菜",
      "date": "2022-05-11 21:48:00",
      "cover": "http://cdn.chengpeiquan.com/img/2022/05/20220514005832.jpg?x-oss-process=image/interlace,1",
      "categories": [
        "thrift",
        "teochew"
      ],
      "duration": 3,
      "price": 6.5,
      "xiaohongshuId": "627b4e2e000000002103b8d0"
    },
    {
      "id": "huaishan-hongzao-paigu-tang",
      "type": "cookbook",
      "shortDate": "2022-05-09",
      "title": "淮山红枣排骨汤（2h）",
      "desc": "五一因为打了疫苗，安慰自己要休息，然后就没有运动哈哈哈哈，所以今天才出去爬山，下山的时候还下雨了，累死！还好出门前先处理好了食材，定时煲汤，回到家洗个热水澡舒舒服服的喝汤，好爽啊！",
      "keywords": "淮山红枣排骨汤,排骨汤",
      "date": "2022-05-09 06:48:00",
      "cover": "http://cdn.chengpeiquan.com/img/2022/05/20220514010919.jpg?x-oss-process=image/interlace,1",
      "categories": [
        "soup",
        "teochew",
        "beginner"
      ],
      "duration": 120,
      "price": 18,
      "xiaohongshuId": "6277d83d00000000210351f5"
    },
    {
      "id": "huanggua-zhan-baitang",
      "type": "cookbook",
      "shortDate": "2022-05-05",
      "title": "黄瓜蘸白糖真好吃哈哈哈哈哈哈哈哈哈哈哈哈",
      "desc": "从小吃到大的一个吃着玩的吃法，黄瓜先冷藏，然后洗净，直接蘸白糖，超好吃！！！！！",
      "keywords": "黄瓜蘸白糖",
      "date": "2022-05-05 06:59:00",
      "cover": "http://cdn.chengpeiquan.com/img/2022/05/20220514011945.jpg?x-oss-process=image/interlace,1",
      "categories": [
        "teochew"
      ],
      "duration": 1,
      "price": 1,
      "xiaohongshuId": "627294cb00000000210385d3"
    },
    {
      "id": "puningdoujiang-liangban-jisi",
      "type": "cookbook",
      "shortDate": "2022-04-14",
      "title": "省钱菜谱：潮汕特色凉菜 2.7元的普宁豆酱凉拌鸡丝（20min）",
      "desc": "最近的菜谱又主打我家乡潮汕的口味了，上次发豆酱炒番薯叶的时候有小姐姐评论说不会用豆酱，所以最近几次就以豆酱为主角，多分享点玩法。",
      "keywords": "潮州小吃,潮汕小吃,普宁豆酱凉拌鸡丝,豆酱拌鸡丝",
      "date": "2022-04-14 07:03:00",
      "cover": "http://cdn.chengpeiquan.com/img/2022/04/20220413234520.jpg?x-oss-process=image/interlace,1",
      "categories": [
        "thrift",
        "bento",
        "teochew"
      ],
      "duration": 20,
      "price": 2.7,
      "xiaohongshuId": "6256e644000000002103dfe2"
    },
    {
      "id": "jinzhengu-roupi-men-doufu",
      "type": "cookbook",
      "shortDate": "2022-04-11",
      "title": "省钱菜谱：6.5元的金针菇肉皮焖豆腐（20min）",
      "desc": "有一段时间没吃肉皮了，今晚搞一搞，我没有砂锅，所以用炒锅焖，有砂锅的话可以直接做成肉皮豆腐煲。然后这次我没有用蚝油，昨天新买的豆酱就炒了个番薯叶，还有一整瓶，今晚继续用豆酱调味也很好吃！",
      "keywords": "金针菇肉皮焖豆腐,金针菇肉皮豆腐煲,省钱菜谱,菜谱,潮汕美食",
      "date": "2022-04-11 05:31:00",
      "cover": "http://cdn.chengpeiquan.com/img/2022/04/20220410214038.jpg?x-oss-process=image/interlace,1",
      "categories": [
        "thrift",
        "teochew"
      ],
      "duration": 20,
      "price": 6.5,
      "xiaohongshuId": "6252dc3e000000000102e6aa"
    }
  ]
}