{
  "author": {
    "name": "chengpeiquan",
    "email": "chengpeiquan@chengpeiquan.com",
    "link": "https://chengpeiquan.com"
  },
  "type": "cookbook",
  "total": 84,
  "page": 4,
  "lastPage": 9,
  "category": "teochew",
  "data": [
    {
      "id": "puning-doujiang-chao-fanshuye",
      "type": "cookbook",
      "shortDate": "2022-04-10",
      "title": "省钱菜谱：4块钱的普宁豆酱炒番薯叶（2min）",
      "desc": "我不仅喜欢烤番薯、炸番薯片、糕烧番薯、反沙番薯，对番薯叶也是超爱！今天分享来自我妈的经典做法，哈哈哈哈感觉这 3 个食材搭配特别好吃！",
      "keywords": "普宁豆酱炒番薯叶,普宁豆酱,炒番薯叶,省钱菜谱,菜谱,潮汕美食",
      "date": "2022-04-10 09:28:00",
      "cover": "http://cdn.chengpeiquan.com/img/2022/04/20220410014947.jpg?x-oss-process=image/interlace,1",
      "categories": [
        "thrift",
        "teochew"
      ],
      "duration": 2,
      "price": 4,
      "xiaohongshuId": "6251c258000000002103c432"
    },
    {
      "id": "zhacai-roupian-tangmifen",
      "type": "cookbook",
      "shortDate": "2022-04-06",
      "title": "省钱菜谱：2.5元的榨菜肉片汤米粉（5min）",
      "desc": "今晚煮个米粉吃，简简单单的，大学的时候经常跟舍友去校门口的沙县吃榨菜肉丝粉，不过都是汤河粉，今晚用潮汕特色的细米粉来做也很不错！",
      "keywords": "潮州小吃,潮汕小吃,潮州汤粉,潮汕汤粉,榨菜肉片汤米粉,潮汕汤米粉",
      "date": "2022-04-06 04:22:00",
      "cover": "http://cdn.chengpeiquan.com/img/2022/04/20220405214237.jpg?x-oss-process=image/interlace,1",
      "categories": [
        "thrift",
        "staple",
        "teochew",
        "beginner"
      ],
      "duration": 5,
      "price": 2.5,
      "xiaohongshuId": "624c349c0000000021038b42"
    },
    {
      "id": "chaoshan-shacha-jielan-chaomian",
      "type": "cookbook",
      "shortDate": "2022-03-28",
      "title": "省钱菜谱：3.4元的潮汕沙茶芥兰炒面（10min）",
      "desc": "中午做了个芥兰炒面，大潮州的口味，面条也是用的潮州特色的 “面薄”，做炒面也特别好吃！",
      "keywords": "潮汕小吃,潮州小吃,潮汕沙茶芥兰炒面,芥兰炒面,沙茶炒面",
      "date": "2022-03-28 00:25:00",
      "cover": "http://cdn.chengpeiquan.com/img/2022/03/20220327163501.jpg?x-oss-process=image/interlace,1",
      "categories": [
        "thrift",
        "teochew",
        "bento",
        "staple"
      ],
      "duration": 10,
      "price": 3.4,
      "xiaohongshuId": "62401f7a0000000001025ec6"
    },
    {
      "id": "roupian-qingchao-tudousi",
      "type": "cookbook",
      "shortDate": "2022-03-20",
      "title": "省钱菜谱：3块钱的肉片清炒土豆丝（2min）",
      "desc": "玉米的价格看来下不去了，最近看好土豆哈哈哈，来做个潮汕做法的清炒土豆丝，口感清脆又好吃。",
      "keywords": "潮汕美食,肉片清炒土豆丝,炒土豆丝,清炒土豆丝",
      "date": "2022-03-20 06:32:00",
      "cover": "http://cdn.chengpeiquan.com/img/2022/02/20220319224341.jpg?x-oss-process=image/interlace,1",
      "categories": [
        "thrift",
        "teochew",
        "orthodontic",
        "beginner"
      ],
      "duration": 2,
      "price": 3,
      "xiaohongshuId": "6235e97c000000000102c1d8"
    },
    {
      "id": "xianggu-tudou-zhurou-jianjiao",
      "type": "cookbook",
      "shortDate": "2022-03-17",
      "title": "省钱菜单：6块钱一大碗的香菇土豆猪肉煎饺（10min）",
      "desc": "哈哈哈哈昨晚的饺子，留了一份21个，中午拿出来煎！好香好吃！",
      "keywords": "潮州小吃,潮汕小吃,潮州饺子,香菇土豆猪肉饺子,香菇土豆猪肉煎饺",
      "date": "2022-03-17 21:30:00",
      "cover": "http://cdn.chengpeiquan.com/img/2022/02/20220317140121.jpg?x-oss-process=image/interlace,1",
      "categories": [
        "thrift",
        "staple",
        "teochew"
      ],
      "duration": 10,
      "price": 6,
      "xiaohongshuId": "6232c760000000002103b82f",
      "cite": [
        "xianggu-tudou-zhurou-jiaozi"
      ]
    },
    {
      "id": "xianggu-tudou-zhurou-jiaozi",
      "type": "cookbook",
      "shortDate": "2022-03-17",
      "title": "省钱菜谱：0.29元/个的香菇土豆猪肉饺子（1h）",
      "desc": "做完卤肉实在没忍住哈哈哈哈哈哈哈哈哈哈哈哈哈哈哈哈哈哈哈，切了一块卤肉，吃个宵夜！！！这个点最好的搭配就是潮汕粿汁了！！！",
      "keywords": "潮州小吃,潮汕小吃,潮州饺子,香菇土豆猪肉饺子",
      "date": "2022-03-17 07:33:00",
      "cover": "http://cdn.chengpeiquan.com/img/2022/02/20220316234044.jpg?x-oss-process=image/interlace,1",
      "categories": [
        "thrift",
        "staple",
        "teochew"
      ],
      "duration": 60,
      "price": 0.29,
      "xiaohongshuId": "623203580000000001028725",
      "cite": [
        "xianggu-tudou-zhurou-jianjiao"
      ]
    },
    {
      "id": "hujiao-chao-suidan",
      "type": "cookbook",
      "shortDate": "2022-03-14",
      "title": "省钱菜谱：1.9元的胡椒炒碎蛋（2min）",
      "desc": "今晚分享一个我很喜欢的番茄鸡蛋汤的做法，甜口，和平时在外面吃的番茄鸡蛋汤不太一样，对比外面常见的咸口的番茄鸡蛋，我更钟爱于酸酸甜甜的口感。",
      "keywords": "潮汕美食,番茄鸡蛋汤",
      "date": "2022-03-14 07:18:00",
      "cover": "http://cdn.chengpeiquan.com/img/2022/02/20220313232532.jpg?x-oss-process=image/interlace,1",
      "categories": [
        "thrift",
        "teochew",
        "orthodontic",
        "beginner"
      ],
      "duration": 2,
      "price": 1.9,
      "xiaohongshuId": "622e0b4d000000000102e6ae"
    },
    {
      "id": "furu-zheng-paigu",
      "type": "cookbook",
      "shortDate": "2022-03-06",
      "title": "蒜香腐乳蒸排骨（30min）",
      "desc": "继上次的那个 “腐乳蒸肉片”，当时说还可以蒸排骨，所以今天来做下排骨版本。",
      "keywords": "腐乳蒸排骨,腐乳",
      "date": "2022-03-06 03:34:00",
      "cover": "http://cdn.chengpeiquan.com/img/2022/02/20220306012707.jpg?x-oss-process=image/interlace,1",
      "categories": [
        "bento",
        "teochew",
        "beginner"
      ],
      "duration": 30,
      "price": 24,
      "xiaohongshuId": "62234aad000000000102c18e",
      "cite": [
        "furu-zheng-roupian"
      ]
    },
    {
      "id": "chaoshan-suancai-chao-niurou",
      "type": "cookbook",
      "shortDate": "2022-02-22",
      "title": "潮汕经典家常菜之酸菜炒牛肉（2min）",
      "desc": "这是昨天中午的午餐哈哈哈，忙了一天多现在才有时间来整理（昨晚做蛋糕去了…），酸菜炒牛肉是潮汕的一道经典菜，潮汕特色的酸菜，搭配潮汕特色的调味料，很好吃！！！",
      "keywords": "潮州美食,潮汕美食,酸菜炒牛肉",
      "date": "2022-02-22 07:59:00",
      "cover": "http://cdn.chengpeiquan.com/img/2022/02/20220222002124.jpg?x-oss-process=image/interlace,1",
      "categories": [
        "staple",
        "teochew"
      ],
      "duration": 2,
      "price": 20,
      "xiaohongshuId": "6213b6c800000000010255f3"
    },
    {
      "id": "chaoshan-shacha-banmian",
      "type": "cookbook",
      "shortDate": "2022-02-15",
      "title": "省钱菜谱：2块钱的潮汕沙茶拌面（10min）",
      "desc": "今天 2 月 14 日，是……一个普普通通的周一哈哈哈哈哈哈哈哈哈哈…………前几天我妈给我寄橄榄的时候问我还想吃啥，我说寄点“面薄”哩，然后我终于在深圳吃到了潮汕的 “面薄”，果然还是家里的面条好吃！！！",
      "keywords": "潮汕美食,沙茶拌面,潮式拌面",
      "date": "2022-02-15 06:14:00",
      "cover": "http://cdn.chengpeiquan.com/img/2022/02/20220214222145.jpg?x-oss-process=image/interlace,1",
      "categories": [
        "thrift",
        "teochew",
        "staple",
        "beginner"
      ],
      "duration": 10,
      "price": 2,
      "xiaohongshuId": "620a63e00000000001027237",
      "cite": [
        "chaoshan-suantoulao"
      ]
    }
  ]
}