{
  "author": {
    "name": "chengpeiquan",
    "email": "chengpeiquan@chengpeiquan.com",
    "link": "https://chengpeiquan.com"
  },
  "type": "cookbook",
  "total": 84,
  "page": 6,
  "lastPage": 9,
  "category": "teochew",
  "data": [
    {
      "id": "xianggu-zhurou-yumi-jianjiao",
      "type": "cookbook",
      "shortDate": "2021-12-21",
      "title": "省钱菜单：香脆又香甜！香菇猪肉玉米煎饺太好吃了！",
      "desc": "耶耶耶！昨晚的香菇玉米猪肉饺子煎出来太好吃了！！！虽然玉米饺子贵一点，不过这一大碗也就11块钱，自己包饺子划算太多了！",
      "keywords": "香菇猪肉玉米煎饺,玉米饺子,玉米煎饺",
      "date": "2021-12-21 04:41:00",
      "cover": "http://cdn.chengpeiquan.com/img/2022/01/20220108014330.jpg?x-oss-process=image/interlace,1",
      "categories": [
        "thrift",
        "bento",
        "staple",
        "teochew"
      ],
      "duration": 3,
      "price": 4.7,
      "xiaohongshuId": "61c079f70000000001028f90",
      "cite": [
        "xianggu-zhurou-yumi-zhengjiao"
      ]
    },
    {
      "id": "xianggu-zhurou-yumi-zhengjiao",
      "type": "cookbook",
      "shortDate": "2021-12-20",
      "title": "省钱菜谱：0.57元/只香菇猪肉玉米饺子（30min）",
      "desc": "今天是包香菇玉米猪肉饺子，做法也比较有我的个人特色，首先是纯玉米馅，没有混入胡萝卜等别的蔬菜，另外一个是我没有加五香粉之类的香料，只用了潮汕特色的调味品来调馅（鱼露搭配虾皮），简单的调味但是很鲜美，能够保持甜玉米的鲜甜口感！",
      "keywords": "香菇猪肉玉米蒸饺,玉米饺子,玉米蒸饺",
      "date": "2021-12-20 05:06:00",
      "cover": "http://cdn.chengpeiquan.com/img/2022/01/20220108020352.jpg?x-oss-process=image/interlace,1",
      "categories": [
        "thrift",
        "bento",
        "staple",
        "teochew"
      ],
      "duration": 30,
      "price": 0.57,
      "xiaohongshuId": "61bf2e4e000000002103470d",
      "cite": [
        "xianggu-zhurou-yumi-jianjiao"
      ]
    },
    {
      "id": "jiucaihua-chao-roujuan",
      "type": "cookbook",
      "shortDate": "2021-12-17",
      "title": "省钱菜谱：3.7元的韭菜花炒肉卷（3min）",
      "desc": "今晚难得在菜市场看到有肉卷卖，对于下班回家买菜这个时间点，遇到肉卷真不容易啊。肉卷是潮汕一种美食，是猪肉的一种加工品，很好吃！",
      "keywords": "潮汕美食,韭菜花炒肉卷,韭菜花,肉卷",
      "date": "2021-12-17 07:26:00",
      "cover": "http://cdn.chengpeiquan.com/img/2022/01/20220114234142.jpg?x-oss-process=image/interlace,1",
      "categories": [
        "thrift",
        "bento",
        "teochew",
        "beginner"
      ],
      "duration": 3,
      "price": 3.7,
      "xiaohongshuId": "61bb5a88000000000102ded0"
    },
    {
      "id": "kongqizhaguo-jiucai-jianjiao",
      "type": "cookbook",
      "shortDate": "2021-12-14",
      "title": "空气韭菜煎饺！空气炸锅的发明者真是现代爱迪生！",
      "desc": "昨天下午做了卤水，但是为了更入味所以昨晚没有立即吃，继续先卤着，然后昨晚又另外包了韭菜饺子，留了一盒今天晚上回来做煎饺。",
      "keywords": "潮州,潮州韭菜饺子,煎饺",
      "date": "2021-12-14 05:07:00",
      "cover": "http://cdn.chengpeiquan.com/img/2022/01/20220131234851.jpg?x-oss-process=image/interlace,1",
      "categories": [
        "thrift",
        "bento",
        "staple",
        "teochew"
      ],
      "duration": 0,
      "price": 0,
      "xiaohongshuId": "61b7459b000000002103c463"
    },
    {
      "id": "shuizhudan",
      "type": "cookbook",
      "shortDate": "2021-12-13",
      "title": "卤蛋前置教程：剥一个光滑漂亮的水煮蛋",
      "desc": "上次发了个潮汕卤水的做法，里面有包含了卤蛋，然后就有小姐姐问我怎么煮蛋，说煮出来的蛋不好剥，坑坑洼洼的，没法跟我的蛋一样光滑，所以这个笔记来说一下我是怎么煮蛋的。",
      "keywords": "水煮蛋,鸡蛋,白煮蛋,卤蛋",
      "date": "2021-12-13 01:32:00",
      "cover": "http://cdn.chengpeiquan.com/img/2022/01/20220201002259.jpg?x-oss-process=image/interlace,1",
      "categories": [
        "staple",
        "teochew"
      ],
      "duration": 0,
      "price": 0,
      "xiaohongshuId": "61b5c1cb00000000210399e6",
      "cite": [
        "chaoshan-lushui-wuhuarou"
      ]
    },
    {
      "id": "tudou-kao-cuipi-jituipa",
      "type": "cookbook",
      "shortDate": "2021-12-05",
      "title": "省钱菜谱：4.4元的土豆烤脆皮鸡腿扒（20min）",
      "desc": "告诉大家一个好消息，我终于快忙完了！赶开发了一个多月，项目终于要上线，这周末我要休个年假回家几天，然后接下来又可以跟大家一起天天做饭了！（希望不要又来一波赶项目……",
      "keywords": "烤鸡,脆皮鸡,土豆烤鸡,脆皮烤鸡,鸡腿扒",
      "date": "2021-12-05 04:10:00",
      "cover": "http://cdn.chengpeiquan.com/img/2022/01/20220115001907.jpg?x-oss-process=image/interlace,1",
      "categories": [
        "thrift",
        "bento",
        "teochew"
      ],
      "duration": 20,
      "price": 4.4,
      "xiaohongshuId": "61ae2f55000000000102d110"
    },
    {
      "id": "yangsheng-babaozhou",
      "type": "cookbook",
      "shortDate": "2021-12-05",
      "title": "省钱菜单：天冷舒服！0.8元/碗的养生八宝粥（2h）",
      "desc": "因为打算下午爬山的时候挑战一下另外一条比较陡峭的小路，担心回来没精力做饭，刚好家里有糯米，早上出去超市顺便买了点配好的杂粮（有黑米、紫薯干、红扁豆挺多料），再搭配点花生，一起浸泡了有两个小时。",
      "keywords": "潮汕美食,八宝粥",
      "date": "2021-12-05 04:10:00",
      "cover": "http://cdn.chengpeiquan.com/img/2022/01/20220114235441.jpg?x-oss-process=image/interlace,1",
      "categories": [
        "thrift",
        "teochew",
        "orthodontic",
        "beginner"
      ],
      "duration": 120,
      "price": 0.8,
      "xiaohongshuId": "61ab5ad000000000010296c8"
    },
    {
      "id": "chaoshan-lushui-wuhuarou",
      "type": "cookbook",
      "shortDate": "2021-11-29",
      "title": "潮汕卤水之卤五花肉",
      "desc": "上周五有小姐姐问我说最近很忙，有什么菜可以提前几天准备，这样每天带饭就可以只煮饭，都是潮汕人，那必须首选潮汕卤水哈哈哈，周末提前做，真的可以吃好几天，而且卤汁还可以再用，可以再做几次卤蛋之类的小卤味，美滋滋！",
      "keywords": "潮州,潮州卤水,潮汕卤水,卤五花肉,卤蛋",
      "date": "2021-11-29 04:19:00",
      "cover": "http://cdn.chengpeiquan.com/img/2022/01/20220130235640.jpg?x-oss-process=image/interlace,1",
      "categories": [
        "bento",
        "teochew"
      ],
      "duration": 0,
      "price": 0,
      "xiaohongshuId": "61a373df000000002103cea1"
    },
    {
      "id": "chaoshan-guozhi",
      "type": "cookbook",
      "shortDate": "2021-11-28",
      "title": "省钱菜单：丰俭由人的潮汕粿汁（5min）",
      "desc": "做完卤肉实在没忍住哈哈哈哈哈哈哈哈哈哈哈哈哈哈哈哈哈哈哈，切了一块卤肉，吃个宵夜！！！这个点最好的搭配就是潮汕粿汁了！！！",
      "keywords": "潮州小吃,潮汕小吃,潮州粿汁,潮汕粿汁",
      "date": "2021-11-28 08:11:00",
      "cover": "http://cdn.chengpeiquan.com/img/2022/01/20220201225040.jpg?x-oss-process=image/interlace,1",
      "categories": [
        "thrift",
        "staple",
        "teochew"
      ],
      "duration": 5,
      "price": 1.8,
      "xiaohongshuId": "61a258a200000000210380a9",
      "cite": [
        "chaoshan-congzhulao"
      ]
    },
    {
      "id": "suchengban-lurou-lurougan",
      "type": "cookbook",
      "shortDate": "2021-11-24",
      "title": "省钱菜谱：4.5元的速成版卤肉卤豆干（5min）",
      "desc": "原本以为买的粿汁皮要好几天才送到，结果…嗯？隔天（此处是Max问号表情包）……然后就等不到周末了哈哈哈哈哈哈，刚好今晚加班回来又比较晚，不想吃饭了，买了点炸豆干，切了点小上肉，用个便捷的方法搞点卤肉搭配一下。",
      "keywords": "卤肉,卤豆干",
      "date": "2021-11-24 08:09:00",
      "cover": "http://cdn.chengpeiquan.com/img/2022/02/20220202153101.jpg?x-oss-process=image/interlace,1",
      "categories": [
        "thrift",
        "teochew",
        "bento"
      ],
      "duration": 5,
      "price": 4.5,
      "xiaohongshuId": "619d122c000000000102c820"
    }
  ]
}