{
  "author": {
    "name": "chengpeiquan",
    "email": "chengpeiquan@chengpeiquan.com",
    "link": "https://chengpeiquan.com"
  },
  "type": "cookbook",
  "total": 14,
  "page": 1,
  "lastPage": 2,
  "category": "orthodontic",
  "data": [
    {
      "id": "baizhou-lin-jiangyou",
      "type": "cookbook",
      "shortDate": "2022-08-11",
      "title": "😂难受时最爱的晚餐：潮州特色·南时油",
      "desc": "hhhhh “南时油” 是潮州话的读音，实际上就是白粥淋酱油，超级简单！煮碗白粥，淋上两勺酱油就超级无敌美味！！！特别适合身体不舒服的时候吃！",
      "keywords": "南时油,白粥淋酱油",
      "date": "2022-08-11 22:50:00",
      "cover": "http://cdn.chengpeiquan.com/img/2022/08/20220814004625.jpg?x-oss-process=image/interlace,1",
      "categories": [
        "teochew",
        "staple",
        "orthodontic",
        "beginner"
      ],
      "duration": 1,
      "price": 0.5,
      "xiaohongshuId": "62f517520000000012027571"
    },
    {
      "id": "heiyu-qiugua-tang",
      "type": "cookbook",
      "shortDate": "2022-05-23",
      "title": "菜谱：黑鱼秋瓜汤（8min）",
      "desc": "上个周末回了趟广州，一下高铁就感觉回到了家一样，毕竟是我的第二故乡，这次回去是去看了下房子，然后准备回广州工作和生活啦！所以接下来这一个多星期会比较忙，笔记估计不太有时间整理（忙着工作和收拾东西hhh），不过评论和私信我都会回的哈哈哈…",
      "keywords": "潮州美食,潮汕美食,黑鱼秋瓜汤",
      "date": "2022-05-23 23:13:00",
      "cover": "http://cdn.chengpeiquan.com/img/2022/05/20220523233152.jpg?x-oss-process=image/interlace,1",
      "categories": [
        "beginner",
        "teochew",
        "soup",
        "orthodontic"
      ],
      "duration": 8,
      "price": 14,
      "xiaohongshuId": "628ba486000000002103d8a9",
      "cite": [
        "chaoshan-suantoulao"
      ]
    },
    {
      "id": "neizhidoufu-jidangeng",
      "type": "cookbook",
      "shortDate": "2022-04-22",
      "title": "省钱菜谱：0.66元的内酯豆腐鸡蛋羹（15min）",
      "desc": "哈哈哈哈今天这一餐纯属白嫖，是拿的美团买菜的免费菜里面的内酯豆腐，最近几次买东西都选了它，配合鸡蛋羹一起，口感真的很不错，好像豆腐花，超级嫩！",
      "keywords": "内酯豆腐鸡蛋羹,鸡蛋羹,内酯豆腐,省钱菜谱",
      "date": "2022-04-22 23:19:00",
      "cover": "http://cdn.chengpeiquan.com/img/2022/04/20220422233257.jpg?x-oss-process=image/interlace,1",
      "categories": [
        "thrift",
        "beginner",
        "orthodontic"
      ],
      "duration": 15,
      "price": 0.66,
      "xiaohongshuId": "6262c770000000002103f4ed"
    },
    {
      "id": "roupian-qingchao-tudousi",
      "type": "cookbook",
      "shortDate": "2022-03-19",
      "title": "省钱菜谱：3块钱的肉片清炒土豆丝（2min）",
      "desc": "玉米的价格看来下不去了，最近看好土豆哈哈哈，来做个潮汕做法的清炒土豆丝，口感清脆又好吃。",
      "keywords": "潮汕美食,肉片清炒土豆丝,炒土豆丝,清炒土豆丝",
      "date": "2022-03-19 22:32:00",
      "cover": "http://cdn.chengpeiquan.com/img/2022/02/20220319224341.jpg?x-oss-process=image/interlace,1",
      "categories": [
        "thrift",
        "teochew",
        "orthodontic",
        "beginner"
      ],
      "duration": 2,
      "price": 3,
      "xiaohongshuId": "6235e97c000000000102c1d8"
    },
    {
      "id": "hujiao-chao-suidan",
      "type": "cookbook",
      "shortDate": "2022-03-13",
      "title": "省钱菜谱：1.9元的胡椒炒碎蛋（2min）",
      "desc": "今晚分享一个我很喜欢的番茄鸡蛋汤的做法，甜口，和平时在外面吃的番茄鸡蛋汤不太一样，对比外面常见的咸口的番茄鸡蛋，我更钟爱于酸酸甜甜的口感。",
      "keywords": "潮汕美食,番茄鸡蛋汤",
      "date": "2022-03-13 23:18:00",
      "cover": "http://cdn.chengpeiquan.com/img/2022/02/20220313232532.jpg?x-oss-process=image/interlace,1",
      "categories": [
        "thrift",
        "teochew",
        "orthodontic",
        "beginner"
      ],
      "duration": 2,
      "price": 1.9,
      "xiaohongshuId": "622e0b4d000000000102e6ae"
    },
    {
      "id": "kao-jinzhengu-roujiang-roufu",
      "type": "cookbook",
      "shortDate": "2022-02-25",
      "title": "省钱菜谱：6.2元的烤金针菇肉酱豆腐（20min）",
      "desc": "今晚吃个金针菇烤豆腐，加点肉末，解决晚餐，需要提前煮一电热壶的开水备用，还有锡纸和空气炸锅。",
      "keywords": "烤金针菇肉酱豆腐,烤金针菇,烤豆腐",
      "date": "2022-02-25 22:56:00",
      "cover": "http://cdn.chengpeiquan.com/img/2022/02/20220226234158.jpg?x-oss-process=image/interlace,1",
      "categories": [
        "thrift",
        "orthodontic"
      ],
      "duration": 20,
      "price": 6.2,
      "xiaohongshuId": "6218ee000000000001028920"
    },
    {
      "id": "suanmeijiang-kao-bashayuliu",
      "type": "cookbook",
      "shortDate": "2022-01-07",
      "title": "省钱菜谱：8.7元的酸梅酱烤巴沙鱼柳（18min）",
      "desc": "今天只上了半天班就被赶回来了，因为深圳出了 2 例，被要求大家都在家办公，并且周一上班要提供 3 天内至少 2 次核酸证明才能回公司，虽然南山离那边好远好远，但还是能理解，这个时候真的不要太轻视疫情了！",
      "keywords": "省钱菜谱,巴沙鱼,龙利鱼,鱼柳,烤鱼,巴沙鱼柳,龙利鱼柳,种牙食谱,整牙食谱",
      "date": "2022-01-07 23:54:00",
      "cover": "http://cdn.chengpeiquan.com/img/2022/01/20220107235442.jpg?x-oss-process=image/interlace,1",
      "categories": [
        "thrift",
        "orthodontic"
      ],
      "duration": 18,
      "price": 8.7,
      "xiaohongshuId": "61d85fe200000000010284ad"
    },
    {
      "id": "yangsheng-babaozhou",
      "type": "cookbook",
      "shortDate": "2021-12-04",
      "title": "省钱菜单：天冷舒服！0.8元/碗的养生八宝粥（2h）",
      "desc": "因为打算下午爬山的时候挑战一下另外一条比较陡峭的小路，担心回来没精力做饭，刚好家里有糯米，早上出去超市顺便买了点配好的杂粮（有黑米、紫薯干、红扁豆挺多料），再搭配点花生，一起浸泡了有两个小时。",
      "keywords": "潮汕美食,八宝粥",
      "date": "2021-12-04 20:10:00",
      "cover": "http://cdn.chengpeiquan.com/img/2022/01/20220114235441.jpg?x-oss-process=image/interlace,1",
      "categories": [
        "thrift",
        "teochew",
        "orthodontic",
        "beginner"
      ],
      "duration": 120,
      "price": 0.8,
      "xiaohongshuId": "61ab5ad000000000010296c8"
    },
    {
      "id": "roujiang-shuidoufu",
      "type": "cookbook",
      "shortDate": "2021-10-14",
      "title": "省钱菜谱：3.5元的肉酱水豆腐（10min）",
      "desc": "哈哈哈哈哈我发现做饭跟敲代码真是异曲同工，敲代码经常会涉及到封装和复用，做菜也是，前几天做那个肉酱猪肠粉的时候对那个肉酱念念不忘，今晚骑车回来的时候，路上就想到要不我再复用一下，换个食材搞事情，于是想起了豆腐，果然，超好吃！！！",
      "keywords": "肉酱水豆腐,肉酱豆腐,水豆腐",
      "date": "2021-10-14 23:59:00",
      "cover": "http://cdn.chengpeiquan.com/img/2022/02/20220204163435.jpg?x-oss-process=image/interlace,1",
      "categories": [
        "thrift",
        "orthodontic"
      ],
      "duration": 10,
      "price": 3.5,
      "xiaohongshuId": "616853c7000000002103bd72",
      "cite": [
        "xianmei-roujiang-zhuchangfen"
      ]
    },
    {
      "id": "xianmei-roujiang-zhuchangfen",
      "type": "cookbook",
      "shortDate": "2021-10-14",
      "title": "省钱菜谱：3.3元的鲜美肉酱猪肠粉（5min）",
      "desc": "今晚看到档口还有最后一份猪肠粉，又馋小吃了，哈哈哈买了做了个肉酱猪肠粉当晚餐！7点多就吃完晚餐了，因为朋友准备领养两只小奶猫，在给她分享一些养猫的事情，所以耽搁到现在才来发哈哈哈哈！你们都睡了吧，我也准备发完就睡觉！",
      "keywords": "鲜美肉酱猪肠粉,猪肠粉,肉酱猪肠粉",
      "date": "2021-10-14 00:11:00",
      "cover": "http://cdn.chengpeiquan.com/img/2022/02/20220204170111.jpg?x-oss-process=image/interlace,1",
      "categories": [
        "thrift",
        "bento",
        "staple",
        "orthodontic"
      ],
      "duration": 5,
      "price": 3.3,
      "xiaohongshuId": "616466ae000000000102915f",
      "cite": [
        "roujiang-shuidoufu"
      ]
    }
  ]
}