{
  "author": {
    "name": "chengpeiquan",
    "email": "chengpeiquan@chengpeiquan.com",
    "link": "https://chengpeiquan.com"
  },
  "type": "cookbook",
  "total": 136,
  "page": 3,
  "lastPage": 14,
  "category": "default",
  "data": [
    {
      "id": "baizhou-lin-jiangyou",
      "type": "cookbook",
      "shortDate": "2022-08-11",
      "title": "😂难受时最爱的晚餐：潮州特色·南时油",
      "desc": "hhhhh “南时油” 是潮州话的读音，实际上就是白粥淋酱油，超级简单！煮碗白粥，淋上两勺酱油就超级无敌美味！！！特别适合身体不舒服的时候吃！",
      "keywords": "南时油,白粥淋酱油",
      "date": "2022-08-11 22:50:00",
      "cover": "http://cdn.chengpeiquan.com/img/2022/08/20220814004625.jpg?x-oss-process=image/interlace,1",
      "categories": [
        "teochew",
        "staple",
        "orthodontic",
        "beginner"
      ],
      "duration": 1,
      "price": 0.5,
      "xiaohongshuId": "62f517520000000012027571"
    },
    {
      "id": "donggua-paigu-tang",
      "type": "cookbook",
      "shortDate": "2022-08-07",
      "title": "天热消暑！煲个冬瓜排骨汤（1h）",
      "desc": "-0- 今天感觉有点上火，可惜附近没有凉茶店（也不是完全没有，配送费 7 块钱实在太贵…），不然一瓶癍痧凉茶就很爽了！所以今晚煲个冬瓜汤来吃吃！",
      "keywords": "冬瓜排骨汤,冬瓜汤,排骨汤",
      "date": "2022-08-07 20:47:00",
      "cover": "http://cdn.chengpeiquan.com/img/2022/08/20220807205511.jpg?x-oss-process=image/interlace,1",
      "categories": [
        "soup",
        "beginner",
        "teochew"
      ],
      "duration": 60,
      "price": 25,
      "xiaohongshuId": "62efb47100000000150097cb"
    },
    {
      "id": "jinzhengu-feiniu-fanqie-tang",
      "type": "cookbook",
      "shortDate": "2022-07-31",
      "title": "金针菇肥牛番茄汤（10min）",
      "desc": "这个周末热到开着空调也要打赤膊了…然后因为长发贴着后背，才发现我的头发已经过腰了！！！虽然只有最中间的那一撮…",
      "keywords": "金针菇肥牛番茄汤,番茄肥牛,肥牛",
      "date": "2022-07-31 21:19:00",
      "cover": "http://cdn.chengpeiquan.com/img/2022/07/20220731213919.jpg?x-oss-process=image/interlace,1",
      "categories": [
        "soup",
        "beginner"
      ],
      "duration": 10,
      "price": 20,
      "xiaohongshuId": "62e68177000000000e029521"
    },
    {
      "id": "shajiang-shousi-jitui",
      "type": "cookbook",
      "shortDate": "2022-07-23",
      "title": "省钱菜谱：11.5元的沙姜手撕鸡腿（35min）",
      "desc": "今晚做个沙姜鸡腿，沙姜的味道和普通的生姜是不一样的，粤菜挺常用的，沙姜鸡、沙姜猪手啥的，因为冰箱里有上周买的冷冻琵琶腿，所以先搞个鸡来吃吃~",
      "keywords": "沙姜手撕鸡腿,沙姜鸡腿,沙姜鸡",
      "date": "2022-07-23 21:25:00",
      "cover": "http://cdn.chengpeiquan.com/img/2022/07/20220723213517.jpg?x-oss-process=image/interlace,1",
      "categories": [
        "thrift",
        "teochew",
        "beginner",
        "bento"
      ],
      "duration": 35,
      "price": 11.5,
      "xiaohongshuId": "62dbf6ce000000001b03cbbf"
    },
    {
      "id": "yangcongsi-chao-feiniu",
      "type": "cookbook",
      "shortDate": "2022-07-17",
      "title": "黑椒蚝油洋葱丝炒肥牛（15min）",
      "desc": "话说我现在住的这层楼和楼上楼下的邻居，我感觉素质都是相当的好，回广州这一个多月非常非常非常的安静，住的非常的清心！虽然我知道有好几个家庭还有小孩子（有一天上班在电梯里还被邻居小妹妹碰了碰我的文身然后问我，叔叔你手上是一只猫猫吗，我说是，我养了三只大猫猫），但真的很安静。",
      "keywords": "洋葱丝,肥牛",
      "date": "2022-07-17 15:17:00",
      "cover": "http://cdn.chengpeiquan.com/img/2022/07/20220717214257.jpg?x-oss-process=image/interlace,1",
      "categories": [
        "beginner"
      ],
      "duration": 15,
      "price": 18,
      "xiaohongshuId": "62d3b788000000000e032516"
    },
    {
      "id": "liangban-shacha-feiniu",
      "type": "cookbook",
      "shortDate": "2022-07-17",
      "title": "凉拌沙茶肥牛（5min）",
      "desc": "今晚还是吃肥牛！不过换了一个做法，做成了凉拌！",
      "keywords": "沙茶肥牛,凉拌肥牛,肥牛",
      "date": "2022-07-17 02:44:00",
      "cover": "http://cdn.chengpeiquan.com/img/2022/07/20220717214204.jpg?x-oss-process=image/interlace,1",
      "categories": [
        "bento",
        "teochew",
        "beginner"
      ],
      "duration": 5,
      "price": 15,
      "xiaohongshuId": "62d306fd000000002103f7fe"
    },
    {
      "id": "jinzhengu-fanqie-feiniu-mian",
      "type": "cookbook",
      "shortDate": "2022-07-17",
      "title": "金针菇番茄肥牛面（15min）",
      "desc": "在“失踪”了三周之后，我终于又有点时间做饭了… 忙飞了最近，上周末本来想做饭的，结果又回公司加了一天班，所以又没做哈哈哈哈 -0-",
      "keywords": "金针菇番茄肥牛面,番茄肥牛面,肥牛",
      "date": "2022-07-17 02:30:00",
      "cover": "http://cdn.chengpeiquan.com/img/2022/07/20220717215801.jpg?x-oss-process=image/interlace,1",
      "categories": [
        "bento",
        "beginner"
      ],
      "duration": 15,
      "price": 20,
      "xiaohongshuId": "62d303be0000000011011bb1"
    },
    {
      "id": "shachajiang-bian-jiding",
      "type": "cookbook",
      "shortDate": "2022-06-25",
      "title": "省钱菜谱：6.5元的沙茶酱煸鸡丁（6min）",
      "desc": "上周末买的鸡胸肉，今天才有时间做哈哈哈哈… 我现在工作日做不了饭了，虽然新公司还是一如既往的可以 6 点半下班，但从天河回到黄埔，怎么快也要差不多 8 点到家，加上最近赶 App 版本开发，每天也会再加加班，所以现在都是在公司先吃完饭再回来了。",
      "keywords": "潮州美食,沙茶酱煸鸡丁",
      "date": "2022-06-25 16:50:00",
      "cover": "http://cdn.chengpeiquan.com/img/2022/06/20220625180935.jpg?x-oss-process=image/interlace,1",
      "categories": [
        "thrift",
        "bento",
        "teochew"
      ],
      "duration": 6,
      "price": 6.5,
      "xiaohongshuId": "62b6cc6b000000000102feda"
    },
    {
      "id": "tian-qiugualao",
      "type": "cookbook",
      "shortDate": "2022-06-19",
      "title": "省钱菜谱：3块钱的潮州甜款秋瓜烙（10min）",
      "desc": "今天做个秋瓜烙，做法还是之前在潮州跟我妈学的，秋瓜烙有甜口味也有咸口味，今天做个甜的，配杯茶一起吃很赞哈哈哈哈哈哈哈…",
      "keywords": "潮州小吃,潮汕小吃,潮州秋瓜烙,潮汕秋瓜烙",
      "date": "2022-06-19 22:16:00",
      "cover": "http://cdn.chengpeiquan.com/img/2022/06/20220625183437.jpg?x-oss-process=image/interlace,1",
      "categories": [
        "thrift",
        "staple",
        "teochew"
      ],
      "duration": 5,
      "price": 1.8,
      "xiaohongshuId": "62af2fca000000000102bf27"
    },
    {
      "id": "chaozhou-sunjiao",
      "type": "cookbook",
      "shortDate": "2022-06-12",
      "title": "在广州新家做的第一顿晚餐：潮州笋饺",
      "desc": "回广州刚好半个月了，回来的第二天就被抓去新公司上班，所以收拾新家收拾了一周，上周端午假期也是一直在收拾，这个周末才开始正式在新家做饭了！！！",
      "keywords": "潮州小吃,潮汕小吃,潮州饺子,潮汕饺子,潮州笋饺,潮汕笋饺",
      "date": "2022-06-12 01:39:00",
      "cover": "http://cdn.chengpeiquan.com/img/2022/06/20220612015709.jpg?x-oss-process=image/interlace,1",
      "categories": [
        "bento",
        "staple",
        "teochew"
      ],
      "duration": 60,
      "price": 50,
      "xiaohongshuId": "62a4d35f00000000210378fa"
    }
  ]
}