{
  "author": {
    "name": "chengpeiquan",
    "email": "chengpeiquan@chengpeiquan.com",
    "link": "https://chengpeiquan.com"
  },
  "type": "cookbook",
  "total": 84,
  "page": 2,
  "lastPage": 9,
  "category": "teochew",
  "data": [
    {
      "id": "nanru-jiang-jichi",
      "type": "cookbook",
      "shortDate": "2022-12-03",
      "title": "菜谱：鸡翅和酱都很下饭的南乳酱鸡翅（20min）",
      "desc": "今晚做了个南乳酱鸡翅，做法有点像可乐鸡翅，喜欢腐乳味的话可以尝试下！",
      "keywords": "鸡翅,腐乳鸡翅,南乳酱鸡翅",
      "date": "2022-12-03 23:19:00",
      "cover": "http://cdn.chengpeiquan.com/img/2022/12/20221203233821.jpg?x-oss-process=image/interlace,1",
      "categories": [
        "bento",
        "teochew"
      ],
      "duration": 20,
      "price": 20,
      "xiaohongshuId": "638b6902000000001b014234"
    },
    {
      "id": "chaoshan-caitou-jiaozi",
      "type": "cookbook",
      "shortDate": "2022-10-23",
      "title": "菜谱：鲜甜可口的潮式菜头饺（60min）",
      "desc": "“菜头”在潮州话里是指萝卜，不带颜色就默认是白色，像胡萝卜就会带上颜色称为“红菜头”，所以来潮州看到说“白菜头”不要以为是白菜的头哈哈哈哈，两者毫无关系~",
      "keywords": "菜头饺,白萝卜饺子,潮汕饺子",
      "date": "2022-10-23 21:16:00",
      "cover": "http://cdn.chengpeiquan.com/img/2022/10/20221023212711.jpg?x-oss-process=image/interlace,1",
      "categories": [
        "thrift",
        "teochew",
        "staple"
      ],
      "duration": 60,
      "price": 24,
      "xiaohongshuId": "63553ebf0000000014034a2a"
    },
    {
      "id": "chaoshan-yuwan-mian",
      "type": "cookbook",
      "shortDate": "2022-09-12",
      "title": "菜谱：简简单单的潮汕鱼丸面（10min）",
      "desc": "昨天打边炉还剩了一些丸子，今晚煮个鱼丸面，潮汕的鱼丸也很好吃！",
      "keywords": "潮汕美食,潮汕鱼丸面",
      "date": "2022-09-12 20:26:00",
      "cover": "http://cdn.chengpeiquan.com/img/2022/09/20220912203715.jpg?x-oss-process=image/interlace,1",
      "categories": [
        "teochew",
        "beginner"
      ],
      "duration": 10,
      "price": 25,
      "xiaohongshuId": "631f2571000000000801cf84"
    },
    {
      "id": "baocaisi-chao-guotiao",
      "type": "cookbook",
      "shortDate": "2022-08-27",
      "title": "省钱菜谱：3.5元的包菜丝炒粿条（5min）",
      "desc": "下午物业在小区里举办了一个沙井盖美化的活动，好多小朋友画了很可爱的图案，有我喜欢的哆啦A梦和海绵宝宝哈哈哈哈，居然还有滑稽表情，也解决了我住了三个月以来的疑惑，哈哈哈哈我就说怎么看到有一些沙井盖还有图案，是有人偷偷去画的还是咋地，原来是物业组织的，好玩！",
      "keywords": "潮州,潮州卤水,包菜丝炒粿条,炒粿条",
      "date": "2022-08-27 22:20:00",
      "cover": "http://cdn.chengpeiquan.com/img/2022/08/20220827223411.jpg?x-oss-process=image/interlace,1",
      "categories": [
        "thrift",
        "beginner",
        "bento",
        "teochew",
        "staple"
      ],
      "duration": 5,
      "price": 3.5,
      "xiaohongshuId": "630a282a000000001902aa22"
    },
    {
      "id": "wawacai-fensi-men-roupi",
      "type": "cookbook",
      "shortDate": "2022-08-13",
      "title": "娃娃菜粉丝焖肉皮（15min）",
      "desc": "今晚做个娃娃菜粉丝焖肉皮，也是潮州老家的特色做法，最近买了砂暴肉皮（之前是油炸的），虽然贵了好多，但确实是更好吃！这道菜做法简单，就是备料的时间比较久，都是需要花时间提前浸泡。",
      "keywords": "娃娃菜粉丝焖肉皮,潮州肉皮",
      "date": "2022-08-13 22:32:00",
      "cover": "http://cdn.chengpeiquan.com/img/2022/08/20220814001629.jpg?x-oss-process=image/interlace,1",
      "categories": [
        "teochew",
        "beginner"
      ],
      "duration": 15,
      "price": 15,
      "xiaohongshuId": "62f7b611000000001603686d"
    },
    {
      "id": "baizhou-lin-jiangyou",
      "type": "cookbook",
      "shortDate": "2022-08-11",
      "title": "😂难受时最爱的晚餐：潮州特色·南时油",
      "desc": "hhhhh “南时油” 是潮州话的读音，实际上就是白粥淋酱油，超级简单！煮碗白粥，淋上两勺酱油就超级无敌美味！！！特别适合身体不舒服的时候吃！",
      "keywords": "南时油,白粥淋酱油",
      "date": "2022-08-11 22:50:00",
      "cover": "http://cdn.chengpeiquan.com/img/2022/08/20220814004625.jpg?x-oss-process=image/interlace,1",
      "categories": [
        "teochew",
        "staple",
        "orthodontic",
        "beginner"
      ],
      "duration": 1,
      "price": 0.5,
      "xiaohongshuId": "62f517520000000012027571"
    },
    {
      "id": "donggua-paigu-tang",
      "type": "cookbook",
      "shortDate": "2022-08-07",
      "title": "天热消暑！煲个冬瓜排骨汤（1h）",
      "desc": "-0- 今天感觉有点上火，可惜附近没有凉茶店（也不是完全没有，配送费 7 块钱实在太贵…），不然一瓶癍痧凉茶就很爽了！所以今晚煲个冬瓜汤来吃吃！",
      "keywords": "冬瓜排骨汤,冬瓜汤,排骨汤",
      "date": "2022-08-07 20:47:00",
      "cover": "http://cdn.chengpeiquan.com/img/2022/08/20220807205511.jpg?x-oss-process=image/interlace,1",
      "categories": [
        "soup",
        "beginner",
        "teochew"
      ],
      "duration": 60,
      "price": 25,
      "xiaohongshuId": "62efb47100000000150097cb"
    },
    {
      "id": "shajiang-shousi-jitui",
      "type": "cookbook",
      "shortDate": "2022-07-23",
      "title": "省钱菜谱：11.5元的沙姜手撕鸡腿（35min）",
      "desc": "今晚做个沙姜鸡腿，沙姜的味道和普通的生姜是不一样的，粤菜挺常用的，沙姜鸡、沙姜猪手啥的，因为冰箱里有上周买的冷冻琵琶腿，所以先搞个鸡来吃吃~",
      "keywords": "沙姜手撕鸡腿,沙姜鸡腿,沙姜鸡",
      "date": "2022-07-23 21:25:00",
      "cover": "http://cdn.chengpeiquan.com/img/2022/07/20220723213517.jpg?x-oss-process=image/interlace,1",
      "categories": [
        "thrift",
        "teochew",
        "beginner",
        "bento"
      ],
      "duration": 35,
      "price": 11.5,
      "xiaohongshuId": "62dbf6ce000000001b03cbbf"
    },
    {
      "id": "liangban-shacha-feiniu",
      "type": "cookbook",
      "shortDate": "2022-07-17",
      "title": "凉拌沙茶肥牛（5min）",
      "desc": "今晚还是吃肥牛！不过换了一个做法，做成了凉拌！",
      "keywords": "沙茶肥牛,凉拌肥牛,肥牛",
      "date": "2022-07-17 02:44:00",
      "cover": "http://cdn.chengpeiquan.com/img/2022/07/20220717214204.jpg?x-oss-process=image/interlace,1",
      "categories": [
        "bento",
        "teochew",
        "beginner"
      ],
      "duration": 5,
      "price": 15,
      "xiaohongshuId": "62d306fd000000002103f7fe"
    },
    {
      "id": "shachajiang-bian-jiding",
      "type": "cookbook",
      "shortDate": "2022-06-25",
      "title": "省钱菜谱：6.5元的沙茶酱煸鸡丁（6min）",
      "desc": "上周末买的鸡胸肉，今天才有时间做哈哈哈哈… 我现在工作日做不了饭了，虽然新公司还是一如既往的可以 6 点半下班，但从天河回到黄埔，怎么快也要差不多 8 点到家，加上最近赶 App 版本开发，每天也会再加加班，所以现在都是在公司先吃完饭再回来了。",
      "keywords": "潮州美食,沙茶酱煸鸡丁",
      "date": "2022-06-25 16:50:00",
      "cover": "http://cdn.chengpeiquan.com/img/2022/06/20220625180935.jpg?x-oss-process=image/interlace,1",
      "categories": [
        "thrift",
        "bento",
        "teochew"
      ],
      "duration": 6,
      "price": 6.5,
      "xiaohongshuId": "62b6cc6b000000000102feda"
    }
  ]
}