{
  "author": {
    "name": "chengpeiquan",
    "email": "chengpeiquan@chengpeiquan.com",
    "link": "https://chengpeiquan.com"
  },
  "type": "article",
  "total": 19,
  "page": 2,
  "lastPage": 2,
  "category": "prose",
  "data": [
    {
      "id": "cookbook-safe",
      "type": "article",
      "shortDate": "2022-02-15",
      "title": "厨房安全科普",
      "desc": "科普一些常见的安全问题，对厨房比较陌生的朋友可以了解一下！",
      "keywords": "小程序,菜谱小程序,厨房安全,厨房注意事项",
      "date": "2022-02-15 06:02:14",
      "cover": "http://cdn.chengpeiquan.com/img/2022/01/20220215133323.jpg?x-oss-process=image/interlace,1",
      "categories": [
        "prose"
      ],
      "isDraft": true,
      "simplify": true
    },
    {
      "id": "yidi-guonian",
      "type": "article",
      "shortDate": "2022-01-24",
      "title": "异地过年指南",
      "desc": "最近刷到好多小伙伴在说今年要留深圳/广州回不去，外卖到时又很贵，很纠结过年怎么办。我原本想着要不今年回去吧，我去年没回，结果前几天疫情每天都在+1，我妈倒是挺直接的叫我别回了，哈哈哈哈（正合我意呢），所以今年又在外面自己过年。",
      "keywords": "过年,一个人过年,过年怎么准备",
      "date": "2022-01-24 02:40:00",
      "cover": "http://cdn.chengpeiquan.com/img/2022/01/20220123233134.jpg?x-oss-process=image/interlace,1",
      "categories": [
        "prose"
      ],
      "xiaohongshuId": "61ed309f000000000102b14f",
      "simplify": true
    },
    {
      "id": "a-week-time-of-a-markdown-engineer",
      "type": "article",
      "shortDate": "2022-01-22",
      "title": "Markdown工程师的一周",
      "desc": "马上就快过年了，最近才比较有时间把之前很多想搞一直没时间搞的东西弄一下，比如说最近一周在干的事情就是，补各种文档。我是没想到我一周能敲差不多 25 个小时的 Markdown … 几乎一天有 5 个小时在码字，天了噜…",
      "keywords": "markdown,markdown engineer,markdown ppt,engineer ppt",
      "date": "2022-01-22 07:23:00",
      "cover": "http://cdn.chengpeiquan.com/img/2022/01/20220121232301.jpg?x-oss-process=image/interlace,1",
      "categories": [
        "tech",
        "prose"
      ]
    },
    {
      "id": "2021-year-end-summary",
      "type": "article",
      "shortDate": "2021-12-31",
      "title": "年终总结：2021年的一些回顾和2022年的一些小规划",
      "desc": "可真快啊又是一年年底了，虽然这一年博客没发几篇文章，不过整体的活跃情况其实是提升了，个人的变化也还是蛮大的，今年记忆比较深刻的事情有几件，让我梳理回顾一下。",
      "keywords": "2021 year end summary",
      "date": "2021-12-31 23:45:00",
      "cover": "http://cdn.chengpeiquan.com/img/2022/01/20220103234636.jpg?x-oss-process=image/interlace,1",
      "categories": [
        "prose"
      ],
      "cite": [
        "2022-year-end-summary"
      ]
    },
    {
      "id": "reclassify-articles",
      "type": "article",
      "shortDate": "2021-03-16",
      "title": "对文章又重新做了一次分类",
      "desc": "时隔两年，改版的时候去掉了分类，想了想，还是加回来吧，又把所有内容重新分了个类。",
      "keywords": "原生JS回到顶部,原生JS带动画回到顶部",
      "date": "2021-03-16 09:17:00",
      "cover": "http://cdn.chengpeiquan.com/img/2021/03/20210316221139.jpg?x-oss-process=image/interlace,1",
      "categories": [
        "prose"
      ]
    },
    {
      "id": "my-netease",
      "type": "article",
      "shortDate": "2020-06-15",
      "title": "记录一下在网易五年来的工作与生活",
      "desc": "虽然加班很多，但回顾起来，工作内外还是很快乐的！",
      "keywords": "网易,在网易工作是什么体验,网易游戏",
      "date": "2020-06-15 00:48:00",
      "cover": "http://cdn.chengpeiquan.com/img/2021/05/20210509201311.jpg?x-oss-process=image/interlace,1",
      "categories": [
        "prose"
      ],
      "repo": "https://github.com/chengpeiquan/my-netease"
    },
    {
      "id": "blog-articles-sort-out",
      "type": "article",
      "shortDate": "2019-09-15",
      "title": "对博客的文章重新做了一下归类和整理",
      "desc": "最近几个月比较忙，虽然没怎么更新博客，不过还是保留着随手记笔记的习惯，也就是遇到坑啊或者一些觉得值得记录的东西，会随手简单的写到备忘录，等有空的时候再更新上来。恰逢中秋小长假，终于闲下来看一下博客了，没想到最近一个多月每天都还是有不少人来看，大部分是搜索过来的，而且搜的关键词，就是当初我遇到的那些坑！",
      "keywords": "博客归类,博客文章分类",
      "date": "2019-09-15 09:35:00",
      "cover": "http://cdn.chengpeiquan.com/img/2019/09/1-3.jpg?x-oss-process=image/interlace,1",
      "categories": [
        "prose"
      ]
    },
    {
      "id": "css-conf-5",
      "type": "article",
      "shortDate": "2019-03-31",
      "title": "第五届CSS开发者大会：我的第一次参加开发者大会",
      "desc": "2019年3月30日，在深圳，看了几年张老师的博客，今天终于见到大神真人，开心！",
      "keywords": "CSS Conf,CSS开发者大会",
      "date": "2019-03-31 07:59:59",
      "cover": "http://cdn.chengpeiquan.com/img/2021/09/20210920173259.jpg?x-oss-process=image/interlace,1",
      "categories": [
        "prose"
      ]
    },
    {
      "id": "hello-world",
      "type": "article",
      "shortDate": "2018-09-02",
      "title": "世界，您好！",
      "desc": "这是这次博客的第一篇文章，不是历史以来的第一篇。以前也在这个域名下搭过一次WordPress，但后来写的东西有点杂，而且觉得以前记录的问题已经都不是什么问题了，所以在之前的新浪云到期之后，果断就舍弃了。",
      "keywords": "hello world",
      "date": "2018-09-02 22:19:00",
      "cover": "http://cdn.chengpeiquan.com/img/2018/09/1.jpg?x-oss-process=image/interlace,1",
      "categories": [
        "prose"
      ]
    }
  ]
}