{
  "author": {
    "name": "chengpeiquan",
    "email": "chengpeiquan@chengpeiquan.com",
    "link": "https://chengpeiquan.com"
  },
  "type": "cookbook",
  "total": 136,
  "page": 1,
  "lastPage": 14,
  "category": "default",
  "data": [
    {
      "id": "caishen-zhushou",
      "type": "cookbook",
      "shortDate": "2024-02-15",
      "title": "菜谱：一年一度的仪式感 正月初五的财神猪手（1.5h）",
      "desc": "今天正月初五，接财神，每年今天的仪式感都是做只猪手哈哈哈哈，发财就手～今天是高压锅版，如果没有高压锅也可以用隔水炖或者电饭煲来炖猪手。",
      "keywords": "潮州猪手,潮汕猪手,潮州卤猪手,财神猪手",
      "date": "2024-02-15 06:56:00",
      "cover": "http://cdn.chengpeiquan.com/img/2024/02/202402180015053.jpg?x-oss-process=image/interlace,1",
      "categories": [
        "thrift",
        "staple",
        "teochew",
        "bento"
      ],
      "duration": 90,
      "price": 33,
      "xiaohongshuId": "65ccd49d000000000b00f337"
    },
    {
      "id": "chaoshan-xiyangcai-roupian-tang",
      "type": "cookbook",
      "shortDate": "2023-08-27",
      "title": "菜谱：西洋蔡同奀妹，简单的潮汕促肉汤（5min）",
      "desc": "今天来一个西洋菜焯肉片汤，潮汕人很爱吃的“促肉”汤（焯肉），除去把水煮开的时间，中间真正煮食材的时间也就不到 2 分钟，真的很快哈哈哈哈。至于今天这个名字，《七十二家房客》都看过吧？每次看到西洋菜，我就想到里面的“西洋蔡”，然后西洋蔡又和奀妹在一起，所以这道汤我就起名“西洋蔡同奀妹”啦（奀妹：？？？）",
      "keywords": "西洋蔡同奀妹,潮汕促肉汤,西洋菜焯肉片汤",
      "date": "2023-08-27 23:38:00",
      "cover": "http://cdn.chengpeiquan.com/img/2023/08/20230827164050.jpg?x-oss-process=image/interlace,1",
      "categories": [
        "thrift",
        "teochew",
        "soup"
      ],
      "duration": 5,
      "price": 9,
      "xiaohongshuId": "64eafed6000000001700e4d2"
    },
    {
      "id": "chaozhou-roudong",
      "type": "cookbook",
      "shortDate": "2023-06-19",
      "title": "菜谱：潮汕凉菜之潮州肉冻（1.5h）",
      "desc": "哈哈哈哈哈天气热就想吃凉菜，潮汕地区也有自己的凉菜（虽然在广州和深圳的外卖基本上买不到…），今天的潮州肉冻也是其中之一，我妈妈时不时会买，有时她也会自己做，我这次也是凭着十几岁那会帮她打下手时留下的记忆把潮州肉冻做了出来，竟然没有记错哈哈哈…",
      "keywords": "潮州肉冻,潮州小吃,潮汕凉菜,潮汕小吃",
      "date": "2023-06-19 05:08:00",
      "cover": "http://cdn.chengpeiquan.com/img/2023/06/20230618212009.jpg?x-oss-process=image/interlace,1",
      "categories": [
        "teochew",
        "thrift",
        "beginner"
      ],
      "duration": 90,
      "price": 20.7,
      "xiaohongshuId": "648f01ba0000000013004f8d"
    },
    {
      "id": "nanru-kaorou-juan-shengcai",
      "type": "cookbook",
      "shortDate": "2023-05-01",
      "title": "省钱菜谱：5.4元的南乳烤肉卷生菜（20min）",
      "desc": "今天搞个南乳烤肉，之前几次我叫它腐乳的时候老是被问不是白色才是腐乳吗，这个其实也是啊，有红色也有白色，像我家那边说腐乳汁就是指这种红色的，当然有的地方更习惯叫它南乳，我也用南乳来叫它吧，减少歧义哈哈哈哈~",
      "keywords": "潮汕美食,清汤面",
      "date": "2023-05-01 07:32:00",
      "cover": "http://cdn.chengpeiquan.com/img/2023/05/20230430234407.jpg?x-oss-process=image/interlace,1",
      "categories": [
        "thrift",
        "bento",
        "teochew",
        "beginner"
      ],
      "duration": 20,
      "price": 5.4,
      "xiaohongshuId": "644e8a260000000027012696"
    },
    {
      "id": "qincai-xianggu-xianrou-yuntun",
      "type": "cookbook",
      "shortDate": "2023-04-03",
      "title": "省钱菜谱：3.25元/碗的芹菜香菇鲜肉云吞（20min）",
      "desc": "今天这个菜谱是上周的，上周末包了芹菜香菇云吞，今天才来整理哈哈哈哈哈。",
      "keywords": "芹菜香菇鲜肉云吞,香菇肉云吞,芹菜肉云吞",
      "date": "2023-04-03 03:06:00",
      "cover": "http://cdn.chengpeiquan.com/img/2023/04/20230402223302.jpg?x-oss-process=image/interlace,1",
      "categories": [
        "thrift",
        "staple",
        "teochew"
      ],
      "duration": 20,
      "price": 3.25,
      "xiaohongshuId": "642961a0000000000703afe9"
    },
    {
      "id": "yuntun-dabao-cunchu-xiaojiqiao",
      "type": "cookbook",
      "shortDate": "2023-03-13",
      "title": "包好近百个云吞后，打包存储的小技巧",
      "desc": "每次包云吞动不动就是六七十个，一个人肯定一顿吃不完，要放冰箱速冻起来。",
      "keywords": "生活小妙招,打包小技巧,打包存储云吞技巧",
      "date": "2023-03-13 07:24:00",
      "cover": "http://cdn.chengpeiquan.com/img/2023/03/20230312234446.jpg?x-oss-process=image/interlace,1",
      "categories": [
        "clever"
      ],
      "duration": 0,
      "price": 0,
      "xiaohongshuId": "640dee950000000013037d85"
    },
    {
      "id": "muer-chaorou",
      "type": "cookbook",
      "shortDate": "2023-03-03",
      "title": "菜谱：简易版木耳炒肉（5min）",
      "desc": "今天分享一个木耳炒肉，过年的时候好朋友兼好邻居送了我一袋木耳，好好吃哈哈哈哈！",
      "keywords": "木耳炒肉,黑木耳炒肉片",
      "date": "2023-03-03 08:11:00",
      "cover": "http://cdn.chengpeiquan.com/img/2023/02/20230303145446.jpg?x-oss-process=image/interlace,1",
      "categories": [
        "thrift",
        "beginner"
      ],
      "duration": 5,
      "price": 6,
      "xiaohongshuId": "640195370000000013011c7b"
    },
    {
      "id": "gali-chaofan",
      "type": "cookbook",
      "shortDate": "2023-02-05",
      "title": "菜谱：超简单的咖喱炒饭（5min）",
      "desc": "咖喱炒饭也是我很喜欢吃的一个炒法，过程超简单！就是在普通蛋炒饭的基础上，上色步骤将生抽酱油换成咖喱粉就行！",
      "keywords": "潮汕美食,咖喱炒饭,炒饭",
      "date": "2023-02-05 04:36:00",
      "cover": "http://cdn.chengpeiquan.com/img/2023/02/20230204204833.jpg?x-oss-process=image/interlace,1",
      "categories": [
        "thrift",
        "teochew",
        "staple",
        "beginner"
      ],
      "duration": 5,
      "price": 1.8,
      "xiaohongshuId": "63de514b000000001d012d21"
    },
    {
      "id": "chaoshan-baicai-xianrou-jiaozi",
      "type": "cookbook",
      "shortDate": "2023-01-22",
      "title": "菜谱：口感细腻的白菜鲜肉饺子v2版（1h）",
      "desc": "祝大家新年快乐！新的一年身体健康，事事如意！今天除夕，中午包顿饺子！前段时间研究了馅料的新的加工方式，虽然花的时间比平时的饺子馅要多一点，但做出来的饺子有薄皮小笼包的感觉，口感非常细腻，特别好吃！！！",
      "keywords": "白菜饺,潮式白菜饺子,潮汕饺子",
      "date": "2023-01-22 01:05:00",
      "cover": "http://cdn.chengpeiquan.com/img/2023/01/20230121233847.jpg?x-oss-process=image/interlace,1",
      "categories": [
        "thrift",
        "teochew",
        "staple"
      ],
      "duration": 60,
      "price": 24,
      "xiaohongshuId": "63cbaaec000000001f00fa5f"
    },
    {
      "id": "fenou-paigu-tang",
      "type": "cookbook",
      "shortDate": "2023-01-21",
      "title": "菜谱：18.5元的粉藕猪肘汤（30min）",
      "desc": "这两天看到猪肘打了个 5 折，半个猪肘 12 块钱，买了份回来煲汤，不过看评价的晒图很明显分量不太大，又机智的买了一份打折的猪腿肉，搭配起来也不错，煲汤的步骤都差不多，这次简单写一写。",
      "keywords": "粉藕猪肘汤,莲藕猪手汤",
      "date": "2023-01-21 00:50:00",
      "cover": "http://cdn.chengpeiquan.com/img/2023/01/20230120171422.jpg?x-oss-process=image/interlace,1",
      "categories": [
        "soup"
      ],
      "duration": 30,
      "price": 18.5,
      "xiaohongshuId": "63ca55e3000000001f010c19",
      "cite": [
        "huasheng-lianou-paigu-tang",
        "huasheng-zhushoutang"
      ]
    }
  ]
}