{
  "author": {
    "name": "chengpeiquan",
    "email": "chengpeiquan@chengpeiquan.com",
    "link": "https://chengpeiquan.com"
  },
  "type": "cookbook",
  "total": 136,
  "page": 11,
  "lastPage": 14,
  "category": "default",
  "data": [
    {
      "id": "chaozhou-xiancai-chao-rousi",
      "type": "cookbook",
      "shortDate": "2021-11-11",
      "title": "省钱菜谱：3元的潮州咸菜炒肉丝（1min）",
      "desc": "今晚回来晚，依然没什么东西买，不过居然看到了“潮州咸菜”……我的家乡小菜啊啊啊！熟悉的感觉！！！六七年前我刚学下厨的时候就经常做这个，因为真的特别简单，又极具家乡风味（虽然我不知道今晚这颗潮州咸菜为什么跑去汕头生产哈哈哈哈哈哈…不过都是胶己人！！！",
      "keywords": "潮州,潮州咸菜,咸菜炒肉丝",
      "date": "2021-11-11 07:23:00",
      "cover": "http://cdn.chengpeiquan.com/img/2022/02/20220203164003.jpg?x-oss-process=image/interlace,1",
      "categories": [
        "thrift",
        "bento",
        "teochew",
        "beginner"
      ],
      "duration": 1,
      "price": 3,
      "xiaohongshuId": "618be40f000000002103d97b"
    },
    {
      "id": "heijiaoroumo-zhuchangfen",
      "type": "cookbook",
      "shortDate": "2021-11-11",
      "title": "省钱菜谱：3.7元的黑椒肉末猪肠粉（5min）",
      "desc": "昨晚加班回去的比较晚，买不到什么菜了，看到还有猪肠粉就买了点，换个料汁来做感觉也不错！",
      "keywords": "猪肠粉,黑椒肉末猪肠粉",
      "date": "2021-11-11 07:23:00",
      "cover": "http://cdn.chengpeiquan.com/img/2022/02/20220203165751.jpg?x-oss-process=image/interlace,1",
      "categories": [
        "thrift",
        "bento",
        "staple"
      ],
      "duration": 5,
      "price": 3.7,
      "xiaohongshuId": "618b528a0000000021038407"
    },
    {
      "id": "tianjiaosi-shacha-roupian",
      "type": "cookbook",
      "shortDate": "2021-11-09",
      "title": "省钱菜谱：6.2元的甜椒丝沙茶肉片（5min）",
      "desc": "哈哈哈哈哈哈我昨晚买到了一个咆哮的甜椒，对半切的时候没想到收获了表情包笑死了！去的晚没什么菜买，不过甜椒也不错，刚好适合中午带饭！！！",
      "keywords": "甜椒丝沙茶肉片,甜椒炒肉,沙茶炒肉",
      "date": "2021-11-09 21:28:00",
      "cover": "http://cdn.chengpeiquan.com/img/2022/02/20220203171233.jpg?x-oss-process=image/interlace,1",
      "categories": [
        "thrift",
        "bento"
      ],
      "duration": 5,
      "price": 6.2,
      "xiaohongshuId": "618a06fb0000000021035aea"
    },
    {
      "id": "huasheng-zhushoutang",
      "type": "cookbook",
      "shortDate": "2021-11-08",
      "title": "两个步骤煲出超级软糯的花生猪手汤（3h）",
      "desc": "立冬啦！虽然深圳今天是30度的冬天，不过明天新的一周还真的是要降温，今天煲个汤先提前暖和暖和哈哈哈哈（刚好傍晚开始就有点凉飕飕了…因为昨天晚上去爬山了，运动量略大，所以今晚煲的是肉量超满足的猪手，超级软糯，几乎入口即化，你看那猪皮，稍微一抖就断了，嗷嗷嗷~汤也是超级鲜甜！！！",
      "keywords": "花生猪手汤,猪手汤,花生猪手",
      "date": "2021-11-08 05:57:00",
      "cover": "http://cdn.chengpeiquan.com/img/2022/02/20220203172535.jpg?x-oss-process=image/interlace,1",
      "categories": [
        "thrift",
        "bento",
        "soup"
      ],
      "duration": 180,
      "price": 0,
      "xiaohongshuId": "6187db60000000002103af12"
    },
    {
      "id": "shacha-xilanhua",
      "type": "cookbook",
      "shortDate": "2021-11-06",
      "title": "省钱菜谱：3元的沙茶西兰花（5min）",
      "desc": "立冬啦！虽然深圳今天是30度的冬天，不过明天新的一周还真的是要降温，今天煲个汤先提前暖和暖和哈哈哈哈（刚好傍晚开始就有点凉飕飕了…因为昨天晚上去爬山了，运动量略大，所以今晚煲的是肉量超满足的猪手，超级软糯，几乎入口即化，你看那猪皮，稍微一抖就断了，嗷嗷嗷~汤也是超级鲜甜！！！",
      "keywords": "沙茶西兰花,西兰花",
      "date": "2021-11-06 22:53:00",
      "cover": "http://cdn.chengpeiquan.com/img/2022/02/20220203173635.jpg?x-oss-process=image/interlace,1",
      "categories": [
        "thrift",
        "bento"
      ],
      "duration": 5,
      "price": 3,
      "xiaohongshuId": "6186264d0000000001029b6f"
    },
    {
      "id": "qingguasi-huotui-chaomian",
      "type": "cookbook",
      "shortDate": "2021-11-06",
      "title": "省钱菜单：4.7元的青瓜丝火腿炒面（10min）",
      "desc": "爽脆可口的青瓜丝，搭配煎过的火腿丝，真好吃！！！",
      "keywords": "青瓜丝火腿炒面,炒面,火腿炒面",
      "date": "2021-11-06 13:44:00",
      "cover": "http://cdn.chengpeiquan.com/img/2022/02/20220203174848.jpg?x-oss-process=image/interlace,1",
      "categories": [
        "thrift",
        "bento",
        "staple"
      ],
      "duration": 10,
      "price": 4.7,
      "xiaohongshuId": "6185a5c2000000002103744b"
    },
    {
      "id": "chaozhou-chao-doufan",
      "type": "cookbook",
      "shortDate": "2021-11-02",
      "title": "省钱菜谱：3.4元的潮州炒豆饭（10min）",
      "desc": "炒豆饭，也是我家比较常做的炒饭之一，也是以前还在潮州家里的时候我妈经常做给我吃的炒饭品类的其中一种。",
      "keywords": "潮州炒饭,豆角炒饭,潮州炒豆饭",
      "date": "2021-11-02 05:40:00",
      "cover": "http://cdn.chengpeiquan.com/img/2022/02/20220203180355.jpg?x-oss-process=image/interlace,1",
      "categories": [
        "thrift",
        "bento",
        "staple",
        "teochew"
      ],
      "duration": 10,
      "price": 3.4,
      "xiaohongshuId": "617fee5b0000000021038882"
    },
    {
      "id": "roupian-chao-baocaisi",
      "type": "cookbook",
      "shortDate": "2021-11-01",
      "title": "省钱菜谱：2.2元的肉片炒包菜丝（5min）",
      "desc": "买的下午3点多的高铁，回到深圳住的地方还不到6点，来回还是蛮方便的，还赶得上做个晚餐，今晚简单一点，炒了个包菜丝。",
      "keywords": "肉片炒包菜丝,包菜炒肉",
      "date": "2021-11-01 06:02:00",
      "cover": "http://cdn.chengpeiquan.com/img/2022/02/20220203181229.jpg?x-oss-process=image/interlace,1",
      "categories": [
        "thrift",
        "teochew"
      ],
      "duration": 5,
      "price": 2.2,
      "xiaohongshuId": "617ea611000000002103e52d"
    },
    {
      "id": "baicaisi-haoyou-chaomian",
      "type": "cookbook",
      "shortDate": "2021-10-29",
      "title": "省钱菜谱：3.6元的包菜丝蚝油炒面（10min）",
      "desc": "我最近菜谱发的比较少是因为工作忙了，项目工期最近有点紧，天天加班，11月估计大部分时间也是这样，老板给的工期是11月底要出版本，所以，最近没有太多时间好好做饭，我这几天都是做一些豉油猪肉、榨菜炒肉这样的超快速出餐的菜品…哈哈哈哈不过答应过要发的不会忘！前几天说要炒面，今天来了！",
      "keywords": "包菜丝蚝油炒面,包菜炒面",
      "date": "2021-10-29 08:22:00",
      "cover": "http://cdn.chengpeiquan.com/img/2022/02/20220203223718.jpg?x-oss-process=image/interlace,1",
      "categories": [
        "thrift",
        "teochew",
        "bento",
        "staple"
      ],
      "duration": 10,
      "price": 3.6,
      "xiaohongshuId": "617ace5c000000002103e46e"
    },
    {
      "id": "chashao-tangmifen",
      "type": "cookbook",
      "shortDate": "2021-10-25",
      "title": "省钱菜谱：4.5元的叉烧汤米粉（15min）",
      "desc": "昨晚买回来的瘦肉特别的呈圆柱体……我感觉如果不拿来干点啥，直接切肉片似乎有点对不起它，想想好久没吃叉烧了，哈哈哈哈所以我用叉烧酱把它腌制了！！！",
      "keywords": "包菜丝蚝油炒面,包菜炒面",
      "date": "2021-10-25 03:04:00",
      "cover": "http://cdn.chengpeiquan.com/img/2022/02/20220203230110.jpg?x-oss-process=image/interlace,1",
      "categories": [
        "thrift",
        "teochew",
        "staple"
      ],
      "duration": 15,
      "price": 4.5,
      "xiaohongshuId": "61753da9000000000102d6ea",
      "cite": [
        "chaoshan-suantoulao"
      ]
    }
  ]
}