{
  "author": {
    "name": "chengpeiquan",
    "email": "chengpeiquan@chengpeiquan.com",
    "link": "https://chengpeiquan.com"
  },
  "type": "cookbook",
  "total": 136,
  "page": 13,
  "lastPage": 14,
  "category": "default",
  "data": [
    {
      "id": "roumo-yusi-jiaozi",
      "type": "cookbook",
      "shortDate": "2021-10-09",
      "title": "省钱菜谱：0.3元/只的肉末芋丝饺子（60min）",
      "desc": "是我前天晚餐和昨天的午餐和晚餐，蒸饺和煎饺都好吃哈哈哈哈！想做这个是因为那天买的芋头太大个了，剩下的感觉要吃好久，干脆包成饺子！也是潮汕这边比较常见的小吃用料，这个做法是沿袭了我家那边的芋粿、芋丝球（芋丸）、芋丝糕等小吃的做法，做了一点调整。",
      "keywords": "肉末芋丝饺,芋头饺子,芋头煎饺,芋头蒸饺",
      "date": "2021-10-09 21:32:00",
      "cover": "http://cdn.chengpeiquan.com/img/2022/02/20220204181115.jpg?x-oss-process=image/interlace,1",
      "categories": [
        "thrift",
        "teochew",
        "bento",
        "staple"
      ],
      "duration": 60,
      "price": 0.3,
      "xiaohongshuId": "61612968000000002103cd83"
    },
    {
      "id": "chaozhou-guotiaojuan",
      "type": "cookbook",
      "shortDate": "2021-10-06",
      "title": "省钱菜谱：尚！3元一盘的潮州粿条卷（15min）",
      "desc": "哈哈哈前几天做菜脯炒粿条的时候说改天弄一下粿条卷，好久没吃了！也是潮州街头很常见的小吃！不过老家都是用整张的粿条来做（平时买的都是切好的），但是在菜市场问了，我这边买不到，所以今天是用猪肠粉来代替了，你也可以用陈村粉来代替，只要是像这种整张的皮就可以，出门在外，没办法，有些食材确实得这样取巧代替一下。",
      "keywords": "潮州小吃,潮州粿条卷,潮汕小吃",
      "date": "2021-10-06 23:42:00",
      "cover": "http://cdn.chengpeiquan.com/img/2022/02/20220204221005.jpg?x-oss-process=image/interlace,1",
      "categories": [
        "thrift",
        "teochew",
        "bento",
        "staple"
      ],
      "duration": 15,
      "price": 3,
      "xiaohongshuId": "615d5350000000002103db4d",
      "cite": [
        "chaoshan-congzhulao",
        "chaoshan-suantoulao"
      ]
    },
    {
      "id": "chashugu-hongzao-wujitang",
      "type": "cookbook",
      "shortDate": "2021-10-06",
      "title": "煲个又清澈又鲜甜味美的茶树菇红枣乌鸡汤（1.5h）",
      "desc": "想着明天再出去爬山，今晚继续放纵一下哈哈哈哈，煲个乌鸡汤来吃吃！我记得过年的时候我朋友问我，为什么我的鸡汤那么清澈，当时也简单跟她分享过，今晚再煲汤我就在这里记录下过程。",
      "keywords": "茶树菇红枣乌鸡汤,鸡汤,乌鸡汤,茶树菇鸡汤",
      "date": "2021-10-06 06:49:00",
      "cover": "http://cdn.chengpeiquan.com/img/2022/02/20220204223052.jpg?x-oss-process=image/interlace,1",
      "categories": [
        "thrift",
        "teochew",
        "bento",
        "soup"
      ],
      "duration": 90,
      "price": 0,
      "xiaohongshuId": "615c65fb000000002103f694"
    },
    {
      "id": "congzhulao-zhushou-lumian",
      "type": "cookbook",
      "shortDate": "2021-10-04",
      "title": "省钱菜谱：10元的潮汕葱珠朥猪手卤面（10min）",
      "desc": "昨晚说今天中午要吃卤面，哈哈哈搭配我老家那边的另外一种特色调味品 —— 葱珠油，我们那也叫葱珠朥，可好吃了！",
      "keywords": "葱珠油,葱珠朥,猪手面,卤面",
      "date": "2021-10-04 22:28:00",
      "cover": "http://cdn.chengpeiquan.com/img/2022/02/20220225132323.jpg?x-oss-process=image/interlace,1",
      "categories": [
        "thrift",
        "teochew",
        "bento",
        "staple"
      ],
      "duration": 10,
      "price": 10,
      "xiaohongshuId": "615a9f26000000000102b3e4",
      "cite": [
        "chaoshan-congzhulao",
        "chaoshan-luzhushou"
      ]
    },
    {
      "id": "chaoshan-luzhushou",
      "type": "cookbook",
      "shortDate": "2021-10-04",
      "title": "省钱菜谱：25元吃两顿的卤猪手（2.5h）",
      "desc": "昨天爬山运动量还可以，今天上称效果显著啊（根据体重称APP的反馈，补水方面还可以，消耗的主要是脂肪），所以今天放纵一下，卤个猪手，过几天假期结束前再去爬一次山消耗一波~",
      "keywords": "潮州小吃,潮汕小吃,潮州卤猪手,潮汕卤猪手",
      "date": "2021-10-04 06:24:00",
      "cover": "http://cdn.chengpeiquan.com/img/2022/02/20220302003924.jpg?x-oss-process=image/interlace,1",
      "categories": [
        "thrift",
        "teochew",
        "bento"
      ],
      "duration": 150,
      "price": 12.5,
      "xiaohongshuId": "6159bd33000000002103a0e4",
      "cite": [
        "congzhulao-zhushou-lumian"
      ]
    },
    {
      "id": "caifu-chao-guotiao",
      "type": "cookbook",
      "shortDate": "2021-10-04",
      "title": "省钱菜谱：3元的菜脯炒粿条（10min）",
      "desc": "前段时间忘记在哪篇笔记的评论下面在说菜脯，然后我一忙就忘记了，最近又有人评论到菜脯，所以，菜脯，我来啦哈哈哈哈哈哈哈！",
      "keywords": "潮州小吃,潮汕小吃,潮州菜脯炒粿条,潮汕菜脯炒粿条",
      "date": "2021-10-04 00:13:00",
      "cover": "http://cdn.chengpeiquan.com/img/2022/03/20220302132947.jpg?x-oss-process=image/interlace,1",
      "categories": [
        "thrift",
        "staple",
        "teochew",
        "bento"
      ],
      "duration": 10,
      "price": 3,
      "xiaohongshuId": "61596645000000000102f89a"
    },
    {
      "id": "liangban-roupi",
      "type": "cookbook",
      "shortDate": "2021-10-03",
      "title": "省钱菜单：5块钱的凉拌肉皮（60min）",
      "desc": "做完卤肉实在没忍住哈哈哈哈哈哈哈哈哈哈哈哈哈哈哈哈哈哈哈，切了一块卤肉，吃个宵夜！！！这个点最好的搭配就是潮汕粿汁了！！！",
      "keywords": "潮州小吃,潮汕小吃,潮州凉拌肉皮,潮汕凉拌肉皮",
      "date": "2021-10-03 07:04:00",
      "cover": "http://cdn.chengpeiquan.com/img/2022/03/20220302132028.jpg?x-oss-process=image/interlace,1",
      "categories": [
        "thrift",
        "bento",
        "teochew"
      ],
      "duration": 60,
      "price": 5,
      "xiaohongshuId": "6158751b000000000102ae70"
    },
    {
      "id": "hongtang-jidan-mian",
      "type": "cookbook",
      "shortDate": "2021-10-01",
      "title": "省钱菜单：0.6元的红糖鸡蛋面（8min）",
      "desc": "我昨晚熬夜了，今天早上一觉睡到了快12点，我有个习惯，就是不管熬夜多晚，都会定个11点半的闹钟，午餐还是要起来吃的！不过刚起床也没有太多精力搞别的，想起今天祖国的生日，煮个甜面条吧！刚好这个月开启新生活，吃点甜甜的重新开始！",
      "keywords": "潮州小吃,潮汕小吃,红糖鸡蛋面",
      "date": "2021-10-01 20:43:00",
      "cover": "http://cdn.chengpeiquan.com/img/2022/02/20220307001224.jpg?x-oss-process=image/interlace,1",
      "categories": [
        "thrift",
        "staple",
        "teochew",
        "orthodontic"
      ],
      "duration": 8,
      "price": 0.6,
      "xiaohongshuId": "615691f5000000000102e7c5"
    },
    {
      "id": "shengcai-jiandan-mian",
      "type": "cookbook",
      "shortDate": "2021-10-01",
      "title": "省钱菜单：1.1元的生菜煎蛋面（5min）",
      "desc": "今晚解决了上次买的那袋糖心蜜薯的最后一个（上次看着如果一起吃掉有点太多，就留下来了），然后就简简单单再煮个面搭配一下晚餐。",
      "keywords": "潮州小吃,潮汕小吃,生菜煎蛋面",
      "date": "2021-10-01 06:54:00",
      "cover": "http://cdn.chengpeiquan.com/img/2022/02/20220307002220.jpg?x-oss-process=image/interlace,1",
      "categories": [
        "thrift",
        "staple",
        "teochew"
      ],
      "duration": 5,
      "price": 1.1,
      "xiaohongshuId": "6155cf9a000000002103e6de"
    },
    {
      "id": "chaoshan-fanqie-jidan-tang",
      "type": "cookbook",
      "shortDate": "2021-09-14",
      "title": "省钱菜谱：4.5元酸酸甜甜的潮式番茄鸡蛋汤（7min）",
      "desc": "今晚分享一个我很喜欢的番茄鸡蛋汤的做法，甜口，和平时在外面吃的番茄鸡蛋汤不太一样，对比外面常见的咸口的番茄鸡蛋，我更钟爱于酸酸甜甜的口感。",
      "keywords": "潮汕美食,番茄鸡蛋汤",
      "date": "2021-09-14 05:59:00",
      "cover": "http://cdn.chengpeiquan.com/img/2022/02/20220222132411.jpg?x-oss-process=image/interlace,1",
      "categories": [
        "thrift",
        "teochew",
        "orthodontic",
        "soup",
        "beginner"
      ],
      "duration": 7,
      "price": 4.5,
      "xiaohongshuId": "613f59520000000001027482"
    }
  ]
}