{
  "author": {
    "name": "chengpeiquan",
    "email": "chengpeiquan@chengpeiquan.com",
    "link": "https://chengpeiquan.com"
  },
  "type": "cookbook",
  "total": 136,
  "page": 2,
  "lastPage": 14,
  "category": "default",
  "data": [
    {
      "id": "baitang-zheng-jidan",
      "type": "cookbook",
      "shortDate": "2023-01-13",
      "title": "食疗菜谱：用白糖蒸鸡蛋治疗感冒鼻音（1min）",
      "desc": "我在圣诞节那天弱阳，在元旦节那天阳康，但我的鼻音一直迟迟不好，然后我老妈教了我这招，试了几天真的好了！网上搜了一下确实有这个说法，分享一下有同样困扰的人，可以试试。",
      "keywords": "白糖蒸鸡蛋,雪里藏珠",
      "date": "2023-01-13 06:56:00",
      "cover": "http://cdn.chengpeiquan.com/img/2023/01/20230112231503.jpg?x-oss-process=image/interlace,1",
      "categories": [
        "thrift",
        "beginner",
        "bento",
        "teochew",
        "staple"
      ],
      "duration": 1,
      "price": 0.8,
      "xiaohongshuId": "630a282a000000001902aa22"
    },
    {
      "id": "shacha-roupi-men-fensi",
      "type": "cookbook",
      "shortDate": "2023-01-12",
      "title": "省钱菜谱：7.68元的沙茶肉皮焖粉丝（10min）",
      "desc": "这是前几天的晚餐了，今天才有时间来发哈哈哈哈，我好爱沙茶！变着法子玩一下肉皮的新做法，好吃！但是会有点干，建议搭配个汤一起吃，或者准备点 AD 钙奶啥的饮料嘿嘿。",
      "keywords": "沙茶肉皮焖粉丝,潮汕肉皮,肉皮焖粉丝",
      "date": "2023-01-12 07:14:00",
      "cover": "http://cdn.chengpeiquan.com/img/2023/01/20230111232706.jpg?x-oss-process=image/interlace,1",
      "categories": [
        "thrift",
        "bento",
        "teochew"
      ],
      "duration": 10,
      "price": 7.68,
      "xiaohongshuId": "63bed26f000000001f00c6a3"
    },
    {
      "id": "shacha-dansi-chao-mifen",
      "type": "cookbook",
      "shortDate": "2023-01-07",
      "title": "省钱菜谱：2.6元的沙茶蛋丝炒米粉（10min）",
      "desc": "中午起来有点晚，冰箱里只有生菜和鸡蛋，家里还有米粉，炒个半斋的米粉吃哈哈哈，因为没有肉，所以今天没加辣椒酱，用的沙茶酱炒。",
      "keywords": "沙茶蛋丝炒米粉,潮汕炒米粉,潮州细米粉",
      "date": "2023-01-07 23:37:00",
      "cover": "http://cdn.chengpeiquan.com/img/2023/01/20230107154722.jpg?x-oss-process=image/interlace,1",
      "categories": [
        "thrift",
        "teochew",
        "staple"
      ],
      "duration": 10,
      "price": 2.6,
      "xiaohongshuId": "63b92144000000001f025b8a"
    },
    {
      "id": "hongzao-yumi-gouqi-paigu-tang",
      "type": "cookbook",
      "shortDate": "2023-01-03",
      "title": "菜谱：高压锅版红枣枸杞玉米排骨汤（25min）",
      "desc": "我中午下去买了玉米土豆还有排骨猪肉，然后就回来啦！哈哈哈要做一个遵纪守法的花臂小哥！今晚煲了个玉米排骨汤！（步骤和莲藕排骨汤差不多其实…",
      "keywords": "红枣玉米排骨汤,排骨汤,玉米汤,玉米排骨汤",
      "date": "2023-01-03 06:36:00",
      "cover": "http://cdn.chengpeiquan.com/img/2023/01/20230102224858.jpg?x-oss-process=image/interlace,1",
      "categories": [
        "soup"
      ],
      "duration": 25,
      "price": 24,
      "xiaohongshuId": "63b2ebdf000000001f00836c",
      "cite": [
        "hongzao-yumi-paigu-tang",
        "lajiang-zhanjiang"
      ]
    },
    {
      "id": "nanru-jiang-jichi",
      "type": "cookbook",
      "shortDate": "2022-12-04",
      "title": "菜谱：鸡翅和酱都很下饭的南乳酱鸡翅（20min）",
      "desc": "今晚做了个南乳酱鸡翅，做法有点像可乐鸡翅，喜欢腐乳味的话可以尝试下！",
      "keywords": "鸡翅,腐乳鸡翅,南乳酱鸡翅",
      "date": "2022-12-04 07:19:00",
      "cover": "http://cdn.chengpeiquan.com/img/2022/12/20221203233821.jpg?x-oss-process=image/interlace,1",
      "categories": [
        "bento",
        "teochew"
      ],
      "duration": 20,
      "price": 20,
      "xiaohongshuId": "638b6902000000001b014234"
    },
    {
      "id": "chaoshan-caitou-jiaozi",
      "type": "cookbook",
      "shortDate": "2022-10-24",
      "title": "菜谱：鲜甜可口的潮式菜头饺（60min）",
      "desc": "“菜头”在潮州话里是指萝卜，不带颜色就默认是白色，像胡萝卜就会带上颜色称为“红菜头”，所以来潮州看到说“白菜头”不要以为是白菜的头哈哈哈哈，两者毫无关系~",
      "keywords": "菜头饺,白萝卜饺子,潮汕饺子",
      "date": "2022-10-24 05:16:00",
      "cover": "http://cdn.chengpeiquan.com/img/2022/10/20221023212711.jpg?x-oss-process=image/interlace,1",
      "categories": [
        "thrift",
        "teochew",
        "staple"
      ],
      "duration": 60,
      "price": 24,
      "xiaohongshuId": "63553ebf0000000014034a2a"
    },
    {
      "id": "tudouli-kao-xinaoerliang-paigu",
      "type": "cookbook",
      "shortDate": "2022-10-04",
      "title": "菜谱：土豆粒烤新奥尔良排骨（30min）",
      "desc": "做完卤肉实在没忍住哈哈哈哈哈哈哈哈哈哈哈哈哈哈哈哈哈哈哈，切了一块卤肉，吃个宵夜！！！这个点最好的搭配就是潮汕粿汁了！！！",
      "keywords": "烤土豆,空气炸锅烤土豆,烤排骨,空气炸锅烤排骨,土豆粒烤新奥尔良排骨,土豆烤排骨",
      "date": "2022-10-04 05:58:00",
      "cover": "http://cdn.chengpeiquan.com/img/2022/10/20221003221155.jpg?x-oss-process=image/interlace,1",
      "categories": [
        "beginner",
        "bento"
      ],
      "duration": 30,
      "price": 20,
      "xiaohongshuId": "633aea73000000001d01a808"
    },
    {
      "id": "chaoshan-yuwan-mian",
      "type": "cookbook",
      "shortDate": "2022-09-13",
      "title": "菜谱：简简单单的潮汕鱼丸面（10min）",
      "desc": "昨天打边炉还剩了一些丸子，今晚煮个鱼丸面，潮汕的鱼丸也很好吃！",
      "keywords": "潮汕美食,潮汕鱼丸面",
      "date": "2022-09-13 04:26:00",
      "cover": "http://cdn.chengpeiquan.com/img/2022/09/20220912203715.jpg?x-oss-process=image/interlace,1",
      "categories": [
        "teochew",
        "beginner"
      ],
      "duration": 10,
      "price": 25,
      "xiaohongshuId": "631f2571000000000801cf84"
    },
    {
      "id": "baocaisi-chao-guotiao",
      "type": "cookbook",
      "shortDate": "2022-08-28",
      "title": "省钱菜谱：3.5元的包菜丝炒粿条（5min）",
      "desc": "下午物业在小区里举办了一个沙井盖美化的活动，好多小朋友画了很可爱的图案，有我喜欢的哆啦A梦和海绵宝宝哈哈哈哈，居然还有滑稽表情，也解决了我住了三个月以来的疑惑，哈哈哈哈我就说怎么看到有一些沙井盖还有图案，是有人偷偷去画的还是咋地，原来是物业组织的，好玩！",
      "keywords": "潮州,潮州卤水,包菜丝炒粿条,炒粿条",
      "date": "2022-08-28 06:20:00",
      "cover": "http://cdn.chengpeiquan.com/img/2022/08/20220827223411.jpg?x-oss-process=image/interlace,1",
      "categories": [
        "thrift",
        "beginner",
        "bento",
        "teochew",
        "staple"
      ],
      "duration": 5,
      "price": 3.5,
      "xiaohongshuId": "630a282a000000001902aa22"
    },
    {
      "id": "wawacai-fensi-men-roupi",
      "type": "cookbook",
      "shortDate": "2022-08-14",
      "title": "娃娃菜粉丝焖肉皮（15min）",
      "desc": "今晚做个娃娃菜粉丝焖肉皮，也是潮州老家的特色做法，最近买了砂暴肉皮（之前是油炸的），虽然贵了好多，但确实是更好吃！这道菜做法简单，就是备料的时间比较久，都是需要花时间提前浸泡。",
      "keywords": "娃娃菜粉丝焖肉皮,潮州肉皮",
      "date": "2022-08-14 06:32:00",
      "cover": "http://cdn.chengpeiquan.com/img/2022/08/20220814001629.jpg?x-oss-process=image/interlace,1",
      "categories": [
        "teochew",
        "beginner"
      ],
      "duration": 15,
      "price": 15,
      "xiaohongshuId": "62f7b611000000001603686d"
    }
  ]
}