{
  "author": {
    "name": "chengpeiquan",
    "email": "chengpeiquan@chengpeiquan.com",
    "link": "https://chengpeiquan.com"
  },
  "type": "cookbook",
  "total": 136,
  "page": 4,
  "lastPage": 14,
  "category": "default",
  "data": [
    {
      "id": "heiyu-qiugua-tang",
      "type": "cookbook",
      "shortDate": "2022-05-24",
      "title": "菜谱：黑鱼秋瓜汤（8min）",
      "desc": "上个周末回了趟广州，一下高铁就感觉回到了家一样，毕竟是我的第二故乡，这次回去是去看了下房子，然后准备回广州工作和生活啦！所以接下来这一个多星期会比较忙，笔记估计不太有时间整理（忙着工作和收拾东西hhh），不过评论和私信我都会回的哈哈哈…",
      "keywords": "潮州美食,潮汕美食,黑鱼秋瓜汤",
      "date": "2022-05-24 07:13:00",
      "cover": "http://cdn.chengpeiquan.com/img/2022/05/20220523233152.jpg?x-oss-process=image/interlace,1",
      "categories": [
        "beginner",
        "teochew",
        "soup",
        "orthodontic"
      ],
      "duration": 8,
      "price": 14,
      "xiaohongshuId": "628ba486000000002103d8a9",
      "cite": [
        "chaoshan-suantoulao"
      ]
    },
    {
      "id": "roumo-chao-qiugua",
      "type": "cookbook",
      "shortDate": "2022-05-19",
      "title": "省钱菜谱：4块钱的秋瓜炒肉末（3min）",
      "desc": "我潮州家里是在顶楼，所以楼顶天台也是自家的一部分，我爸妈在楼顶除了种花，还砌了几个瓜斗搭了瓜棚，每年都会种秋瓜，虽然最开始是想着有个瓜棚可以避暑，后面种出来的秋瓜好甜真是意外收获哈哈哈，是我从小吃到大的一种瓜了！",
      "keywords": "秋瓜炒肉末,水瓜炒肉末,丝瓜炒肉末",
      "date": "2022-05-19 07:44:00",
      "cover": "http://cdn.chengpeiquan.com/img/2022/05/20220520232541.jpg?x-oss-process=image/interlace,1",
      "categories": [
        "thrift",
        "teochew"
      ],
      "duration": 10,
      "price": 3,
      "xiaohongshuId": "62851473000000000102610a",
      "cite": [
        "chaoshan-suantoulao"
      ]
    },
    {
      "id": "chiyou-jiangcong-zhanliao",
      "type": "cookbook",
      "shortDate": "2022-05-14",
      "title": "豉油姜葱蘸料 搭配白切鸡葱油鸡都好好吃！",
      "desc": "今晚做了个清蒸三黄鸡，搭配白切鸡的姜葱酱也很好吃，不过今晚搭配的酱料用了另外的做法，平时可以交叉换口味试试！",
      "keywords": "清蒸三黄鸡,三黄鸡",
      "date": "2022-05-14 08:23:00",
      "cover": "http://cdn.chengpeiquan.com/img/2022/05/20220514004419.jpg?x-oss-process=image/interlace,1",
      "categories": [
        "condiment"
      ],
      "duration": 1,
      "price": 0,
      "xiaohongshuId": "627e85e9000000000102b689",
      "cite": [
        "qingzheng-sanhuangji"
      ]
    },
    {
      "id": "qingzheng-sanhuangji",
      "type": "cookbook",
      "shortDate": "2022-05-14",
      "title": "菜谱：清蒸三黄鸡（30min）",
      "desc": "今晚做了个清蒸三黄鸡，搭配白切鸡的姜葱酱也很好吃，不过今晚搭配的酱料用了另外的做法，平时可以交叉换口味试试！",
      "keywords": "清蒸三黄鸡,三黄鸡",
      "date": "2022-05-14 08:23:00",
      "cover": "http://cdn.chengpeiquan.com/img/2022/05/20220514003235.jpg?x-oss-process=image/interlace,1",
      "categories": [
        "bento",
        "teochew",
        "beginner"
      ],
      "duration": 30,
      "price": 16,
      "xiaohongshuId": "627e85e9000000000102b689",
      "cite": [
        "chiyou-jiangcong-zhanliao"
      ]
    },
    {
      "id": "douchilingyu-chao-youmaicai",
      "type": "cookbook",
      "shortDate": "2022-05-11",
      "title": "省钱菜谱：6.5元的豆豉鲮鱼炒油麦菜（3min）",
      "desc": "前几天逛超市的时候罐头打折 10 块钱一罐，买来做个油麦菜刚好！这是我们之前小组聚餐最喜欢点的一道菜哈哈哈哈哈，但是很可恶的是外面吃的豆豉鲮鱼炒油麦菜，鲮鱼永远都是只有一滴滴… 还是自己做大满足！",
      "keywords": "豆豉鲮鱼炒油麦菜,豆豉鲮鱼,炒油麦菜",
      "date": "2022-05-11 21:48:00",
      "cover": "http://cdn.chengpeiquan.com/img/2022/05/20220514005832.jpg?x-oss-process=image/interlace,1",
      "categories": [
        "thrift",
        "teochew"
      ],
      "duration": 3,
      "price": 6.5,
      "xiaohongshuId": "627b4e2e000000002103b8d0"
    },
    {
      "id": "huaishan-hongzao-paigu-tang",
      "type": "cookbook",
      "shortDate": "2022-05-09",
      "title": "淮山红枣排骨汤（2h）",
      "desc": "五一因为打了疫苗，安慰自己要休息，然后就没有运动哈哈哈哈，所以今天才出去爬山，下山的时候还下雨了，累死！还好出门前先处理好了食材，定时煲汤，回到家洗个热水澡舒舒服服的喝汤，好爽啊！",
      "keywords": "淮山红枣排骨汤,排骨汤",
      "date": "2022-05-09 06:48:00",
      "cover": "http://cdn.chengpeiquan.com/img/2022/05/20220514010919.jpg?x-oss-process=image/interlace,1",
      "categories": [
        "soup",
        "teochew",
        "beginner"
      ],
      "duration": 120,
      "price": 18,
      "xiaohongshuId": "6277d83d00000000210351f5"
    },
    {
      "id": "huanggua-zhan-baitang",
      "type": "cookbook",
      "shortDate": "2022-05-05",
      "title": "黄瓜蘸白糖真好吃哈哈哈哈哈哈哈哈哈哈哈哈",
      "desc": "从小吃到大的一个吃着玩的吃法，黄瓜先冷藏，然后洗净，直接蘸白糖，超好吃！！！！！",
      "keywords": "黄瓜蘸白糖",
      "date": "2022-05-05 06:59:00",
      "cover": "http://cdn.chengpeiquan.com/img/2022/05/20220514011945.jpg?x-oss-process=image/interlace,1",
      "categories": [
        "teochew"
      ],
      "duration": 1,
      "price": 1,
      "xiaohongshuId": "627294cb00000000210385d3"
    },
    {
      "id": "suzha-heiyupian",
      "type": "cookbook",
      "shortDate": "2022-05-03",
      "title": "菜谱：酥炸黑鱼片（15min）",
      "desc": "做个炸鱼片，今天这个黑鱼片是成品包装，本来是用来做酸菜鱼水煮鱼的，好像是处理过的，所以我没有再另外加工，感觉不腥，如果是菜市场买的鱼，可以用姜葱抓匀腌制一下去掉腥味。",
      "keywords": "酥炸黑鱼片,炸鱼片",
      "date": "2022-05-03 01:14:00",
      "cover": "http://cdn.chengpeiquan.com/img/2022/05/20220502172218.jpg?x-oss-process=image/interlace,1",
      "categories": [
        "thrift",
        "beginner"
      ],
      "duration": 15,
      "price": 9.5,
      "xiaohongshuId": "626fa0fa000000002103cf0d"
    },
    {
      "id": "kaorou-shengcai-shala",
      "type": "cookbook",
      "shortDate": "2022-04-28",
      "title": "省钱菜谱：6块钱的烤肉生菜沙拉（25min）",
      "desc": "写下标题的时候，我点开了温拿乐队的《Sha La La La》哈哈哈哈…今晚吃个沙拉，自己做也不贵，大概 6 块钱…",
      "keywords": "烤肉生菜沙拉,沙拉,生菜沙拉",
      "date": "2022-04-28 06:13:00",
      "cover": "http://cdn.chengpeiquan.com/img/2022/04/20220502151910.jpg?x-oss-process=image/interlace,1",
      "categories": [
        "thrift",
        "bento",
        "beginner"
      ],
      "duration": 25,
      "price": 6,
      "xiaohongshuId": "62694f8c0000000021038c55"
    },
    {
      "id": "honghuban-cuipi-safen-zhajitui",
      "type": "cookbook",
      "shortDate": "2022-04-26",
      "title": "省钱菜谱：红虎斑脆皮撒粉炸鸡腿（25min）",
      "desc": "中午吃炸鸡腿哈哈哈哈哈，起这个名字纯粹是因为，小朋友很喜欢在我吃饭的时候要我抱抱，他是一只红虎斑缅因猫（图9），刚好发现他的颜色和炸鸡腿的颜色一毛一样，所以用猫的品种名字给鸡腿起名了笑死…",
      "keywords": "红虎斑脆皮撒粉炸鸡腿,脆皮炸鸡,炸鸡腿",
      "date": "2022-04-26 22:46:00",
      "cover": "http://cdn.chengpeiquan.com/img/2022/04/20220426145918.jpg?x-oss-process=image/interlace,1",
      "categories": [
        "thrift",
        "staple"
      ],
      "duration": 25,
      "price": 8,
      "xiaohongshuId": null
    }
  ]
}