{
  "author": {
    "name": "chengpeiquan",
    "email": "chengpeiquan@chengpeiquan.com",
    "link": "https://chengpeiquan.com"
  },
  "type": "cookbook",
  "total": 136,
  "page": 7,
  "lastPage": 14,
  "category": "default",
  "data": [
    {
      "id": "furu-zheng-paigu",
      "type": "cookbook",
      "shortDate": "2022-03-06",
      "title": "蒜香腐乳蒸排骨（30min）",
      "desc": "继上次的那个 “腐乳蒸肉片”，当时说还可以蒸排骨，所以今天来做下排骨版本。",
      "keywords": "腐乳蒸排骨,腐乳",
      "date": "2022-03-06 03:34:00",
      "cover": "http://cdn.chengpeiquan.com/img/2022/02/20220306012707.jpg?x-oss-process=image/interlace,1",
      "categories": [
        "bento",
        "teochew",
        "beginner"
      ],
      "duration": 30,
      "price": 24,
      "xiaohongshuId": "62234aad000000000102c18e",
      "cite": [
        "furu-zheng-roupian"
      ]
    },
    {
      "id": "huasheng-lianou-paigu-tang",
      "type": "cookbook",
      "shortDate": "2022-02-28",
      "title": "菜谱：煲个花生莲藕排骨汤（1.5h）",
      "desc": "周末煲个汤哈哈哈哈！最近玉米价格疯了，煲莲藕也不错！",
      "keywords": "花生莲藕排骨汤,排骨汤,莲藕汤,莲藕排骨汤",
      "date": "2022-02-28 08:05:00",
      "cover": "http://cdn.chengpeiquan.com/img/2022/02/20220228001233.jpg?x-oss-process=image/interlace,1",
      "categories": [
        "soup"
      ],
      "duration": 90,
      "price": 28,
      "xiaohongshuId": "621ba1400000000021036537",
      "cite": [
        "lajiang-zhanjiang"
      ]
    },
    {
      "id": "kao-jinzhengu-roujiang-roufu",
      "type": "cookbook",
      "shortDate": "2022-02-26",
      "title": "省钱菜谱：6.2元的烤金针菇肉酱豆腐（20min）",
      "desc": "今晚吃个金针菇烤豆腐，加点肉末，解决晚餐，需要提前煮一电热壶的开水备用，还有锡纸和空气炸锅。",
      "keywords": "烤金针菇肉酱豆腐,烤金针菇,烤豆腐",
      "date": "2022-02-26 06:56:00",
      "cover": "http://cdn.chengpeiquan.com/img/2022/02/20220226234158.jpg?x-oss-process=image/interlace,1",
      "categories": [
        "thrift",
        "orthodontic"
      ],
      "duration": 20,
      "price": 6.2,
      "xiaohongshuId": "6218ee000000000001028920"
    },
    {
      "id": "wandouli-chao-roumo",
      "type": "cookbook",
      "shortDate": "2022-02-24",
      "title": "超级下饭的豌豆粒炒肉末（10min）",
      "desc": "前两天不是做了酸菜炒牛肉用了指天椒嘛，一小份还有好几根，所以昨晚又炒了个可以消灭指天椒的菜，豌豆粒炒肉末，好好吃！",
      "keywords": "豌豆粒炒肉末,豌豆粒,豌豆炒肉",
      "date": "2022-02-24 21:29:00",
      "cover": "http://cdn.chengpeiquan.com/img/2022/02/20220224133710.jpg?x-oss-process=image/interlace,1",
      "categories": [
        "thrift",
        "bento"
      ],
      "duration": 10,
      "price": 8,
      "xiaohongshuId": "621717d6000000002103a179"
    },
    {
      "id": "chaoshan-suancai-chao-niurou",
      "type": "cookbook",
      "shortDate": "2022-02-22",
      "title": "潮汕经典家常菜之酸菜炒牛肉（2min）",
      "desc": "这是昨天中午的午餐哈哈哈，忙了一天多现在才有时间来整理（昨晚做蛋糕去了…），酸菜炒牛肉是潮汕的一道经典菜，潮汕特色的酸菜，搭配潮汕特色的调味料，很好吃！！！",
      "keywords": "潮州美食,潮汕美食,酸菜炒牛肉",
      "date": "2022-02-22 07:59:00",
      "cover": "http://cdn.chengpeiquan.com/img/2022/02/20220222002124.jpg?x-oss-process=image/interlace,1",
      "categories": [
        "staple",
        "teochew"
      ],
      "duration": 2,
      "price": 20,
      "xiaohongshuId": "6213b6c800000000010255f3"
    },
    {
      "id": "chaoshan-shacha-banmian",
      "type": "cookbook",
      "shortDate": "2022-02-15",
      "title": "省钱菜谱：2块钱的潮汕沙茶拌面（10min）",
      "desc": "今天 2 月 14 日，是……一个普普通通的周一哈哈哈哈哈哈哈哈哈哈…………前几天我妈给我寄橄榄的时候问我还想吃啥，我说寄点“面薄”哩，然后我终于在深圳吃到了潮汕的 “面薄”，果然还是家里的面条好吃！！！",
      "keywords": "潮汕美食,沙茶拌面,潮式拌面",
      "date": "2022-02-15 06:14:00",
      "cover": "http://cdn.chengpeiquan.com/img/2022/02/20220214222145.jpg?x-oss-process=image/interlace,1",
      "categories": [
        "thrift",
        "teochew",
        "staple",
        "beginner"
      ],
      "duration": 10,
      "price": 2,
      "xiaohongshuId": "620a63e00000000001027237",
      "cite": [
        "chaoshan-suantoulao"
      ]
    },
    {
      "id": "tudou-kao-cuipi-meitourou",
      "type": "cookbook",
      "shortDate": "2022-02-13",
      "title": "省钱菜谱：8块钱的土豆烤脆皮梅头肉（20min）",
      "desc": "今晚突然想吃脆皮烧肉，但是家里只有一块还没切的梅头肉，所以弄了个简易版本的，除了包锡纸之外，貌似没有相似之处哈哈哈哈哈哈哈哈哈哈哈哈哈哈。",
      "keywords": "梅头肉,脆皮梅头肉,土豆烤脆皮梅头肉",
      "date": "2022-02-13 06:07:00",
      "cover": "http://cdn.chengpeiquan.com/img/2022/02/20220213234248.jpg?x-oss-process=image/interlace,1",
      "categories": [
        "thrift",
        "bento"
      ],
      "duration": 20,
      "price": 8,
      "xiaohongshuId": "6207bf29000000002103ff54",
      "cite": [
        "chaoshan-fanqie-jidan-tang"
      ]
    },
    {
      "id": "furu-zheng-roupian",
      "type": "cookbook",
      "shortDate": "2022-02-09",
      "title": "省钱菜谱：6块钱的腐乳蒸肉片（20min）",
      "desc": "这是跟我妈学的一个做法，我以前读书在家的时候就很喜欢吃了，蒸肉蒸排骨都好吃，偏甜口。",
      "keywords": "腐乳蒸肉片,腐乳",
      "date": "2022-02-09 04:05:00",
      "cover": "http://cdn.chengpeiquan.com/img/2022/02/20220214004426.jpg?x-oss-process=image/interlace,1",
      "categories": [
        "thrift",
        "bento",
        "teochew",
        "beginner"
      ],
      "duration": 20,
      "price": 8,
      "xiaohongshuId": "62025c99000000000102efef",
      "cite": [
        "furu-zheng-paigu"
      ]
    },
    {
      "id": "chaozhou-niurouwan-pin-niujinwan-guotiaotang",
      "type": "cookbook",
      "shortDate": "2022-02-07",
      "title": "菜单分享：潮州牛肉丸拼牛筋丸粿条汤",
      "desc": "啊哈哈哈分享个菜单，牛肉丸和牛筋丸是年前买的，过年过节哪怕没回家，牛肉丸一煮，家乡的感觉就出来了！！！",
      "keywords": "牛筋丸,牛肉丸,粿条汤,潮汕汤粉",
      "date": "2022-02-07 13:20:00",
      "cover": "http://cdn.chengpeiquan.com/img/2022/02/20220214005726.jpg?x-oss-process=image/interlace,1",
      "categories": [
        "staple",
        "teochew"
      ],
      "duration": 10,
      "price": 24,
      "xiaohongshuId": "62003b92000000000102a6b2",
      "cite": [
        "chaoshan-suantoulao"
      ]
    },
    {
      "id": "suanxiang-kao-jituipa",
      "type": "cookbook",
      "shortDate": "2022-02-05",
      "title": "省钱菜谱：3.09元的蒜香烤鸡腿扒（15min）",
      "desc": "是我前天晚餐和昨天的午餐和晚餐，蒸饺和煎饺都好吃哈哈哈哈！想做这个是因为那天买的芋头太大个了，剩下的感觉要吃好久，干脆包成饺子！也是潮汕这边比较常见的小吃用料，这个做法是沿袭了我家那边的芋粿、芋丝球（芋丸）、芋丝糕等小吃的做法，做了一点调整。",
      "keywords": "蒜香烤鸡扒,蒜香鸡扒,烤鸡腿扒",
      "date": "2022-02-05 04:12:00",
      "cover": "http://cdn.chengpeiquan.com/img/2022/02/20220204215537.jpg?x-oss-process=image/interlace,1",
      "categories": [
        "thrift",
        "bento"
      ],
      "duration": 15,
      "price": 3.09,
      "xiaohongshuId": "61fd1ebb0000000001028d75"
    }
  ]
}