{
  "author": {
    "name": "chengpeiquan",
    "email": "chengpeiquan@chengpeiquan.com",
    "link": "https://chengpeiquan.com"
  },
  "type": "cookbook",
  "total": 136,
  "page": 8,
  "lastPage": 14,
  "category": "default",
  "data": [
    {
      "id": "chaoshan-congzhulao",
      "type": "cookbook",
      "shortDate": "2022-02-02",
      "title": "潮汕特色调味品 葱珠朥做法",
      "desc": "今天又煮了粿汁，刚好葱珠朥要做新的了，单独记录一篇菜谱哈哈哈。",
      "keywords": "葱珠油,葱珠朥,潮汕调味品",
      "date": "2022-02-02 08:17:00",
      "cover": "http://cdn.chengpeiquan.com/img/2022/02/20220201234256.jpg?x-oss-process=image/interlace,1",
      "categories": [
        "teochew",
        "condiment"
      ],
      "duration": 0,
      "price": 0,
      "xiaohongshuId": "61f95d0c000000002103dc4c",
      "cite": [
        "chaoshan-guozhi",
        "chaozhou-guotiaojuan"
      ]
    },
    {
      "id": "chaoshan-lushui-zhuerduo",
      "type": "cookbook",
      "shortDate": "2022-01-31",
      "title": "潮汕卤水之卤猪耳朵",
      "desc": "是什么动力让我放假第一天早起？哈哈哈哈哈哈哈哈哈哈是为了跟大妈们抢猪耳朵，之前几个周末就想做卤猪耳了，结果每次去到都卖完了，一只猪就两只耳朵哈哈哈哈…",
      "keywords": "潮州,潮州卤水,潮汕卤水,卤猪耳朵,卤猪头肉",
      "date": "2022-01-31 05:56:00",
      "cover": "http://cdn.chengpeiquan.com/img/2022/01/20220130233409.jpg?x-oss-process=image/interlace,1",
      "categories": [
        "bento",
        "teochew"
      ],
      "duration": 0,
      "price": 0,
      "xiaohongshuId": "61f698f9000000000102e66e",
      "cite": [
        "chaoshan-lushui-wuhuarou"
      ]
    },
    {
      "id": "shacharoupian-kao-tudouli",
      "type": "cookbook",
      "shortDate": "2022-01-27",
      "title": "省钱菜谱：6块钱的沙茶肉片烤土豆（15min）",
      "desc": "这个点突然就醒了…睡不着了，翻到个库存的笔记，发一下，继续睡哈哈哈，还可以再睡一个多小时，笔记当时记录的是上肉大约5块钱，土豆便宜，大约1块钱，分量挺多哈哈哈。",
      "keywords": "沙茶,烤肉,沙茶烤肉",
      "date": "2022-01-27 14:32:00",
      "cover": "http://cdn.chengpeiquan.com/img/2021/11/20220127132011.jpg?x-oss-process=image/interlace,1",
      "categories": [
        "thrift",
        "bento"
      ],
      "duration": 15,
      "price": 6,
      "xiaohongshuId": "61f1cbe400000000210396f2"
    },
    {
      "id": "cuipi-yanjuji-tuipa",
      "type": "cookbook",
      "shortDate": "2022-01-20",
      "title": "省钱菜谱：3.78元的脆皮盐焗鸡腿扒（20min）",
      "desc": "之前发过一次土豆脆皮烤鸡的做法，今晚用类似的方式搞了个脆皮盐焗鸡腿扒，也很好吃！！！",
      "keywords": "鸡腿扒,盐焗鸡,烤鸡,脆皮鸡,空气炸锅",
      "date": "2022-01-20 07:07:00",
      "cover": "http://cdn.chengpeiquan.com/img/2022/01/20220119232320.jpg?x-oss-process=image/interlace,1",
      "categories": [
        "thrift",
        "bento",
        "beginner"
      ],
      "duration": 20,
      "price": 3.78,
      "xiaohongshuId": "61e8292d000000000102ff43"
    },
    {
      "id": "chaozhou-yuguo-yusigao",
      "type": "cookbook",
      "shortDate": "2022-01-18",
      "title": "省钱菜谱：3块钱一餐的芋粿（60min）",
      "desc": "我来了！昨晚的电饭煲做的芋粿，留了一半今晚煎，还是好吃哈哈哈哈！算了一下成本，分了两顿吃完，一顿 3 块钱，大约有 5 两重，性价比还蛮高的！芋粿是潮汕的小吃，我不确定和芋丝糕是不是完全一样哈哈哈，老家的粿是用的粘米粉，所以我也是用这个来做。",
      "keywords": "芋粿,芋丝糕,潮州小吃,潮汕小吃",
      "date": "2022-01-18 07:04:00",
      "cover": "http://cdn.chengpeiquan.com/img/2022/01/20220120003111.jpg?x-oss-process=image/interlace,1",
      "categories": [
        "thrift",
        "staple",
        "teochew"
      ],
      "duration": 60,
      "price": 3,
      "xiaohongshuId": "61e5856b0000000021035146"
    },
    {
      "id": "yurou-yuntun",
      "type": "cookbook",
      "shortDate": "2022-01-16",
      "title": "省钱菜谱：3.15元一碗的鱼肉云吞（25min）",
      "desc": "我的第一篇菜谱笔记就是关于云吞的，当时是包的纯肉，最近巴沙鱼老是有打折，今晚包个鱼肉云吞吃吃。今晚的食材一共 11 块钱，包了 51 个云吞，平均一个云吞 2 毛 1，按照 15 个一碗刚好吃三碗，一碗就差不多 3.15 元。",
      "keywords": "云吞,云吞包法,云吞怎么包,鱼肉云吞,巴沙鱼云吞,龙利鱼云吞",
      "date": "2022-01-16 07:14:00",
      "cover": "http://cdn.chengpeiquan.com/img/2022/01/20220115235323.jpg?x-oss-process=image/interlace,1",
      "categories": [
        "thrift",
        "staple",
        "teochew"
      ],
      "duration": 25,
      "price": 3.15,
      "xiaohongshuId": "61e2e4db000000000102e999",
      "cite": [
        "chaoshan-suantoulao"
      ]
    },
    {
      "id": "chaoshan-tese-qingtangmian",
      "type": "cookbook",
      "shortDate": "2022-01-15",
      "title": "省钱菜谱：0.3元的潮汕特色清汤面（5min）",
      "desc": "今天起床的时候看到8点54分，心里一惊！内心第一反应是完了，长这么大第一次要旷工，然后瞬间想起周六啊！！！被自己笑死！9点左右这个点起床还是凉嗖嗖的，在阳台听到楼下通知测核酸，洗漱完煮个面暖和暖和，等会排队也不太冷！",
      "keywords": "潮汕美食,清汤面",
      "date": "2022-01-15 18:43:00",
      "cover": "http://cdn.chengpeiquan.com/img/2022/01/20220116000116.jpg?x-oss-process=image/interlace,1",
      "categories": [
        "thrift",
        "staple",
        "teochew",
        "beginner"
      ],
      "duration": 5,
      "price": 0.3,
      "xiaohongshuId": "61e234e9000000000102d232",
      "cite": [
        "chaoshan-suantoulao"
      ]
    },
    {
      "id": "shacha-chaorou",
      "type": "cookbook",
      "shortDate": "2022-01-14",
      "title": "省钱菜谱：4块钱的沙茶炒肉（3min）",
      "desc": "这几天深圳又出了几例，还好南山这边还是很稳，不过也是测了好几轮核酸，希望疫情快点过去！！！今晚还是做个潮汕风味的快手菜，沙茶酱是主角哈哈哈！",
      "keywords": "潮汕美食,沙茶炒肉,沙茶酱",
      "date": "2022-01-14 07:07:00",
      "cover": "http://cdn.chengpeiquan.com/img/2022/01/20220113225102.jpg?x-oss-process=image/interlace,1",
      "categories": [
        "thrift",
        "bento",
        "teochew",
        "beginner"
      ],
      "duration": 3,
      "price": 4,
      "xiaohongshuId": "61e03a060000000001028edb"
    },
    {
      "id": "suanmeijiang-kao-bashayuliu",
      "type": "cookbook",
      "shortDate": "2022-01-08",
      "title": "省钱菜谱：8.7元的酸梅酱烤巴沙鱼柳（18min）",
      "desc": "今天只上了半天班就被赶回来了，因为深圳出了 2 例，被要求大家都在家办公，并且周一上班要提供 3 天内至少 2 次核酸证明才能回公司，虽然南山离那边好远好远，但还是能理解，这个时候真的不要太轻视疫情了！",
      "keywords": "省钱菜谱,巴沙鱼,龙利鱼,鱼柳,烤鱼,巴沙鱼柳,龙利鱼柳,种牙食谱,整牙食谱",
      "date": "2022-01-08 07:54:00",
      "cover": "http://cdn.chengpeiquan.com/img/2022/01/20220107235442.jpg?x-oss-process=image/interlace,1",
      "categories": [
        "thrift",
        "orthodontic"
      ],
      "duration": 18,
      "price": 8.7,
      "xiaohongshuId": "61d85fe200000000010284ad"
    },
    {
      "id": "lajiang-zhanjiang",
      "type": "cookbook",
      "shortDate": "2022-01-03",
      "title": "超下饭的辣酱蘸酱！几块排骨吃了我两碗饭！",
      "desc": "今晚本来想包饺子，不过程序写的挺入神的不想起身做饭，所以炖了个花生莲藕排骨汤（炖汤不用人看着，方便！",
      "keywords": "辣椒酱,排骨酱,排骨蘸酱,饺子蘸酱",
      "date": "2022-01-03 05:04:00",
      "cover": "http://cdn.chengpeiquan.com/img/2022/01/20220108005306.jpg?x-oss-process=image/interlace,1",
      "categories": [
        "condiment"
      ],
      "duration": 0,
      "price": 0,
      "xiaohongshuId": "61d1a2e5000000002103e669"
    }
  ]
}