{
  "author": {
    "name": "chengpeiquan",
    "email": "chengpeiquan@chengpeiquan.com",
    "link": "https://chengpeiquan.com"
  },
  "type": "cookbook",
  "total": 67,
  "page": 2,
  "lastPage": 7,
  "category": "bento",
  "data": [
    {
      "id": "shachajiang-bian-jiding",
      "type": "cookbook",
      "shortDate": "2022-06-26",
      "title": "省钱菜谱：6.5元的沙茶酱煸鸡丁（6min）",
      "desc": "上周末买的鸡胸肉，今天才有时间做哈哈哈哈… 我现在工作日做不了饭了，虽然新公司还是一如既往的可以 6 点半下班，但从天河回到黄埔，怎么快也要差不多 8 点到家，加上最近赶 App 版本开发，每天也会再加加班，所以现在都是在公司先吃完饭再回来了。",
      "keywords": "潮州美食,沙茶酱煸鸡丁",
      "date": "2022-06-26 00:50:00",
      "cover": "http://cdn.chengpeiquan.com/img/2022/06/20220625180935.jpg?x-oss-process=image/interlace,1",
      "categories": [
        "thrift",
        "bento",
        "teochew"
      ],
      "duration": 6,
      "price": 6.5,
      "xiaohongshuId": "62b6cc6b000000000102feda"
    },
    {
      "id": "chaozhou-sunjiao",
      "type": "cookbook",
      "shortDate": "2022-06-12",
      "title": "在广州新家做的第一顿晚餐：潮州笋饺",
      "desc": "回广州刚好半个月了，回来的第二天就被抓去新公司上班，所以收拾新家收拾了一周，上周端午假期也是一直在收拾，这个周末才开始正式在新家做饭了！！！",
      "keywords": "潮州小吃,潮汕小吃,潮州饺子,潮汕饺子,潮州笋饺,潮汕笋饺",
      "date": "2022-06-12 09:39:00",
      "cover": "http://cdn.chengpeiquan.com/img/2022/06/20220612015709.jpg?x-oss-process=image/interlace,1",
      "categories": [
        "bento",
        "staple",
        "teochew"
      ],
      "duration": 60,
      "price": 50,
      "xiaohongshuId": "62a4d35f00000000210378fa"
    },
    {
      "id": "qingzheng-sanhuangji",
      "type": "cookbook",
      "shortDate": "2022-05-14",
      "title": "菜谱：清蒸三黄鸡（30min）",
      "desc": "今晚做了个清蒸三黄鸡，搭配白切鸡的姜葱酱也很好吃，不过今晚搭配的酱料用了另外的做法，平时可以交叉换口味试试！",
      "keywords": "清蒸三黄鸡,三黄鸡",
      "date": "2022-05-14 08:23:00",
      "cover": "http://cdn.chengpeiquan.com/img/2022/05/20220514003235.jpg?x-oss-process=image/interlace,1",
      "categories": [
        "bento",
        "teochew",
        "beginner"
      ],
      "duration": 30,
      "price": 16,
      "xiaohongshuId": "627e85e9000000000102b689",
      "cite": [
        "chiyou-jiangcong-zhanliao"
      ]
    },
    {
      "id": "kaorou-shengcai-shala",
      "type": "cookbook",
      "shortDate": "2022-04-28",
      "title": "省钱菜谱：6块钱的烤肉生菜沙拉（25min）",
      "desc": "写下标题的时候，我点开了温拿乐队的《Sha La La La》哈哈哈哈…今晚吃个沙拉，自己做也不贵，大概 6 块钱…",
      "keywords": "烤肉生菜沙拉,沙拉,生菜沙拉",
      "date": "2022-04-28 06:13:00",
      "cover": "http://cdn.chengpeiquan.com/img/2022/04/20220502151910.jpg?x-oss-process=image/interlace,1",
      "categories": [
        "thrift",
        "bento",
        "beginner"
      ],
      "duration": 25,
      "price": 6,
      "xiaohongshuId": "62694f8c0000000021038c55"
    },
    {
      "id": "ganbian-jitui-ding",
      "type": "cookbook",
      "shortDate": "2022-04-25",
      "title": "省钱菜谱：5.1元的干煸鸡腿丁（5min）",
      "desc": "今晚做这个干煸鸡腿丁和我之前发的孜然蒜香鸡胸粒做法有点接近，稍微调整了一下，风味和口感又不一样呢哈哈哈。",
      "keywords": "干煸鸡腿丁,鸡腿",
      "date": "2022-04-25 07:51:00",
      "cover": "http://cdn.chengpeiquan.com/img/2022/04/20220425001034.jpg?x-oss-process=image/interlace,1",
      "categories": [
        "thrift",
        "bento"
      ],
      "duration": 5,
      "price": 5.1,
      "xiaohongshuId": "626571f6000000000102d282"
    },
    {
      "id": "puningdoujiang-liangban-jisi",
      "type": "cookbook",
      "shortDate": "2022-04-14",
      "title": "省钱菜谱：潮汕特色凉菜 2.7元的普宁豆酱凉拌鸡丝（20min）",
      "desc": "最近的菜谱又主打我家乡潮汕的口味了，上次发豆酱炒番薯叶的时候有小姐姐评论说不会用豆酱，所以最近几次就以豆酱为主角，多分享点玩法。",
      "keywords": "潮州小吃,潮汕小吃,普宁豆酱凉拌鸡丝,豆酱拌鸡丝",
      "date": "2022-04-14 07:03:00",
      "cover": "http://cdn.chengpeiquan.com/img/2022/04/20220413234520.jpg?x-oss-process=image/interlace,1",
      "categories": [
        "thrift",
        "bento",
        "teochew"
      ],
      "duration": 20,
      "price": 2.7,
      "xiaohongshuId": "6256e644000000002103dfe2"
    },
    {
      "id": "ziran-suanxiang-jixiongli",
      "type": "cookbook",
      "shortDate": "2022-04-04",
      "title": "省钱菜谱：3块钱的孜然蒜香鸡胸粒（2min）",
      "desc": "这周补多一天班搞得我总觉得今天是单休，然后终于才进入假期模式，本来前几天就想发这个菜谱的，结果一看电影一拖再拖哈哈哈哈哈…",
      "keywords": "孜然蒜香鸡胸粒,鸡胸肉",
      "date": "2022-04-04 06:37:00",
      "cover": "http://cdn.chengpeiquan.com/img/2022/04/20220404011855.jpg?x-oss-process=image/interlace,1",
      "categories": [
        "thrift",
        "bento",
        "beginner"
      ],
      "duration": 2,
      "price": 3,
      "xiaohongshuId": "6249b125000000000102b804"
    },
    {
      "id": "chaoshan-shacha-jielan-chaomian",
      "type": "cookbook",
      "shortDate": "2022-03-28",
      "title": "省钱菜谱：3.4元的潮汕沙茶芥兰炒面（10min）",
      "desc": "中午做了个芥兰炒面，大潮州的口味，面条也是用的潮州特色的 “面薄”，做炒面也特别好吃！",
      "keywords": "潮汕小吃,潮州小吃,潮汕沙茶芥兰炒面,芥兰炒面,沙茶炒面",
      "date": "2022-03-28 00:25:00",
      "cover": "http://cdn.chengpeiquan.com/img/2022/03/20220327163501.jpg?x-oss-process=image/interlace,1",
      "categories": [
        "thrift",
        "teochew",
        "bento",
        "staple"
      ],
      "duration": 10,
      "price": 3.4,
      "xiaohongshuId": "62401f7a0000000001025ec6"
    },
    {
      "id": "zhuhou-kaorou-pei-qingguasi-juanbing",
      "type": "cookbook",
      "shortDate": "2022-03-21",
      "title": "菜谱：柱侯烤肉配青瓜丝卷饼（15min）",
      "desc": "封村之前逛超市的时候看到有卖卷饼，当时买了两袋想试一下，然后拖到了现在才试哈哈哈，还蛮不错的！这东西还蛮好玩的，应该怎么搭配都好吃，这次是刚好做个烤肉消耗掉家里的柱侯酱，你也可以用奥尔良腌料啊沙茶酱啊之类的去做烤肉。",
      "keywords": "柱侯烤肉配青瓜丝卷饼,卷饼,健身卷饼",
      "date": "2022-03-21 00:02:00",
      "cover": "http://cdn.chengpeiquan.com/img/2022/03/20220320160858.jpg?x-oss-process=image/interlace,1",
      "categories": [
        "thrift",
        "staple",
        "bento",
        "beginner"
      ],
      "duration": 15,
      "price": 20,
      "xiaohongshuId": "6236df9c000000000102b95f"
    },
    {
      "id": "tudou-men-wuhuarou",
      "type": "cookbook",
      "shortDate": "2022-03-09",
      "title": "省钱菜谱：5.5元一餐的土豆焖五花肉（12min）",
      "desc": "这是今晚和明天中午的菜，所以价格按一半算，做之前提前煮一壶热水，兑料汁要用，等会洗碗也可以用。",
      "keywords": "土豆焖五花肉",
      "date": "2022-03-09 07:54:00",
      "cover": "http://cdn.chengpeiquan.com/img/2022/02/20220309002819.jpg?x-oss-process=image/interlace,1",
      "categories": [
        "thrift",
        "bento"
      ],
      "duration": 12,
      "price": 5.5,
      "xiaohongshuId": "62277c31000000000102a8ed"
    }
  ]
}