{
  "author": {
    "name": "chengpeiquan",
    "email": "chengpeiquan@chengpeiquan.com",
    "link": "https://chengpeiquan.com"
  },
  "type": "cookbook",
  "total": 67,
  "page": 3,
  "lastPage": 7,
  "category": "bento",
  "data": [
    {
      "id": "furu-zheng-paigu",
      "type": "cookbook",
      "shortDate": "2022-03-06",
      "title": "蒜香腐乳蒸排骨（30min）",
      "desc": "继上次的那个 “腐乳蒸肉片”，当时说还可以蒸排骨，所以今天来做下排骨版本。",
      "keywords": "腐乳蒸排骨,腐乳",
      "date": "2022-03-06 03:34:00",
      "cover": "http://cdn.chengpeiquan.com/img/2022/02/20220306012707.jpg?x-oss-process=image/interlace,1",
      "categories": [
        "bento",
        "teochew",
        "beginner"
      ],
      "duration": 30,
      "price": 24,
      "xiaohongshuId": "62234aad000000000102c18e",
      "cite": [
        "furu-zheng-roupian"
      ]
    },
    {
      "id": "wandouli-chao-roumo",
      "type": "cookbook",
      "shortDate": "2022-02-24",
      "title": "超级下饭的豌豆粒炒肉末（10min）",
      "desc": "前两天不是做了酸菜炒牛肉用了指天椒嘛，一小份还有好几根，所以昨晚又炒了个可以消灭指天椒的菜，豌豆粒炒肉末，好好吃！",
      "keywords": "豌豆粒炒肉末,豌豆粒,豌豆炒肉",
      "date": "2022-02-24 21:29:00",
      "cover": "http://cdn.chengpeiquan.com/img/2022/02/20220224133710.jpg?x-oss-process=image/interlace,1",
      "categories": [
        "thrift",
        "bento"
      ],
      "duration": 10,
      "price": 8,
      "xiaohongshuId": "621717d6000000002103a179"
    },
    {
      "id": "tudou-kao-cuipi-meitourou",
      "type": "cookbook",
      "shortDate": "2022-02-13",
      "title": "省钱菜谱：8块钱的土豆烤脆皮梅头肉（20min）",
      "desc": "今晚突然想吃脆皮烧肉，但是家里只有一块还没切的梅头肉，所以弄了个简易版本的，除了包锡纸之外，貌似没有相似之处哈哈哈哈哈哈哈哈哈哈哈哈哈哈。",
      "keywords": "梅头肉,脆皮梅头肉,土豆烤脆皮梅头肉",
      "date": "2022-02-13 06:07:00",
      "cover": "http://cdn.chengpeiquan.com/img/2022/02/20220213234248.jpg?x-oss-process=image/interlace,1",
      "categories": [
        "thrift",
        "bento"
      ],
      "duration": 20,
      "price": 8,
      "xiaohongshuId": "6207bf29000000002103ff54",
      "cite": [
        "chaoshan-fanqie-jidan-tang"
      ]
    },
    {
      "id": "furu-zheng-roupian",
      "type": "cookbook",
      "shortDate": "2022-02-09",
      "title": "省钱菜谱：6块钱的腐乳蒸肉片（20min）",
      "desc": "这是跟我妈学的一个做法，我以前读书在家的时候就很喜欢吃了，蒸肉蒸排骨都好吃，偏甜口。",
      "keywords": "腐乳蒸肉片,腐乳",
      "date": "2022-02-09 04:05:00",
      "cover": "http://cdn.chengpeiquan.com/img/2022/02/20220214004426.jpg?x-oss-process=image/interlace,1",
      "categories": [
        "thrift",
        "bento",
        "teochew",
        "beginner"
      ],
      "duration": 20,
      "price": 8,
      "xiaohongshuId": "62025c99000000000102efef",
      "cite": [
        "furu-zheng-paigu"
      ]
    },
    {
      "id": "suanxiang-kao-jituipa",
      "type": "cookbook",
      "shortDate": "2022-02-05",
      "title": "省钱菜谱：3.09元的蒜香烤鸡腿扒（15min）",
      "desc": "是我前天晚餐和昨天的午餐和晚餐，蒸饺和煎饺都好吃哈哈哈哈！想做这个是因为那天买的芋头太大个了，剩下的感觉要吃好久，干脆包成饺子！也是潮汕这边比较常见的小吃用料，这个做法是沿袭了我家那边的芋粿、芋丝球（芋丸）、芋丝糕等小吃的做法，做了一点调整。",
      "keywords": "蒜香烤鸡扒,蒜香鸡扒,烤鸡腿扒",
      "date": "2022-02-05 04:12:00",
      "cover": "http://cdn.chengpeiquan.com/img/2022/02/20220204215537.jpg?x-oss-process=image/interlace,1",
      "categories": [
        "thrift",
        "bento"
      ],
      "duration": 15,
      "price": 3.09,
      "xiaohongshuId": "61fd1ebb0000000001028d75"
    },
    {
      "id": "chaoshan-lushui-zhuerduo",
      "type": "cookbook",
      "shortDate": "2022-01-31",
      "title": "潮汕卤水之卤猪耳朵",
      "desc": "是什么动力让我放假第一天早起？哈哈哈哈哈哈哈哈哈哈是为了跟大妈们抢猪耳朵，之前几个周末就想做卤猪耳了，结果每次去到都卖完了，一只猪就两只耳朵哈哈哈哈…",
      "keywords": "潮州,潮州卤水,潮汕卤水,卤猪耳朵,卤猪头肉",
      "date": "2022-01-31 05:56:00",
      "cover": "http://cdn.chengpeiquan.com/img/2022/01/20220130233409.jpg?x-oss-process=image/interlace,1",
      "categories": [
        "bento",
        "teochew"
      ],
      "duration": 0,
      "price": 0,
      "xiaohongshuId": "61f698f9000000000102e66e",
      "cite": [
        "chaoshan-lushui-wuhuarou"
      ]
    },
    {
      "id": "shacharoupian-kao-tudouli",
      "type": "cookbook",
      "shortDate": "2022-01-27",
      "title": "省钱菜谱：6块钱的沙茶肉片烤土豆（15min）",
      "desc": "这个点突然就醒了…睡不着了，翻到个库存的笔记，发一下，继续睡哈哈哈，还可以再睡一个多小时，笔记当时记录的是上肉大约5块钱，土豆便宜，大约1块钱，分量挺多哈哈哈。",
      "keywords": "沙茶,烤肉,沙茶烤肉",
      "date": "2022-01-27 14:32:00",
      "cover": "http://cdn.chengpeiquan.com/img/2021/11/20220127132011.jpg?x-oss-process=image/interlace,1",
      "categories": [
        "thrift",
        "bento"
      ],
      "duration": 15,
      "price": 6,
      "xiaohongshuId": "61f1cbe400000000210396f2"
    },
    {
      "id": "cuipi-yanjuji-tuipa",
      "type": "cookbook",
      "shortDate": "2022-01-20",
      "title": "省钱菜谱：3.78元的脆皮盐焗鸡腿扒（20min）",
      "desc": "之前发过一次土豆脆皮烤鸡的做法，今晚用类似的方式搞了个脆皮盐焗鸡腿扒，也很好吃！！！",
      "keywords": "鸡腿扒,盐焗鸡,烤鸡,脆皮鸡,空气炸锅",
      "date": "2022-01-20 07:07:00",
      "cover": "http://cdn.chengpeiquan.com/img/2022/01/20220119232320.jpg?x-oss-process=image/interlace,1",
      "categories": [
        "thrift",
        "bento",
        "beginner"
      ],
      "duration": 20,
      "price": 3.78,
      "xiaohongshuId": "61e8292d000000000102ff43"
    },
    {
      "id": "shacha-chaorou",
      "type": "cookbook",
      "shortDate": "2022-01-14",
      "title": "省钱菜谱：4块钱的沙茶炒肉（3min）",
      "desc": "这几天深圳又出了几例，还好南山这边还是很稳，不过也是测了好几轮核酸，希望疫情快点过去！！！今晚还是做个潮汕风味的快手菜，沙茶酱是主角哈哈哈！",
      "keywords": "潮汕美食,沙茶炒肉,沙茶酱",
      "date": "2022-01-14 07:07:00",
      "cover": "http://cdn.chengpeiquan.com/img/2022/01/20220113225102.jpg?x-oss-process=image/interlace,1",
      "categories": [
        "thrift",
        "bento",
        "teochew",
        "beginner"
      ],
      "duration": 3,
      "price": 4,
      "xiaohongshuId": "61e03a060000000001028edb"
    },
    {
      "id": "nenjian-jixiongroupian",
      "type": "cookbook",
      "shortDate": "2021-12-29",
      "title": "省钱菜谱：3.5元的内柔外刚煎鸡胸肉片（5min）",
      "desc": "今晚试了一个鸡胸肉的新做法，平时煎鸡胸肉比较让人纠结的就是口感比较柴，今晚这个做法虽然很小众（不敢说完全没有人这样搞哈哈哈），口感很不一样！外层是焦香的煎鸡肉，内层却超嫩有汁，就是这么神奇！",
      "keywords": "鸡胸肉,煎鸡胸肉,鸡胸肉做法,上班族带饭,空气炸锅食谱",
      "date": "2021-12-29 07:13:00",
      "cover": "http://cdn.chengpeiquan.com/img/2021/12/20211230010054.jpg?x-oss-process=image/interlace,1",
      "categories": [
        "thrift",
        "bento"
      ],
      "duration": 5,
      "price": 3.5,
      "xiaohongshuId": "61cb297d0000000001028272"
    }
  ]
}