{
  "author": {
    "name": "chengpeiquan",
    "email": "chengpeiquan@chengpeiquan.com",
    "link": "https://chengpeiquan.com"
  },
  "type": "cookbook",
  "total": 67,
  "page": 4,
  "lastPage": 7,
  "category": "bento",
  "data": [
    {
      "id": "xiancai-chao-roujuan",
      "type": "cookbook",
      "shortDate": "2021-12-23",
      "title": "省钱菜单：4.7元的咸菜炒肉卷（3min）",
      "desc": "哈哈哈哈上次的韭菜花炒肉卷下面评论好几个小姐姐都推荐了咸菜炒肉卷！我也来啦！！！好吃！！！",
      "keywords": "潮州肉卷,潮州咸菜,咸菜炒肉卷",
      "date": "2021-12-23 07:07:00",
      "cover": "http://cdn.chengpeiquan.com/img/2022/01/20220108010442.jpg?x-oss-process=image/interlace,1",
      "categories": [
        "thrift",
        "bento",
        "teochew",
        "beginner"
      ],
      "duration": 3,
      "price": 4.7,
      "xiaohongshuId": "61c33f36000000000102d2e7"
    },
    {
      "id": "xianggu-zhurou-yumi-jianjiao",
      "type": "cookbook",
      "shortDate": "2021-12-21",
      "title": "省钱菜单：香脆又香甜！香菇猪肉玉米煎饺太好吃了！",
      "desc": "耶耶耶！昨晚的香菇玉米猪肉饺子煎出来太好吃了！！！虽然玉米饺子贵一点，不过这一大碗也就11块钱，自己包饺子划算太多了！",
      "keywords": "香菇猪肉玉米煎饺,玉米饺子,玉米煎饺",
      "date": "2021-12-21 04:41:00",
      "cover": "http://cdn.chengpeiquan.com/img/2022/01/20220108014330.jpg?x-oss-process=image/interlace,1",
      "categories": [
        "thrift",
        "bento",
        "staple",
        "teochew"
      ],
      "duration": 3,
      "price": 4.7,
      "xiaohongshuId": "61c079f70000000001028f90",
      "cite": [
        "xianggu-zhurou-yumi-zhengjiao"
      ]
    },
    {
      "id": "xianggu-zhurou-yumi-zhengjiao",
      "type": "cookbook",
      "shortDate": "2021-12-20",
      "title": "省钱菜谱：0.57元/只香菇猪肉玉米饺子（30min）",
      "desc": "今天是包香菇玉米猪肉饺子，做法也比较有我的个人特色，首先是纯玉米馅，没有混入胡萝卜等别的蔬菜，另外一个是我没有加五香粉之类的香料，只用了潮汕特色的调味品来调馅（鱼露搭配虾皮），简单的调味但是很鲜美，能够保持甜玉米的鲜甜口感！",
      "keywords": "香菇猪肉玉米蒸饺,玉米饺子,玉米蒸饺",
      "date": "2021-12-20 05:06:00",
      "cover": "http://cdn.chengpeiquan.com/img/2022/01/20220108020352.jpg?x-oss-process=image/interlace,1",
      "categories": [
        "thrift",
        "bento",
        "staple",
        "teochew"
      ],
      "duration": 30,
      "price": 0.57,
      "xiaohongshuId": "61bf2e4e000000002103470d",
      "cite": [
        "xianggu-zhurou-yumi-jianjiao"
      ]
    },
    {
      "id": "jiucaihua-chao-roujuan",
      "type": "cookbook",
      "shortDate": "2021-12-17",
      "title": "省钱菜谱：3.7元的韭菜花炒肉卷（3min）",
      "desc": "今晚难得在菜市场看到有肉卷卖，对于下班回家买菜这个时间点，遇到肉卷真不容易啊。肉卷是潮汕一种美食，是猪肉的一种加工品，很好吃！",
      "keywords": "潮汕美食,韭菜花炒肉卷,韭菜花,肉卷",
      "date": "2021-12-17 07:26:00",
      "cover": "http://cdn.chengpeiquan.com/img/2022/01/20220114234142.jpg?x-oss-process=image/interlace,1",
      "categories": [
        "thrift",
        "bento",
        "teochew",
        "beginner"
      ],
      "duration": 3,
      "price": 3.7,
      "xiaohongshuId": "61bb5a88000000000102ded0"
    },
    {
      "id": "kongqizhaguo-jiucai-jianjiao",
      "type": "cookbook",
      "shortDate": "2021-12-14",
      "title": "空气韭菜煎饺！空气炸锅的发明者真是现代爱迪生！",
      "desc": "昨天下午做了卤水，但是为了更入味所以昨晚没有立即吃，继续先卤着，然后昨晚又另外包了韭菜饺子，留了一盒今天晚上回来做煎饺。",
      "keywords": "潮州,潮州韭菜饺子,煎饺",
      "date": "2021-12-14 05:07:00",
      "cover": "http://cdn.chengpeiquan.com/img/2022/01/20220131234851.jpg?x-oss-process=image/interlace,1",
      "categories": [
        "thrift",
        "bento",
        "staple",
        "teochew"
      ],
      "duration": 0,
      "price": 0,
      "xiaohongshuId": "61b7459b000000002103c463"
    },
    {
      "id": "tudou-kao-cuipi-jituipa",
      "type": "cookbook",
      "shortDate": "2021-12-05",
      "title": "省钱菜谱：4.4元的土豆烤脆皮鸡腿扒（20min）",
      "desc": "告诉大家一个好消息，我终于快忙完了！赶开发了一个多月，项目终于要上线，这周末我要休个年假回家几天，然后接下来又可以跟大家一起天天做饭了！（希望不要又来一波赶项目……",
      "keywords": "烤鸡,脆皮鸡,土豆烤鸡,脆皮烤鸡,鸡腿扒",
      "date": "2021-12-05 04:10:00",
      "cover": "http://cdn.chengpeiquan.com/img/2022/01/20220115001907.jpg?x-oss-process=image/interlace,1",
      "categories": [
        "thrift",
        "bento",
        "teochew"
      ],
      "duration": 20,
      "price": 4.4,
      "xiaohongshuId": "61ae2f55000000000102d110"
    },
    {
      "id": "heijiao-kao-tudouli",
      "type": "cookbook",
      "shortDate": "2021-12-03",
      "title": "省钱菜谱：0.86元的黑椒烤土豆粒（15min）",
      "desc": "啊哈哈哈周末在猫超捡的漏，加上省钱卡啥的最后这斤土豆是 1.73 元，有 4 个，这一盘用了两个所以 0.86 元。",
      "keywords": "土豆,烤土豆,黑椒土豆",
      "date": "2021-12-03 21:13:00",
      "cover": "http://cdn.chengpeiquan.com/img/2022/01/20220201221842.jpg?x-oss-process=image/interlace,1",
      "categories": [
        "thrift",
        "bento",
        "beginner"
      ],
      "duration": 15,
      "price": 0.86,
      "xiaohongshuId": "61a9a76f000000000102d9ed"
    },
    {
      "id": "chaoshan-lushui-wuhuarou",
      "type": "cookbook",
      "shortDate": "2021-11-29",
      "title": "潮汕卤水之卤五花肉",
      "desc": "上周五有小姐姐问我说最近很忙，有什么菜可以提前几天准备，这样每天带饭就可以只煮饭，都是潮汕人，那必须首选潮汕卤水哈哈哈，周末提前做，真的可以吃好几天，而且卤汁还可以再用，可以再做几次卤蛋之类的小卤味，美滋滋！",
      "keywords": "潮州,潮州卤水,潮汕卤水,卤五花肉,卤蛋",
      "date": "2021-11-29 04:19:00",
      "cover": "http://cdn.chengpeiquan.com/img/2022/01/20220130235640.jpg?x-oss-process=image/interlace,1",
      "categories": [
        "bento",
        "teochew"
      ],
      "duration": 0,
      "price": 0,
      "xiaohongshuId": "61a373df000000002103cea1"
    },
    {
      "id": "suchengban-lurou-lurougan",
      "type": "cookbook",
      "shortDate": "2021-11-24",
      "title": "省钱菜谱：4.5元的速成版卤肉卤豆干（5min）",
      "desc": "原本以为买的粿汁皮要好几天才送到，结果…嗯？隔天（此处是Max问号表情包）……然后就等不到周末了哈哈哈哈哈哈，刚好今晚加班回来又比较晚，不想吃饭了，买了点炸豆干，切了点小上肉，用个便捷的方法搞点卤肉搭配一下。",
      "keywords": "卤肉,卤豆干",
      "date": "2021-11-24 08:09:00",
      "cover": "http://cdn.chengpeiquan.com/img/2022/02/20220202153101.jpg?x-oss-process=image/interlace,1",
      "categories": [
        "thrift",
        "teochew",
        "bento"
      ],
      "duration": 5,
      "price": 4.5,
      "xiaohongshuId": "619d122c000000000102c820"
    },
    {
      "id": "jiaofen-roumo-jiandan",
      "type": "cookbook",
      "shortDate": "2021-11-16",
      "title": "省钱菜谱：1.7元的椒粉肉末煎蛋（2min）",
      "desc": "今天的晚餐是平平无奇的煎蛋哈哈哈哈哈哈哈哈，双十一买了好多蛋，变着花样玩一下！",
      "keywords": "煎蛋",
      "date": "2021-11-16 06:25:00",
      "cover": "http://cdn.chengpeiquan.com/img/2022/02/20220202220049.jpg?x-oss-process=image/interlace,1",
      "categories": [
        "thrift",
        "bento"
      ],
      "duration": 2,
      "price": 1.7,
      "xiaohongshuId": "61926dd4000000000102664b"
    }
  ]
}