{
  "author": {
    "name": "chengpeiquan",
    "email": "chengpeiquan@chengpeiquan.com",
    "link": "https://chengpeiquan.com"
  },
  "type": "cookbook",
  "total": 67,
  "page": 7,
  "lastPage": 7,
  "category": "bento",
  "data": [
    {
      "id": "chashugu-hongzao-wujitang",
      "type": "cookbook",
      "shortDate": "2021-10-06",
      "title": "煲个又清澈又鲜甜味美的茶树菇红枣乌鸡汤（1.5h）",
      "desc": "想着明天再出去爬山，今晚继续放纵一下哈哈哈哈，煲个乌鸡汤来吃吃！我记得过年的时候我朋友问我，为什么我的鸡汤那么清澈，当时也简单跟她分享过，今晚再煲汤我就在这里记录下过程。",
      "keywords": "茶树菇红枣乌鸡汤,鸡汤,乌鸡汤,茶树菇鸡汤",
      "date": "2021-10-06 06:49:00",
      "cover": "http://cdn.chengpeiquan.com/img/2022/02/20220204223052.jpg?x-oss-process=image/interlace,1",
      "categories": [
        "thrift",
        "teochew",
        "bento",
        "soup"
      ],
      "duration": 90,
      "price": 0,
      "xiaohongshuId": "615c65fb000000002103f694"
    },
    {
      "id": "congzhulao-zhushou-lumian",
      "type": "cookbook",
      "shortDate": "2021-10-04",
      "title": "省钱菜谱：10元的潮汕葱珠朥猪手卤面（10min）",
      "desc": "昨晚说今天中午要吃卤面，哈哈哈搭配我老家那边的另外一种特色调味品 —— 葱珠油，我们那也叫葱珠朥，可好吃了！",
      "keywords": "葱珠油,葱珠朥,猪手面,卤面",
      "date": "2021-10-04 22:28:00",
      "cover": "http://cdn.chengpeiquan.com/img/2022/02/20220225132323.jpg?x-oss-process=image/interlace,1",
      "categories": [
        "thrift",
        "teochew",
        "bento",
        "staple"
      ],
      "duration": 10,
      "price": 10,
      "xiaohongshuId": "615a9f26000000000102b3e4",
      "cite": [
        "chaoshan-congzhulao",
        "chaoshan-luzhushou"
      ]
    },
    {
      "id": "chaoshan-luzhushou",
      "type": "cookbook",
      "shortDate": "2021-10-04",
      "title": "省钱菜谱：25元吃两顿的卤猪手（2.5h）",
      "desc": "昨天爬山运动量还可以，今天上称效果显著啊（根据体重称APP的反馈，补水方面还可以，消耗的主要是脂肪），所以今天放纵一下，卤个猪手，过几天假期结束前再去爬一次山消耗一波~",
      "keywords": "潮州小吃,潮汕小吃,潮州卤猪手,潮汕卤猪手",
      "date": "2021-10-04 06:24:00",
      "cover": "http://cdn.chengpeiquan.com/img/2022/02/20220302003924.jpg?x-oss-process=image/interlace,1",
      "categories": [
        "thrift",
        "teochew",
        "bento"
      ],
      "duration": 150,
      "price": 12.5,
      "xiaohongshuId": "6159bd33000000002103a0e4",
      "cite": [
        "congzhulao-zhushou-lumian"
      ]
    },
    {
      "id": "caifu-chao-guotiao",
      "type": "cookbook",
      "shortDate": "2021-10-04",
      "title": "省钱菜谱：3元的菜脯炒粿条（10min）",
      "desc": "前段时间忘记在哪篇笔记的评论下面在说菜脯，然后我一忙就忘记了，最近又有人评论到菜脯，所以，菜脯，我来啦哈哈哈哈哈哈哈！",
      "keywords": "潮州小吃,潮汕小吃,潮州菜脯炒粿条,潮汕菜脯炒粿条",
      "date": "2021-10-04 00:13:00",
      "cover": "http://cdn.chengpeiquan.com/img/2022/03/20220302132947.jpg?x-oss-process=image/interlace,1",
      "categories": [
        "thrift",
        "staple",
        "teochew",
        "bento"
      ],
      "duration": 10,
      "price": 3,
      "xiaohongshuId": "61596645000000000102f89a"
    },
    {
      "id": "liangban-roupi",
      "type": "cookbook",
      "shortDate": "2021-10-03",
      "title": "省钱菜单：5块钱的凉拌肉皮（60min）",
      "desc": "做完卤肉实在没忍住哈哈哈哈哈哈哈哈哈哈哈哈哈哈哈哈哈哈哈，切了一块卤肉，吃个宵夜！！！这个点最好的搭配就是潮汕粿汁了！！！",
      "keywords": "潮州小吃,潮汕小吃,潮州凉拌肉皮,潮汕凉拌肉皮",
      "date": "2021-10-03 07:04:00",
      "cover": "http://cdn.chengpeiquan.com/img/2022/03/20220302132028.jpg?x-oss-process=image/interlace,1",
      "categories": [
        "thrift",
        "bento",
        "teochew"
      ],
      "duration": 60,
      "price": 5,
      "xiaohongshuId": "6158751b000000000102ae70"
    },
    {
      "id": "chiyou-zhurou",
      "type": "cookbook",
      "shortDate": "2021-09-01",
      "title": "省钱菜谱：3元的豉油猪肉（2min）",
      "desc": "这道菜是我还在家初中高中的时候，我妈经常做给我吃的，那会赶着去上学，时间紧的时候，做这道菜非常快，而且也很好吃很下饭！",
      "keywords": "潮汕美食,豉油猪肉",
      "date": "2021-09-01 07:21:00",
      "cover": "http://cdn.chengpeiquan.com/img/2022/02/20220215012009.jpg?x-oss-process=image/interlace,1",
      "categories": [
        "thrift",
        "teochew",
        "bento",
        "beginner"
      ],
      "duration": 2,
      "price": 3,
      "xiaohongshuId": "612e48e500000000010255d6"
    },
    {
      "id": "xianggu-yumili-chao-roupian",
      "type": "cookbook",
      "shortDate": "2021-08-24",
      "title": "省钱菜谱：5块钱的香菇玉米粒炒肉片（5min）",
      "desc": "周末的时候凑单拿了根玉米，还有包云吞匀了点瘦肉留着炒菜，所以今晚吃的是：香菇玉米粒炒肉片。这道菜我很喜欢，以前有时候带饭去公司也会做它，没有太多汤汤水水，又有荤有素有粗粮，而且做法简单还便宜。",
      "keywords": "香菇玉米粒炒肉片,玉米炒肉",
      "date": "2021-08-24 06:47:00",
      "cover": "http://cdn.chengpeiquan.com/img/2022/02/20220223002231.jpg?x-oss-process=image/interlace,1",
      "categories": [
        "thrift",
        "bento"
      ],
      "duration": 5,
      "price": 5,
      "xiaohongshuId": "6123b4ee0000000001027ed2"
    }
  ]
}