{
  "author": {
    "name": "chengpeiquan",
    "email": "chengpeiquan@chengpeiquan.com",
    "link": "https://chengpeiquan.com"
  },
  "type": "cookbook",
  "total": 14,
  "page": 1,
  "lastPage": 2,
  "category": "soup",
  "data": [
    {
      "id": "chaoshan-xiyangcai-roupian-tang",
      "type": "cookbook",
      "shortDate": "2023-08-27",
      "title": "菜谱：西洋蔡同奀妹，简单的潮汕促肉汤（5min）",
      "desc": "今天来一个西洋菜焯肉片汤，潮汕人很爱吃的“促肉”汤（焯肉），除去把水煮开的时间，中间真正煮食材的时间也就不到 2 分钟，真的很快哈哈哈哈。至于今天这个名字，《七十二家房客》都看过吧？每次看到西洋菜，我就想到里面的“西洋蔡”，然后西洋蔡又和奀妹在一起，所以这道汤我就起名“西洋蔡同奀妹”啦（奀妹：？？？）",
      "keywords": "西洋蔡同奀妹,潮汕促肉汤,西洋菜焯肉片汤",
      "date": "2023-08-27 23:38:00",
      "cover": "http://cdn.chengpeiquan.com/img/2023/08/20230827164050.jpg?x-oss-process=image/interlace,1",
      "categories": [
        "thrift",
        "teochew",
        "soup"
      ],
      "duration": 5,
      "price": 9,
      "xiaohongshuId": "64eafed6000000001700e4d2"
    },
    {
      "id": "fenou-paigu-tang",
      "type": "cookbook",
      "shortDate": "2023-01-21",
      "title": "菜谱：18.5元的粉藕猪肘汤（30min）",
      "desc": "这两天看到猪肘打了个 5 折，半个猪肘 12 块钱，买了份回来煲汤，不过看评价的晒图很明显分量不太大，又机智的买了一份打折的猪腿肉，搭配起来也不错，煲汤的步骤都差不多，这次简单写一写。",
      "keywords": "粉藕猪肘汤,莲藕猪手汤",
      "date": "2023-01-21 00:50:00",
      "cover": "http://cdn.chengpeiquan.com/img/2023/01/20230120171422.jpg?x-oss-process=image/interlace,1",
      "categories": [
        "soup"
      ],
      "duration": 30,
      "price": 18.5,
      "xiaohongshuId": "63ca55e3000000001f010c19",
      "cite": [
        "huasheng-lianou-paigu-tang",
        "huasheng-zhushoutang"
      ]
    },
    {
      "id": "hongzao-yumi-gouqi-paigu-tang",
      "type": "cookbook",
      "shortDate": "2023-01-03",
      "title": "菜谱：高压锅版红枣枸杞玉米排骨汤（25min）",
      "desc": "我中午下去买了玉米土豆还有排骨猪肉，然后就回来啦！哈哈哈要做一个遵纪守法的花臂小哥！今晚煲了个玉米排骨汤！（步骤和莲藕排骨汤差不多其实…",
      "keywords": "红枣玉米排骨汤,排骨汤,玉米汤,玉米排骨汤",
      "date": "2023-01-03 06:36:00",
      "cover": "http://cdn.chengpeiquan.com/img/2023/01/20230102224858.jpg?x-oss-process=image/interlace,1",
      "categories": [
        "soup"
      ],
      "duration": 25,
      "price": 24,
      "xiaohongshuId": "63b2ebdf000000001f00836c",
      "cite": [
        "hongzao-yumi-paigu-tang",
        "lajiang-zhanjiang"
      ]
    },
    {
      "id": "donggua-paigu-tang",
      "type": "cookbook",
      "shortDate": "2022-08-08",
      "title": "天热消暑！煲个冬瓜排骨汤（1h）",
      "desc": "-0- 今天感觉有点上火，可惜附近没有凉茶店（也不是完全没有，配送费 7 块钱实在太贵…），不然一瓶癍痧凉茶就很爽了！所以今晚煲个冬瓜汤来吃吃！",
      "keywords": "冬瓜排骨汤,冬瓜汤,排骨汤",
      "date": "2022-08-08 04:47:00",
      "cover": "http://cdn.chengpeiquan.com/img/2022/08/20220807205511.jpg?x-oss-process=image/interlace,1",
      "categories": [
        "soup",
        "beginner",
        "teochew"
      ],
      "duration": 60,
      "price": 25,
      "xiaohongshuId": "62efb47100000000150097cb"
    },
    {
      "id": "jinzhengu-feiniu-fanqie-tang",
      "type": "cookbook",
      "shortDate": "2022-08-01",
      "title": "金针菇肥牛番茄汤（10min）",
      "desc": "这个周末热到开着空调也要打赤膊了…然后因为长发贴着后背，才发现我的头发已经过腰了！！！虽然只有最中间的那一撮…",
      "keywords": "金针菇肥牛番茄汤,番茄肥牛,肥牛",
      "date": "2022-08-01 05:19:00",
      "cover": "http://cdn.chengpeiquan.com/img/2022/07/20220731213919.jpg?x-oss-process=image/interlace,1",
      "categories": [
        "soup",
        "beginner"
      ],
      "duration": 10,
      "price": 20,
      "xiaohongshuId": "62e68177000000000e029521"
    },
    {
      "id": "heiyu-qiugua-tang",
      "type": "cookbook",
      "shortDate": "2022-05-24",
      "title": "菜谱：黑鱼秋瓜汤（8min）",
      "desc": "上个周末回了趟广州，一下高铁就感觉回到了家一样，毕竟是我的第二故乡，这次回去是去看了下房子，然后准备回广州工作和生活啦！所以接下来这一个多星期会比较忙，笔记估计不太有时间整理（忙着工作和收拾东西hhh），不过评论和私信我都会回的哈哈哈…",
      "keywords": "潮州美食,潮汕美食,黑鱼秋瓜汤",
      "date": "2022-05-24 07:13:00",
      "cover": "http://cdn.chengpeiquan.com/img/2022/05/20220523233152.jpg?x-oss-process=image/interlace,1",
      "categories": [
        "beginner",
        "teochew",
        "soup",
        "orthodontic"
      ],
      "duration": 8,
      "price": 14,
      "xiaohongshuId": "628ba486000000002103d8a9",
      "cite": [
        "chaoshan-suantoulao"
      ]
    },
    {
      "id": "huaishan-hongzao-paigu-tang",
      "type": "cookbook",
      "shortDate": "2022-05-09",
      "title": "淮山红枣排骨汤（2h）",
      "desc": "五一因为打了疫苗，安慰自己要休息，然后就没有运动哈哈哈哈，所以今天才出去爬山，下山的时候还下雨了，累死！还好出门前先处理好了食材，定时煲汤，回到家洗个热水澡舒舒服服的喝汤，好爽啊！",
      "keywords": "淮山红枣排骨汤,排骨汤",
      "date": "2022-05-09 06:48:00",
      "cover": "http://cdn.chengpeiquan.com/img/2022/05/20220514010919.jpg?x-oss-process=image/interlace,1",
      "categories": [
        "soup",
        "teochew",
        "beginner"
      ],
      "duration": 120,
      "price": 18,
      "xiaohongshuId": "6277d83d00000000210351f5"
    },
    {
      "id": "hongzao-yimi-wujitang",
      "type": "cookbook",
      "shortDate": "2022-04-17",
      "title": "红枣薏米乌鸡汤（1.5h）",
      "desc": "想着明天再出去爬山，今晚继续放纵一下哈哈哈哈，煲个乌鸡汤来吃吃！我记得过年的时候我朋友问我，为什么我的鸡汤那么清澈，当时也简单跟她分享过，今晚再煲汤我就在这里记录下过程。",
      "keywords": "红枣薏米乌鸡汤,鸡汤,乌鸡汤,薏米鸡汤",
      "date": "2022-04-17 07:40:00",
      "cover": "http://cdn.chengpeiquan.com/img/2022/04/20220416235437.jpg?x-oss-process=image/interlace,1",
      "categories": [
        "soup"
      ],
      "duration": 90,
      "price": 0,
      "xiaohongshuId": "625ae38700000000210368c7",
      "cite": [
        "chashugu-hongzao-wujitang",
        "wujitangmian"
      ]
    },
    {
      "id": "hongzao-yumi-paigu-tang",
      "type": "cookbook",
      "shortDate": "2022-03-15",
      "title": "菜谱：煲个红枣玉米排骨汤（1.5h）",
      "desc": "我中午下去买了玉米土豆还有排骨猪肉，然后就回来啦！哈哈哈要做一个遵纪守法的花臂小哥！今晚煲了个玉米排骨汤！（步骤和莲藕排骨汤差不多其实…",
      "keywords": "红枣玉米排骨汤,排骨汤,玉米汤,玉米排骨汤",
      "date": "2022-03-15 08:05:00",
      "cover": "http://cdn.chengpeiquan.com/img/2022/02/20220315232003.jpg?x-oss-process=image/interlace,1",
      "categories": [
        "soup"
      ],
      "duration": 90,
      "price": 28,
      "xiaohongshuId": "6230a968000000000102cfca",
      "cite": [
        "hongzao-yumi-gouqi-paigu-tang",
        "lajiang-zhanjiang"
      ]
    },
    {
      "id": "huasheng-lianou-paigu-tang",
      "type": "cookbook",
      "shortDate": "2022-02-28",
      "title": "菜谱：煲个花生莲藕排骨汤（1.5h）",
      "desc": "周末煲个汤哈哈哈哈！最近玉米价格疯了，煲莲藕也不错！",
      "keywords": "花生莲藕排骨汤,排骨汤,莲藕汤,莲藕排骨汤",
      "date": "2022-02-28 08:05:00",
      "cover": "http://cdn.chengpeiquan.com/img/2022/02/20220228001233.jpg?x-oss-process=image/interlace,1",
      "categories": [
        "soup"
      ],
      "duration": 90,
      "price": 28,
      "xiaohongshuId": "621ba1400000000021036537",
      "cite": [
        "lajiang-zhanjiang"
      ]
    }
  ]
}