{
  "author": {
    "name": "chengpeiquan",
    "email": "chengpeiquan@chengpeiquan.com",
    "link": "https://chengpeiquan.com"
  },
  "type": "cookbook",
  "total": 14,
  "page": 2,
  "lastPage": 2,
  "category": "soup",
  "data": [
    {
      "id": "huasheng-zhushoutang",
      "type": "cookbook",
      "shortDate": "2021-11-08",
      "title": "两个步骤煲出超级软糯的花生猪手汤（3h）",
      "desc": "立冬啦！虽然深圳今天是30度的冬天，不过明天新的一周还真的是要降温，今天煲个汤先提前暖和暖和哈哈哈哈（刚好傍晚开始就有点凉飕飕了…因为昨天晚上去爬山了，运动量略大，所以今晚煲的是肉量超满足的猪手，超级软糯，几乎入口即化，你看那猪皮，稍微一抖就断了，嗷嗷嗷~汤也是超级鲜甜！！！",
      "keywords": "花生猪手汤,猪手汤,花生猪手",
      "date": "2021-11-08 05:57:00",
      "cover": "http://cdn.chengpeiquan.com/img/2022/02/20220203172535.jpg?x-oss-process=image/interlace,1",
      "categories": [
        "thrift",
        "bento",
        "soup"
      ],
      "duration": 180,
      "price": 0,
      "xiaohongshuId": "6187db60000000002103af12"
    },
    {
      "id": "chashugu-hongzao-wujitang",
      "type": "cookbook",
      "shortDate": "2021-10-06",
      "title": "煲个又清澈又鲜甜味美的茶树菇红枣乌鸡汤（1.5h）",
      "desc": "想着明天再出去爬山，今晚继续放纵一下哈哈哈哈，煲个乌鸡汤来吃吃！我记得过年的时候我朋友问我，为什么我的鸡汤那么清澈，当时也简单跟她分享过，今晚再煲汤我就在这里记录下过程。",
      "keywords": "茶树菇红枣乌鸡汤,鸡汤,乌鸡汤,茶树菇鸡汤",
      "date": "2021-10-06 06:49:00",
      "cover": "http://cdn.chengpeiquan.com/img/2022/02/20220204223052.jpg?x-oss-process=image/interlace,1",
      "categories": [
        "thrift",
        "teochew",
        "bento",
        "soup"
      ],
      "duration": 90,
      "price": 0,
      "xiaohongshuId": "615c65fb000000002103f694"
    },
    {
      "id": "chaoshan-fanqie-jidan-tang",
      "type": "cookbook",
      "shortDate": "2021-09-14",
      "title": "省钱菜谱：4.5元酸酸甜甜的潮式番茄鸡蛋汤（7min）",
      "desc": "今晚分享一个我很喜欢的番茄鸡蛋汤的做法，甜口，和平时在外面吃的番茄鸡蛋汤不太一样，对比外面常见的咸口的番茄鸡蛋，我更钟爱于酸酸甜甜的口感。",
      "keywords": "潮汕美食,番茄鸡蛋汤",
      "date": "2021-09-14 05:59:00",
      "cover": "http://cdn.chengpeiquan.com/img/2022/02/20220222132411.jpg?x-oss-process=image/interlace,1",
      "categories": [
        "thrift",
        "teochew",
        "orthodontic",
        "soup",
        "beginner"
      ],
      "duration": 7,
      "price": 4.5,
      "xiaohongshuId": "613f59520000000001027482"
    },
    {
      "id": "roumo-doufu-tang",
      "type": "cookbook",
      "shortDate": "2021-09-02",
      "title": "省钱菜谱：2元的肉末豆腐汤（10min）",
      "desc": "今晚临下班下起了雨，穿着背心裤衩还有点凉飕飕的，想想煮点汤好了，暖一暖~",
      "keywords": "潮汕美食,肉末豆腐汤",
      "date": "2021-09-02 07:42:00",
      "cover": "http://cdn.chengpeiquan.com/img/2022/02/20220215010601.jpg?x-oss-process=image/interlace,1",
      "categories": [
        "thrift",
        "teochew",
        "soup",
        "orthodontic",
        "beginner"
      ],
      "duration": 10,
      "price": 2,
      "xiaohongshuId": "612f9f75000000002103524d",
      "cite": [
        "chaoshan-suantoulao"
      ]
    }
  ]
}